%!PS-Adobe-3.0 EPSF-3.0
%%DocumentNeededResources: font Helvetica
%%+ font Helvetica-Bold
%%+ font Helvetica-Oblique
%%+ font Helvetica-BoldOblique
%%+ font Symbol
%%Title: R Graphics Output
%%Creator: R Software
%%Pages: (atend)
%%BoundingBox: 0 0 504 504
%%EndComments
%%BeginProlog
/bp  { gs sRGB gs } def
% begin .ps.prolog
/gs  { gsave } bind def
/gr  { grestore } bind def
/ep  { showpage gr gr } bind def
/m   { moveto } bind def
/l  { rlineto } bind def
/np  { newpath } bind def
/cp  { closepath } bind def
/f   { fill } bind def
/o   { stroke } bind def
/c   { newpath 0 360 arc } bind def
/r   { 4 2 roll moveto 1 copy 3 -1 roll exch 0 exch rlineto 0 rlineto -1 mul 0 exch rlineto closepath } bind def
/p1  { stroke } bind def
/p2  { gsave bg fill grestore newpath } bind def
/p3  { gsave bg fill grestore stroke } bind def
/p6  { gsave bg eofill grestore newpath } bind def
/p7  { gsave bg eofill grestore stroke } bind def
/t   { 5 -2 roll moveto gsave rotate
       1 index stringwidth pop
       mul neg 0 rmoveto show grestore } bind def
/ta  { 4 -2 roll moveto gsave rotate show } bind def
/tb  { 2 -1 roll 0 rmoveto show } bind def
/cl  { grestore gsave newpath 3 index 3 index moveto 1 index
       4 -1 roll lineto  exch 1 index lineto lineto
       closepath clip newpath } bind def
/rgb { setrgbcolor } bind def
/s   { scalefont setfont } bind def
% end   .ps.prolog
/sRGB { [ /CIEBasedABC
          << /DecodeLMN
               [ { dup 0.03928 le
                        {12.92321 div}
                        {0.055 add 1.055 div 2.4 exp }
                     ifelse
                 } bind dup dup
               ]
             /MatrixLMN [0.412457 0.212673 0.019334
                         0.357576 0.715152 0.119192
                         0.180437 0.072175 0.950301]
             /WhitePoint [0.9505 1.0 1.0890]
           >>
         ] setcolorspace } bind def
/srgb { setcolor } bind def
%%IncludeResource: font Helvetica
/Helvetica findfont
dup length dict begin
  {1 index /FID ne {def} {pop pop} ifelse} forall
  /Encoding ISOLatin1Encoding def
  currentdict
  end
/Font1 exch definefont pop
%%IncludeResource: font Helvetica-Bold
/Helvetica-Bold findfont
dup length dict begin
  {1 index /FID ne {def} {pop pop} ifelse} forall
  /Encoding ISOLatin1Encoding def
  currentdict
  end
/Font2 exch definefont pop
%%IncludeResource: font Helvetica-Oblique
/Helvetica-Oblique findfont
dup length dict begin
  {1 index /FID ne {def} {pop pop} ifelse} forall
  /Encoding ISOLatin1Encoding def
  currentdict
  end
/Font3 exch definefont pop
%%IncludeResource: font Helvetica-BoldOblique
/Helvetica-BoldOblique findfont
dup length dict begin
  {1 index /FID ne {def} {pop pop} ifelse} forall
  /Encoding ISOLatin1Encoding def
  currentdict
  end
/Font4 exch definefont pop
%%IncludeResource: font Symbol
/Symbol findfont
dup length dict begin
  {1 index /FID ne {def} {pop pop} ifelse} forall
  currentdict
  end
/Font5 exch definefont pop
%%EndProlog
%%Page: 1 1
bp
59.04 73.44 473.76 444.96 cl
0 0 0 srgb
1.50 setlinewidth
[] 0 setdash
1 setlinecap
1 setlinejoin
10.00 setmiterlimit
np
82.08 222.94 m
7.68 4.17 l
7.68 4.41 l
7.68 4.05 l
7.68 4.93 l
7.68 3.63 l
7.68 6.12 l
7.68 7.39 l
7.68 7.16 l
7.68 6.63 l
7.68 5.53 l
7.68 3.89 l
7.68 3.94 l
7.68 4.70 l
7.68 4.81 l
7.68 4.73 l
7.68 4.56 l
7.68 6.18 l
7.68 6.49 l
7.68 5.87 l
7.68 5.39 l
7.68 4.89 l
7.68 4.80 l
7.68 4.75 l
7.68 5.68 l
7.68 5.96 l
7.68 5.96 l
7.68 5.10 l
7.68 5.17 l
7.68 5.25 l
7.68 4.34 l
7.68 4.35 l
7.68 6.03 l
7.68 5.85 l
7.68 6.25 l
7.68 5.24 l
7.68 0 l
7.68 0 l
7.68 0 l
7.68 0 l
o
0.00 0.00 504.00 504.00 cl
0 0 0 srgb
0.75 setlinewidth
[] 0 setdash
1 setlinecap
1 setlinejoin
10.00 setmiterlimit
np
74.40 73.44 m
384.00 0 l
o
np
74.40 73.44 m
0 -7.20 l
o
np
151.20 73.44 m
0 -7.20 l
o
np
228.00 73.44 m
0 -7.20 l
o
np
304.80 73.44 m
0 -7.20 l
o
np
381.60 73.44 m
0 -7.20 l
o
np
458.40 73.44 m
0 -7.20 l
o
/Font1 findfont 12 s
74.40 47.52 (0) .5 0 t
151.20 47.52 (10) .5 0 t
228.00 47.52 (20) .5 0 t
304.80 47.52 (30) .5 0 t
381.60 47.52 (40) .5 0 t
458.40 47.52 (50) .5 0 t
np
59.04 87.20 m
0 344.00 l
o
np
59.04 87.20 m
-7.20 0 l
o
np
59.04 136.34 m
-7.20 0 l
o
np
59.04 185.49 m
-7.20 0 l
o
np
59.04 234.63 m
-7.20 0 l
o
np
59.04 283.77 m
-7.20 0 l
o
np
59.04 332.91 m
-7.20 0 l
o
np
59.04 382.06 m
-7.20 0 l
o
np
59.04 431.20 m
-7.20 0 l
o
41.76 87.20 (0) .5 90 t
41.76 136.34 (10) .5 90 t
41.76 185.49 (20) .5 90 t
41.76 234.63 (30) .5 90 t
41.76 283.77 (40) .5 90 t
41.76 332.91 (50) .5 90 t
41.76 382.06 (60) .5 90 t
41.76 431.20 (70) .5 90 t
np
59.04 73.44 m
414.72 0 l
0 371.52 l
-414.72 0 l
0 -371.52 l
o
0.00 0.00 504.00 504.00 cl
/Font1 findfont 12 s
0 0 0 srgb
252.73 18.72 (Da) 0 ta
-0.360 (ys) tb gr
12.96 259.20 (SWC \(mm\)) .5 90 t
59.04 73.44 473.76 444.96 cl
0 0 0 srgb
0.75 setlinewidth
[] 0 setdash
1 setlinecap
1 setlinejoin
10.00 setmiterlimit
82.08 156.00 149.63 -69.12 r p1
1.50 setlinewidth
[] 0 setdash
np
90.72 144.48 m
17.28 0 l
o
0.6275 0.1255 0.9412 srgb
np
90.72 132.96 m
17.28 0 l
o
0 1 0 srgb
np
90.72 121.44 m
17.28 0 l
o
1 0 0 srgb
np
90.72 109.92 m
17.28 0 l
o
0 0 0 srgb
1.50 setlinewidth
[ 4.50 7.50] 0 setdash
np
90.72 98.40 m
17.28 0 l
o
/Font1 findfont 10 s
116.64 140.89 (Sensors) 0 0 t
116.64 129.37 (Def) 0 ta
-0.300 (ault) tb gr
116.64 117.85 (Best predictor) 0 0 t
116.64 106.33 (Linear combination) 0 0 t
116.64 94.81 (Unkno) 0 ta
-0.150 (wn sensors v) tb
-0.250 (alues) tb gr
0.8275 0.8275 0.8275 srgb
0.75 setlinewidth
[ 0.00 3.00] 0 setdash
np
110.88 73.44 m
0 371.52 l
o
np
162.72 73.44 m
0 371.52 l
o
np
214.56 73.44 m
0 371.52 l
o
np
266.40 73.44 m
0 371.52 l
o
np
318.24 73.44 m
0 371.52 l
o
np
370.08 73.44 m
0 371.52 l
o
np
421.92 73.44 m
0 371.52 l
o
np
59.04 135.36 m
414.72 0 l
o
np
59.04 197.28 m
414.72 0 l
o
np
59.04 259.20 m
414.72 0 l
o
np
59.04 321.12 m
414.72 0 l
o
np
59.04 383.04 m
414.72 0 l
o
/Font1 findfont 12 s
0 0 0 srgb
396.66 122.30 (F) 0 ta
-0.360 (orecast) tb gr
1.50 setlinewidth
[ 0.00 6.00] 0 setdash
np
381.60 87.20 m
0 344.00 l
o
1 0 0 srgb
1.50 setlinewidth
[] 0 setdash
np
82.08 233.80 m
7.68 -0.27 l
7.68 -0.81 l
7.68 -1.40 l
7.68 -2.23 l
7.68 -2.54 l
7.68 34.06 l
7.68 7.25 l
7.68 5.16 l
7.68 3.15 l
7.68 1.61 l
7.68 -0.40 l
7.68 -1.56 l
7.68 -1.20 l
7.68 14.81 l
7.68 4.54 l
7.68 4.99 l
7.68 6.40 l
7.68 20.03 l
7.68 6.38 l
7.68 4.08 l
7.68 4.59 l
7.68 4.30 l
7.68 4.55 l
7.68 5.44 l
7.68 6.93 l
7.68 8.59 l
7.68 7.08 l
7.68 5.61 l
7.68 5.93 l
7.68 3.87 l
7.68 -3.21 l
7.68 -4.07 l
7.68 4.45 l
7.68 -7.14 l
7.68 -2.91 l
7.68 5.92 l
7.68 6.65 l
7.68 5.22 l
7.68 3.76 l
7.68 18.48 l
7.68 8.69 l
7.68 0.52 l
7.68 -6.19 l
7.68 -1.34 l
7.68 -1.59 l
7.68 -4.99 l
7.68 7.68 l
7.68 -5.56 l
7.68 -6.42 l
o
0.6275 0.1255 0.9412 srgb
np
82.08 222.94 m
7.68 -0.21 l
7.68 -0.63 l
7.68 -1.15 l
7.68 -1.81 l
7.68 -2.11 l
7.68 33.22 l
7.68 7.39 l
7.68 6.04 l
7.68 3.52 l
7.68 2.07 l
7.68 0.08 l
7.68 -0.93 l
7.68 -0.47 l
7.68 21.00 l
7.68 5.15 l
7.68 3.99 l
7.68 4.68 l
7.68 13.49 l
7.68 3.04 l
7.68 -3.88 l
7.68 -11.66 l
7.68 -20.71 l
7.68 -17.25 l
7.68 -16.06 l
7.68 -13.62 l
7.68 2.53 l
7.68 48.87 l
7.68 4.68 l
7.68 -5.00 l
7.68 -1.56 l
7.68 -9.04 l
7.68 -14.34 l
7.68 -17.24 l
7.68 4.17 l
7.68 -8.14 l
7.68 -21.92 l
7.68 -21.58 l
7.68 -17.14 l
7.68 -13.27 l
7.68 12.58 l
7.68 -0.08 l
7.68 -12.08 l
7.68 20.23 l
7.68 -7.35 l
7.68 -5.63 l
7.68 -6.05 l
7.68 32.63 l
7.68 -8.99 l
7.68 -7.16 l
o
0 1 0 srgb
np
82.08 221.47 m
7.68 -2.15 l
7.68 -2.92 l
7.68 -3.59 l
7.68 -5.01 l
7.68 -4.93 l
7.68 47.94 l
7.68 7.93 l
7.68 5.11 l
7.68 2.25 l
7.68 0.51 l
7.68 -1.79 l
7.68 -3.40 l
7.68 -3.07 l
7.68 18.96 l
7.68 5.08 l
7.68 3.92 l
7.68 5.86 l
7.68 29.54 l
7.68 6.31 l
7.68 5.27 l
7.68 4.56 l
7.68 4.08 l
7.68 3.94 l
7.68 4.67 l
7.68 5.14 l
7.68 12.54 l
7.68 5.48 l
7.68 5.55 l
7.68 3.85 l
7.68 6.45 l
7.68 1.71 l
7.68 1.81 l
7.68 -5.60 l
7.68 13.24 l
7.68 0 l
7.68 -8.59 l
7.68 -11.52 l
7.68 -10.93 l
7.68 -9.76 l
7.68 14.82 l
7.68 3.50 l
7.68 -9.29 l
7.68 20.55 l
7.68 -7.69 l
7.68 -7.04 l
7.68 -10.92 l
7.68 34.44 l
7.68 -10.77 l
7.68 -9.94 l
o
0 0 0 srgb
1.50 setlinewidth
[ 4.50 7.50] 0 setdash
np
381.60 407.14 m
7.68 0 l
7.68 0 l
7.68 0 l
7.68 0 l
7.68 0 l
7.68 -0.40 l
7.68 -3.20 l
7.68 -2.45 l
7.68 1.91 l
7.68 -1.19 l
o
ep
%%Trailer
%%Pages: 1
%%EOF
