%!PS-Adobe-3.0 EPSF-3.0
%%DocumentNeededResources: font Helvetica
%%+ font Helvetica-Bold
%%+ font Helvetica-Oblique
%%+ font Helvetica-BoldOblique
%%+ font Symbol
%%Title: R Graphics Output
%%Creator: R Software
%%Pages: (atend)
%%BoundingBox: 0 0 504 504
%%EndComments
%%BeginProlog
/bp  { gs sRGB gs } def
% begin .ps.prolog
/gs  { gsave } bind def
/gr  { grestore } bind def
/ep  { showpage gr gr } bind def
/m   { moveto } bind def
/l  { rlineto } bind def
/np  { newpath } bind def
/cp  { closepath } bind def
/f   { fill } bind def
/o   { stroke } bind def
/c   { newpath 0 360 arc } bind def
/r   { 4 2 roll moveto 1 copy 3 -1 roll exch 0 exch rlineto 0 rlineto -1 mul 0 exch rlineto closepath } bind def
/p1  { stroke } bind def
/p2  { gsave bg fill grestore newpath } bind def
/p3  { gsave bg fill grestore stroke } bind def
/p6  { gsave bg eofill grestore newpath } bind def
/p7  { gsave bg eofill grestore stroke } bind def
/t   { 5 -2 roll moveto gsave rotate
       1 index stringwidth pop
       mul neg 0 rmoveto show grestore } bind def
/ta  { 4 -2 roll moveto gsave rotate show } bind def
/tb  { 2 -1 roll 0 rmoveto show } bind def
/cl  { grestore gsave newpath 3 index 3 index moveto 1 index
       4 -1 roll lineto  exch 1 index lineto lineto
       closepath clip newpath } bind def
/rgb { setrgbcolor } bind def
/s   { scalefont setfont } bind def
% end   .ps.prolog
/sRGB { [ /CIEBasedABC
          << /DecodeLMN
               [ { dup 0.03928 le
                        {12.92321 div}
                        {0.055 add 1.055 div 2.4 exp }
                     ifelse
                 } bind dup dup
               ]
             /MatrixLMN [0.412457 0.212673 0.019334
                         0.357576 0.715152 0.119192
                         0.180437 0.072175 0.950301]
             /WhitePoint [0.9505 1.0 1.0890]
           >>
         ] setcolorspace } bind def
/srgb { setcolor } bind def
%%IncludeResource: font Helvetica
/Helvetica findfont
dup length dict begin
  {1 index /FID ne {def} {pop pop} ifelse} forall
  /Encoding ISOLatin1Encoding def
  currentdict
  end
/Font1 exch definefont pop
%%IncludeResource: font Helvetica-Bold
/Helvetica-Bold findfont
dup length dict begin
  {1 index /FID ne {def} {pop pop} ifelse} forall
  /Encoding ISOLatin1Encoding def
  currentdict
  end
/Font2 exch definefont pop
%%IncludeResource: font Helvetica-Oblique
/Helvetica-Oblique findfont
dup length dict begin
  {1 index /FID ne {def} {pop pop} ifelse} forall
  /Encoding ISOLatin1Encoding def
  currentdict
  end
/Font3 exch definefont pop
%%IncludeResource: font Helvetica-BoldOblique
/Helvetica-BoldOblique findfont
dup length dict begin
  {1 index /FID ne {def} {pop pop} ifelse} forall
  /Encoding ISOLatin1Encoding def
  currentdict
  end
/Font4 exch definefont pop
%%IncludeResource: font Symbol
/Symbol findfont
dup length dict begin
  {1 index /FID ne {def} {pop pop} ifelse} forall
  currentdict
  end
/Font5 exch definefont pop
%%EndProlog
%%Page: 1 1
bp
59.04 73.44 473.76 444.96 cl
0 0 0 srgb
1.50 setlinewidth
[] 0 setdash
1 setlinecap
1 setlinejoin
10.00 setmiterlimit
np
77.89 222.94 m
3.49 4.17 l
3.49 4.41 l
3.49 4.05 l
3.49 4.93 l
3.50 3.63 l
3.49 6.12 l
3.49 7.39 l
3.49 7.16 l
3.49 6.63 l
3.49 5.53 l
3.49 3.89 l
3.49 3.94 l
3.49 4.70 l
3.49 4.81 l
3.49 4.73 l
3.50 4.56 l
3.49 6.18 l
3.49 6.49 l
3.49 5.87 l
3.49 5.39 l
3.49 4.89 l
3.49 4.80 l
3.49 4.75 l
3.49 5.68 l
3.49 5.96 l
3.49 5.96 l
3.50 5.10 l
3.49 5.17 l
3.49 5.25 l
3.49 4.34 l
3.49 4.35 l
3.49 6.03 l
3.49 5.85 l
3.49 6.25 l
3.49 5.24 l
3.49 0 l
3.49 0 l
3.50 0 l
3.49 0 l
3.49 0 l
3.49 0 l
3.49 0 l
3.49 0 l
3.49 0 l
3.49 -0.40 l
3.49 -3.20 l
3.49 -2.45 l
3.49 1.91 l
3.50 -1.19 l
3.49 5.33 l
3.49 0 l
3.49 0 l
3.49 0 l
3.49 -5.58 l
3.49 -15.24 l
3.49 -15.52 l
3.49 -3.16 l
3.49 5.93 l
3.49 -5.53 l
3.50 -9.87 l
3.49 -8.63 l
3.49 -7.84 l
3.49 -8.12 l
3.49 -10.73 l
3.49 -10.43 l
3.49 -10.87 l
3.49 -10.66 l
3.49 -8.00 l
3.49 -10.32 l
3.49 5.38 l
3.50 25.79 l
3.49 -14.83 l
3.49 -18.19 l
3.49 -12.51 l
3.49 -8.86 l
3.49 -9.36 l
3.49 -10.74 l
3.49 -10.07 l
3.49 -8.30 l
3.49 -8.01 l
3.49 -6.98 l
3.50 -5.86 l
3.49 -4.81 l
3.49 -2.78 l
3.49 -1.12 l
3.49 -2.45 l
3.49 -2.67 l
3.49 -2.21 l
3.49 -1.96 l
3.49 0.18 l
3.49 53.45 l
3.49 134.37 l
3.50 1.88 l
3.49 -5.29 l
3.49 -6.26 l
3.49 -8.46 l
3.49 -16.98 l
3.49 -18.82 l
3.49 -16.02 l
o
0.00 0.00 504.00 504.00 cl
0 0 0 srgb
0.75 setlinewidth
[] 0 setdash
1 setlinecap
1 setlinejoin
10.00 setmiterlimit
np
74.40 73.44 m
349.09 0 l
o
np
74.40 73.44 m
0 -7.20 l
o
np
144.22 73.44 m
0 -7.20 l
o
np
214.04 73.44 m
0 -7.20 l
o
np
283.85 73.44 m
0 -7.20 l
o
np
353.67 73.44 m
0 -7.20 l
o
np
423.49 73.44 m
0 -7.20 l
o
/Font1 findfont 12 s
74.40 47.52 (0) .5 0 t
144.22 47.52 (20) .5 0 t
214.04 47.52 (40) .5 0 t
283.85 47.52 (60) .5 0 t
353.67 47.52 (80) .5 0 t
423.49 47.52 (100) .5 0 t
np
59.04 87.20 m
0 344.00 l
o
np
59.04 87.20 m
-7.20 0 l
o
np
59.04 136.34 m
-7.20 0 l
o
np
59.04 185.49 m
-7.20 0 l
o
np
59.04 234.63 m
-7.20 0 l
o
np
59.04 283.77 m
-7.20 0 l
o
np
59.04 332.91 m
-7.20 0 l
o
np
59.04 382.06 m
-7.20 0 l
o
np
59.04 431.20 m
-7.20 0 l
o
41.76 87.20 (0) .5 90 t
41.76 136.34 (10) .5 90 t
41.76 185.49 (20) .5 90 t
41.76 234.63 (30) .5 90 t
41.76 283.77 (40) .5 90 t
41.76 332.91 (50) .5 90 t
41.76 382.06 (60) .5 90 t
41.76 431.20 (70) .5 90 t
np
59.04 73.44 m
414.72 0 l
0 371.52 l
-414.72 0 l
0 -371.52 l
o
0.00 0.00 504.00 504.00 cl
/Font1 findfont 12 s
0 0 0 srgb
252.73 18.72 (Da) 0 ta
-0.360 (ys) tb gr
12.96 259.20 (SWC \(mm\)) .5 90 t
59.04 73.44 473.76 444.96 cl
0 0 0 srgb
0.75 setlinewidth
[] 0 setdash
1 setlinecap
1 setlinejoin
10.00 setmiterlimit
77.89 156.00 149.63 -69.12 r p1
1.50 setlinewidth
[] 0 setdash
np
86.53 144.48 m
17.28 0 l
o
0.6275 0.1255 0.9412 srgb
np
86.53 132.96 m
17.28 0 l
o
0 1 0 srgb
np
86.53 121.44 m
17.28 0 l
o
1 0 0 srgb
np
86.53 109.92 m
17.28 0 l
o
0 0 0 srgb
1.50 setlinewidth
[ 4.50 7.50] 0 setdash
np
86.53 98.40 m
17.28 0 l
o
/Font1 findfont 10 s
112.45 140.89 (Sensors) 0 0 t
112.45 129.37 (Def) 0 ta
-0.300 (ault) tb gr
112.45 117.85 (Best predictor) 0 0 t
112.45 106.33 (Linear combination) 0 0 t
112.45 94.81 (Unkno) 0 ta
-0.150 (wn sensors v) tb
-0.250 (alues) tb gr
0.8275 0.8275 0.8275 srgb
0.75 setlinewidth
[ 0.00 3.00] 0 setdash
np
110.88 73.44 m
0 371.52 l
o
np
162.72 73.44 m
0 371.52 l
o
np
214.56 73.44 m
0 371.52 l
o
np
266.40 73.44 m
0 371.52 l
o
np
318.24 73.44 m
0 371.52 l
o
np
370.08 73.44 m
0 371.52 l
o
np
421.92 73.44 m
0 371.52 l
o
np
59.04 135.36 m
414.72 0 l
o
np
59.04 197.28 m
414.72 0 l
o
np
59.04 259.20 m
414.72 0 l
o
np
59.04 321.12 m
414.72 0 l
o
np
59.04 383.04 m
414.72 0 l
o
/Font1 findfont 12 s
0 0 0 srgb
417.61 122.30 (F) 0 ta
-0.360 (orecast) tb gr
1.50 setlinewidth
[ 0.00 6.00] 0 setdash
np
423.49 87.20 m
0 344.00 l
o
1 0 0 srgb
1.50 setlinewidth
[] 0 setdash
np
77.89 230.80 m
3.49 0.24 l
3.49 -0.25 l
3.49 -0.88 l
3.49 -1.58 l
3.50 -2.05 l
3.49 36.95 l
3.49 8.77 l
3.49 7.27 l
3.49 4.35 l
3.49 2.65 l
3.49 0.31 l
3.49 -0.85 l
3.49 -0.32 l
3.49 22.18 l
3.49 5.85 l
3.50 5.76 l
3.49 6.12 l
3.49 16.26 l
3.49 3.61 l
3.49 2.32 l
3.49 0.04 l
3.49 -1.70 l
3.49 -0.34 l
3.49 1.04 l
3.49 1.46 l
3.49 8.62 l
3.50 29.07 l
3.49 7.76 l
3.49 3.92 l
3.49 3.42 l
3.49 -5.22 l
3.49 -7.50 l
3.49 0.06 l
3.49 -1.08 l
3.49 2.43 l
3.49 -1.51 l
3.49 -1.39 l
3.50 -1.58 l
3.49 -1.74 l
3.49 21.45 l
3.49 8.00 l
3.49 -4.07 l
3.49 2.98 l
3.49 -5.10 l
3.49 -4.82 l
3.49 -9.01 l
3.49 20.95 l
3.49 -9.98 l
3.50 -9.88 l
3.49 25.42 l
3.49 -17.91 l
3.49 -15.72 l
3.49 0.46 l
3.49 -9.15 l
3.49 -1.78 l
3.49 -12.32 l
3.49 14.06 l
3.49 -3.66 l
3.49 -4.62 l
3.50 1.20 l
3.49 -17.21 l
3.49 -13.04 l
3.49 -15.54 l
3.49 -14.24 l
3.49 -11.59 l
3.49 -11.40 l
3.49 -8.37 l
3.49 -9.03 l
3.49 -11.06 l
3.49 75.72 l
3.50 -13.06 l
3.49 -14.50 l
3.49 -13.30 l
3.49 -12.19 l
3.49 -13.20 l
3.49 -15.24 l
3.49 -10.94 l
3.49 -9.73 l
3.49 -9.56 l
3.49 -10.18 l
3.49 -7.61 l
3.50 -7.49 l
3.49 -6.31 l
3.49 -4.75 l
3.49 -1.12 l
3.49 -5.60 l
3.49 -3.01 l
3.49 -2.03 l
3.49 -1.25 l
3.49 101.92 l
3.49 34.05 l
3.49 -7.39 l
3.50 -8.42 l
3.49 -7.85 l
3.49 -5.16 l
3.49 -7.23 l
3.49 3.29 l
3.49 -6.16 l
3.49 8.73 l
426.98 272.15 lineto
3.49 -6.84 l
3.49 -7.51 l
3.49 -7.35 l
3.50 -6.88 l
3.49 -7.75 l
3.49 -5.87 l
3.49 -3.14 l
3.49 8.85 l
3.49 23.68 l
o
0.6275 0.1255 0.9412 srgb
np
77.89 222.94 m
3.49 -0.21 l
3.49 -0.63 l
3.49 -1.15 l
3.49 -1.81 l
3.50 -2.11 l
3.49 33.22 l
3.49 7.39 l
3.49 6.04 l
3.49 3.52 l
3.49 2.07 l
3.49 0.08 l
3.49 -0.93 l
3.49 -0.47 l
3.49 21.00 l
3.49 5.15 l
3.50 3.99 l
3.49 4.68 l
3.49 13.49 l
3.49 3.04 l
3.49 -3.88 l
3.49 -11.66 l
3.49 -20.71 l
3.49 -17.25 l
3.49 -16.06 l
3.49 -13.62 l
3.49 2.53 l
3.50 48.87 l
3.49 4.68 l
3.49 -5.00 l
3.49 -1.56 l
3.49 -9.04 l
3.49 -14.34 l
3.49 -17.24 l
3.49 4.17 l
3.49 -8.14 l
3.49 -21.92 l
3.49 -21.58 l
3.50 -17.14 l
3.49 -13.27 l
3.49 12.58 l
3.49 -0.08 l
3.49 -12.08 l
3.49 20.23 l
3.49 -7.35 l
3.49 -5.63 l
3.49 -6.05 l
3.49 32.63 l
3.49 -8.99 l
3.50 -7.16 l
3.49 103.67 l
3.49 -27.26 l
3.49 -22.45 l
3.49 -5.10 l
3.49 -11.60 l
3.49 -3.69 l
3.49 -9.42 l
3.49 9.23 l
3.49 -4.95 l
3.49 -4.84 l
3.50 -1.14 l
3.49 -10.96 l
3.49 -8.65 l
3.49 -9.12 l
3.49 -8.16 l
3.49 -6.74 l
3.49 -6.36 l
3.49 -4.62 l
3.49 -4.96 l
3.49 -5.45 l
3.49 73.41 l
3.50 -10.48 l
3.49 -10.71 l
3.49 -9.59 l
3.49 -8.61 l
3.49 -8.16 l
3.49 -6.70 l
3.49 -5.28 l
3.49 -4.77 l
3.49 -4.58 l
3.49 -4.61 l
3.49 -3.73 l
3.50 -3.59 l
3.49 -3.13 l
3.49 -2.46 l
3.49 -0.80 l
3.49 -2.36 l
3.49 -2.46 l
3.49 -1.72 l
3.49 -1.15 l
3.49 97.74 l
3.49 24.81 l
3.49 -12.60 l
3.50 -12.79 l
3.49 -11.42 l
3.49 -7.99 l
3.49 -9.31 l
3.49 -1.38 l
3.49 -7.47 l
3.49 4.18 l
426.98 177.47 lineto
3.49 -7.30 l
3.49 -6.86 l
3.49 -5.11 l
3.50 -4.70 l
3.49 -4.88 l
3.49 -3.90 l
3.49 -2.34 l
3.49 7.44 l
3.49 21.02 l
o
0 1 0 srgb
np
77.89 221.47 m
3.49 -2.15 l
3.49 -2.92 l
3.49 -3.59 l
3.49 -5.01 l
3.50 -4.93 l
3.49 47.94 l
3.49 7.93 l
3.49 5.11 l
3.49 2.25 l
3.49 0.51 l
3.49 -1.79 l
3.49 -3.40 l
3.49 -3.07 l
3.49 18.96 l
3.49 5.08 l
3.50 3.92 l
3.49 5.86 l
3.49 29.54 l
3.49 6.31 l
3.49 5.27 l
3.49 4.56 l
3.49 4.08 l
3.49 3.94 l
3.49 4.67 l
3.49 5.14 l
3.49 12.54 l
3.50 5.48 l
3.49 5.55 l
3.49 3.85 l
3.49 6.45 l
3.49 1.71 l
3.49 1.81 l
3.49 -5.60 l
3.49 13.24 l
3.49 0 l
3.49 -8.59 l
3.49 -11.52 l
3.50 -10.93 l
3.49 -9.76 l
3.49 14.82 l
3.49 3.50 l
3.49 -9.29 l
3.49 20.55 l
3.49 -7.69 l
3.49 -7.04 l
3.49 -10.92 l
3.49 34.44 l
3.49 -10.77 l
3.50 -9.94 l
3.49 23.14 l
3.49 -15.83 l
3.49 -13.65 l
3.49 1.73 l
3.49 -7.48 l
3.49 0.29 l
3.49 -9.65 l
3.49 15.44 l
3.49 -2.50 l
3.49 -2.43 l
3.50 3.43 l
3.49 -14.62 l
3.49 -11.42 l
3.49 -14.99 l
3.49 -14.57 l
3.49 -12.28 l
3.49 -12.53 l
3.49 -9.42 l
3.49 -9.88 l
3.49 -12.02 l
3.49 72.18 l
3.50 -12.58 l
3.49 -15.24 l
3.49 -14.13 l
3.49 -12.92 l
3.49 -13.89 l
3.49 -16.04 l
3.49 -11.39 l
3.49 -10.10 l
3.49 -9.87 l
3.49 -10.44 l
3.49 -7.78 l
3.50 -7.62 l
3.49 -6.40 l
3.49 -3.48 l
3.49 -0.63 l
3.49 -2.69 l
3.49 -3.01 l
3.49 -3.42 l
3.49 -2.09 l
3.49 98.38 l
3.49 32.37 l
3.49 -8.54 l
3.50 -9.47 l
3.49 -8.77 l
3.49 -5.76 l
3.49 -7.60 l
3.49 2.64 l
3.49 -6.24 l
3.49 8.09 l
426.98 255.24 lineto
3.49 -6.90 l
3.49 -7.52 l
3.49 -7.35 l
3.50 -6.83 l
3.49 -7.66 l
3.49 -5.79 l
3.49 -3.13 l
3.49 8.44 l
3.49 22.74 l
o
0 0 0 srgb
1.50 setlinewidth
[ 4.50 7.50] 0 setdash
np
423.49 290.08 m
3.49 -10.62 l
3.49 -11.08 l
3.49 -11.68 l
3.49 -12.29 l
3.50 -13.02 l
3.49 -11.88 l
3.49 -9.40 l
3.49 -5.23 l
3.49 -2.76 l
3.49 0.11 l
o
ep
%%Trailer
%%Pages: 1
%%EOF
