%!PS-Adobe-3.0 EPSF-3.0
%%DocumentNeededResources: font Helvetica
%%+ font Helvetica-Bold
%%+ font Helvetica-Oblique
%%+ font Helvetica-BoldOblique
%%+ font Symbol
%%Title: R Graphics Output
%%Creator: R Software
%%Pages: (atend)
%%BoundingBox: 0 0 504 504
%%EndComments
%%BeginProlog
/bp  { gs sRGB gs } def
% begin .ps.prolog
/gs  { gsave } bind def
/gr  { grestore } bind def
/ep  { showpage gr gr } bind def
/m   { moveto } bind def
/l  { rlineto } bind def
/np  { newpath } bind def
/cp  { closepath } bind def
/f   { fill } bind def
/o   { stroke } bind def
/c   { newpath 0 360 arc } bind def
/r   { 4 2 roll moveto 1 copy 3 -1 roll exch 0 exch rlineto 0 rlineto -1 mul 0 exch rlineto closepath } bind def
/p1  { stroke } bind def
/p2  { gsave bg fill grestore newpath } bind def
/p3  { gsave bg fill grestore stroke } bind def
/p6  { gsave bg eofill grestore newpath } bind def
/p7  { gsave bg eofill grestore stroke } bind def
/t   { 5 -2 roll moveto gsave rotate
       1 index stringwidth pop
       mul neg 0 rmoveto show grestore } bind def
/ta  { 4 -2 roll moveto gsave rotate show } bind def
/tb  { 2 -1 roll 0 rmoveto show } bind def
/cl  { grestore gsave newpath 3 index 3 index moveto 1 index
       4 -1 roll lineto  exch 1 index lineto lineto
       closepath clip newpath } bind def
/rgb { setrgbcolor } bind def
/s   { scalefont setfont } bind def
% end   .ps.prolog
/sRGB { [ /CIEBasedABC
          << /DecodeLMN
               [ { dup 0.03928 le
                        {12.92321 div}
                        {0.055 add 1.055 div 2.4 exp }
                     ifelse
                 } bind dup dup
               ]
             /MatrixLMN [0.412457 0.212673 0.019334
                         0.357576 0.715152 0.119192
                         0.180437 0.072175 0.950301]
             /WhitePoint [0.9505 1.0 1.0890]
           >>
         ] setcolorspace } bind def
/srgb { setcolor } bind def
%%IncludeResource: font Helvetica
/Helvetica findfont
dup length dict begin
  {1 index /FID ne {def} {pop pop} ifelse} forall
  /Encoding ISOLatin1Encoding def
  currentdict
  end
/Font1 exch definefont pop
%%IncludeResource: font Helvetica-Bold
/Helvetica-Bold findfont
dup length dict begin
  {1 index /FID ne {def} {pop pop} ifelse} forall
  /Encoding ISOLatin1Encoding def
  currentdict
  end
/Font2 exch definefont pop
%%IncludeResource: font Helvetica-Oblique
/Helvetica-Oblique findfont
dup length dict begin
  {1 index /FID ne {def} {pop pop} ifelse} forall
  /Encoding ISOLatin1Encoding def
  currentdict
  end
/Font3 exch definefont pop
%%IncludeResource: font Helvetica-BoldOblique
/Helvetica-BoldOblique findfont
dup length dict begin
  {1 index /FID ne {def} {pop pop} ifelse} forall
  /Encoding ISOLatin1Encoding def
  currentdict
  end
/Font4 exch definefont pop
%%IncludeResource: font Symbol
/Symbol findfont
dup length dict begin
  {1 index /FID ne {def} {pop pop} ifelse} forall
  currentdict
  end
/Font5 exch definefont pop
%%EndProlog
%%Page: 1 1
bp
59.04 73.44 473.76 444.96 cl
0 0 0 srgb
1.50 setlinewidth
[] 0 setdash
1 setlinecap
1 setlinejoin
10.00 setmiterlimit
np
78.67 222.94 m
4.26 4.17 l
4.27 4.41 l
4.27 4.05 l
4.26 4.93 l
4.27 3.63 l
4.27 6.12 l
4.26 7.39 l
4.27 7.16 l
4.27 6.63 l
4.26 5.53 l
4.27 3.89 l
4.27 3.94 l
4.26 4.70 l
4.27 4.81 l
4.27 4.73 l
4.26 4.56 l
4.27 6.18 l
4.27 6.49 l
4.26 5.87 l
4.27 5.39 l
4.27 4.89 l
4.26 4.80 l
4.27 4.75 l
4.27 5.68 l
4.26 5.96 l
4.27 5.96 l
4.27 5.10 l
4.26 5.17 l
4.27 5.25 l
4.27 4.34 l
4.26 4.35 l
4.27 6.03 l
4.27 5.85 l
4.26 6.25 l
4.27 5.24 l
4.27 0 l
4.26 0 l
4.27 0 l
4.27 0 l
4.26 0 l
4.27 0 l
4.27 0 l
4.26 0 l
4.27 0 l
4.27 -0.40 l
4.26 -3.20 l
4.27 -2.45 l
4.27 1.91 l
4.26 -1.19 l
4.27 5.33 l
4.27 0 l
4.26 0 l
4.27 0 l
4.27 -5.58 l
4.26 -15.24 l
4.27 -15.52 l
4.27 -3.16 l
4.26 5.93 l
4.27 -5.53 l
4.27 -9.87 l
4.26 -8.63 l
4.27 -7.84 l
4.27 -8.12 l
4.26 -10.73 l
4.27 -10.43 l
4.27 -10.87 l
4.26 -10.66 l
4.27 -8.00 l
4.27 -10.32 l
4.26 5.38 l
4.27 25.79 l
4.27 -14.83 l
4.26 -18.19 l
4.27 -12.51 l
4.27 -8.86 l
4.26 -9.36 l
4.27 -10.74 l
4.27 -10.07 l
4.26 -8.30 l
o
0.00 0.00 504.00 504.00 cl
0 0 0 srgb
0.75 setlinewidth
[] 0 setdash
1 setlinecap
1 setlinejoin
10.00 setmiterlimit
np
74.40 73.44 m
341.33 0 l
o
np
74.40 73.44 m
0 -7.20 l
o
np
159.73 73.44 m
0 -7.20 l
o
np
245.07 73.44 m
0 -7.20 l
o
np
330.40 73.44 m
0 -7.20 l
o
np
415.73 73.44 m
0 -7.20 l
o
/Font1 findfont 12 s
74.40 47.52 (0) .5 0 t
159.73 47.52 (20) .5 0 t
245.07 47.52 (40) .5 0 t
330.40 47.52 (60) .5 0 t
415.73 47.52 (80) .5 0 t
np
59.04 87.20 m
0 344.00 l
o
np
59.04 87.20 m
-7.20 0 l
o
np
59.04 136.34 m
-7.20 0 l
o
np
59.04 185.49 m
-7.20 0 l
o
np
59.04 234.63 m
-7.20 0 l
o
np
59.04 283.77 m
-7.20 0 l
o
np
59.04 332.91 m
-7.20 0 l
o
np
59.04 382.06 m
-7.20 0 l
o
np
59.04 431.20 m
-7.20 0 l
o
41.76 87.20 (0) .5 90 t
41.76 136.34 (10) .5 90 t
41.76 185.49 (20) .5 90 t
41.76 234.63 (30) .5 90 t
41.76 283.77 (40) .5 90 t
41.76 332.91 (50) .5 90 t
41.76 382.06 (60) .5 90 t
41.76 431.20 (70) .5 90 t
np
59.04 73.44 m
414.72 0 l
0 371.52 l
-414.72 0 l
0 -371.52 l
o
0.00 0.00 504.00 504.00 cl
/Font1 findfont 12 s
0 0 0 srgb
252.73 18.72 (Da) 0 ta
-0.360 (ys) tb gr
12.96 259.20 (SWC \(mm\)) .5 90 t
59.04 73.44 473.76 444.96 cl
0 0 0 srgb
0.75 setlinewidth
[] 0 setdash
1 setlinecap
1 setlinejoin
10.00 setmiterlimit
78.67 156.00 149.63 -69.12 r p1
1.50 setlinewidth
[] 0 setdash
np
87.31 144.48 m
17.28 0 l
o
0.6275 0.1255 0.9412 srgb
np
87.31 132.96 m
17.28 0 l
o
0 1 0 srgb
np
87.31 121.44 m
17.28 0 l
o
1 0 0 srgb
np
87.31 109.92 m
17.28 0 l
o
0 0 0 srgb
1.50 setlinewidth
[ 4.50 7.50] 0 setdash
np
87.31 98.40 m
17.28 0 l
o
/Font1 findfont 10 s
113.23 140.89 (Sensors) 0 0 t
113.23 129.37 (Def) 0 ta
-0.300 (ault) tb gr
113.23 117.85 (Best predictor) 0 0 t
113.23 106.33 (Linear combination) 0 0 t
113.23 94.81 (Unkno) 0 ta
-0.150 (wn sensors v) tb
-0.250 (alues) tb gr
0.8275 0.8275 0.8275 srgb
0.75 setlinewidth
[ 0.00 3.00] 0 setdash
np
110.88 73.44 m
0 371.52 l
o
np
162.72 73.44 m
0 371.52 l
o
np
214.56 73.44 m
0 371.52 l
o
np
266.40 73.44 m
0 371.52 l
o
np
318.24 73.44 m
0 371.52 l
o
np
370.08 73.44 m
0 371.52 l
o
np
421.92 73.44 m
0 371.52 l
o
np
59.04 135.36 m
414.72 0 l
o
np
59.04 197.28 m
414.72 0 l
o
np
59.04 259.20 m
414.72 0 l
o
np
59.04 321.12 m
414.72 0 l
o
np
59.04 383.04 m
414.72 0 l
o
/Font1 findfont 12 s
0 0 0 srgb
413.73 122.30 (F) 0 ta
-0.360 (orecast) tb gr
1.50 setlinewidth
[ 0.00 6.00] 0 setdash
np
415.73 87.20 m
0 344.00 l
o
1 0 0 srgb
1.50 setlinewidth
[] 0 setdash
np
78.67 225.05 m
4.26 0.20 l
4.27 -0.29 l
4.27 -0.95 l
4.26 -1.67 l
4.27 -2.15 l
4.27 37.72 l
4.26 8.89 l
4.27 7.31 l
4.27 4.37 l
4.26 2.63 l
4.27 0.25 l
4.27 -0.95 l
4.26 -0.40 l
4.27 22.06 l
4.27 5.89 l
4.26 5.84 l
4.27 6.45 l
4.27 17.06 l
4.26 4.32 l
4.27 3.04 l
4.27 1.09 l
4.26 -0.40 l
4.27 0.77 l
4.27 2.08 l
4.26 2.56 l
4.27 8.86 l
4.27 25.12 l
4.26 7.57 l
4.27 4.45 l
4.27 3.78 l
4.26 -4.84 l
4.27 -6.90 l
4.27 0.40 l
4.26 -1.56 l
4.27 1.88 l
4.27 -0.87 l
4.26 -0.83 l
4.27 -1.19 l
4.27 -1.49 l
4.26 21.53 l
4.27 8.12 l
4.27 -3.94 l
4.26 2.24 l
4.27 -5.00 l
4.27 -4.77 l
4.26 -9.04 l
4.27 20.34 l
4.27 -9.96 l
4.26 -9.98 l
4.27 18.89 l
4.27 -17.61 l
4.26 -15.47 l
4.27 0.62 l
4.27 -8.98 l
4.26 -1.66 l
4.27 -12.19 l
4.27 14.11 l
4.26 -3.56 l
4.27 -4.47 l
4.27 1.30 l
4.26 -17.11 l
4.27 -12.99 l
4.27 -15.49 l
4.26 -14.21 l
4.27 -11.56 l
4.27 -11.38 l
4.26 -8.36 l
4.27 -9.02 l
4.27 -11.05 l
4.26 75.43 l
4.27 -13.02 l
4.27 -14.46 l
4.26 -13.26 l
4.27 -12.17 l
4.27 -13.18 l
4.26 -15.23 l
4.27 -10.94 l
4.27 -9.73 l
4.26 -9.56 l
4.27 -10.20 l
4.27 -7.61 l
4.26 -7.50 l
4.27 -6.33 l
4.27 -4.76 l
4.26 -1.12 l
4.27 -5.52 l
4.27 -3.01 l
4.26 -2.33 l
4.27 -1.42 l
o
0.6275 0.1255 0.9412 srgb
np
78.67 222.94 m
4.26 -0.21 l
4.27 -0.63 l
4.27 -1.15 l
4.26 -1.81 l
4.27 -2.11 l
4.27 33.22 l
4.26 7.39 l
4.27 6.04 l
4.27 3.52 l
4.26 2.07 l
4.27 0.08 l
4.27 -0.93 l
4.26 -0.47 l
4.27 21.00 l
4.27 5.15 l
4.26 3.99 l
4.27 4.68 l
4.27 13.49 l
4.26 3.04 l
4.27 -3.88 l
4.27 -11.66 l
4.26 -20.71 l
4.27 -17.25 l
4.27 -16.06 l
4.26 -13.62 l
4.27 2.53 l
4.27 48.87 l
4.26 4.68 l
4.27 -5.00 l
4.27 -1.56 l
4.26 -9.04 l
4.27 -14.34 l
4.27 -17.24 l
4.26 4.17 l
4.27 -8.14 l
4.27 -21.92 l
4.26 -21.58 l
4.27 -17.14 l
4.27 -13.27 l
4.26 12.58 l
4.27 -0.08 l
4.27 -12.08 l
4.26 20.23 l
4.27 -7.35 l
4.27 -5.63 l
4.26 -6.05 l
4.27 32.63 l
4.27 -8.99 l
4.26 -7.16 l
4.27 103.67 l
4.27 -27.26 l
4.26 -22.45 l
4.27 -5.10 l
4.27 -11.60 l
4.26 -3.69 l
4.27 -9.42 l
4.27 9.23 l
4.26 -4.95 l
4.27 -4.84 l
4.27 -1.14 l
4.26 -10.96 l
4.27 -8.65 l
4.27 -9.12 l
4.26 -8.16 l
4.27 -6.74 l
4.27 -6.36 l
4.26 -4.62 l
4.27 -4.96 l
4.27 -5.45 l
4.26 73.41 l
4.27 -10.48 l
4.27 -10.71 l
4.26 -9.59 l
4.27 -8.61 l
4.27 -8.16 l
4.26 -6.70 l
4.27 -5.28 l
4.27 -4.77 l
4.26 -4.58 l
4.27 -4.61 l
4.27 -3.73 l
4.26 -3.59 l
4.27 -3.13 l
4.27 -2.46 l
4.26 -0.80 l
4.27 -2.36 l
4.27 -2.46 l
4.26 -1.72 l
4.27 -1.15 l
o
0 1 0 srgb
np
78.67 221.47 m
4.26 -2.15 l
4.27 -2.92 l
4.27 -3.59 l
4.26 -5.01 l
4.27 -4.93 l
4.27 47.94 l
4.26 7.93 l
4.27 5.11 l
4.27 2.25 l
4.26 0.51 l
4.27 -1.79 l
4.27 -3.40 l
4.26 -3.07 l
4.27 18.96 l
4.27 5.08 l
4.26 3.92 l
4.27 5.86 l
4.27 29.54 l
4.26 6.31 l
4.27 5.27 l
4.27 4.56 l
4.26 4.08 l
4.27 3.94 l
4.27 4.67 l
4.26 5.14 l
4.27 12.54 l
4.27 5.48 l
4.26 5.55 l
4.27 3.85 l
4.27 6.45 l
4.26 1.71 l
4.27 1.81 l
4.27 -5.60 l
4.26 13.24 l
4.27 0 l
4.27 -8.59 l
4.26 -11.52 l
4.27 -10.93 l
4.27 -9.76 l
4.26 14.82 l
4.27 3.50 l
4.27 -9.29 l
4.26 20.55 l
4.27 -7.69 l
4.27 -7.04 l
4.26 -10.92 l
4.27 34.44 l
4.27 -10.77 l
4.26 -9.94 l
4.27 23.14 l
4.27 -15.83 l
4.26 -13.65 l
4.27 1.73 l
4.27 -7.48 l
4.26 0.29 l
4.27 -9.65 l
4.27 15.44 l
4.26 -2.50 l
4.27 -2.43 l
4.27 3.43 l
4.26 -14.62 l
4.27 -11.42 l
4.27 -14.99 l
4.26 -14.57 l
4.27 -12.28 l
4.27 -12.53 l
4.26 -9.42 l
4.27 -9.88 l
4.27 -12.02 l
4.26 72.18 l
4.27 -12.58 l
4.27 -15.24 l
4.26 -14.13 l
4.27 -12.92 l
4.27 -13.89 l
4.26 -16.04 l
4.27 -11.39 l
4.27 -10.10 l
4.26 -9.87 l
4.27 -10.44 l
4.27 -7.78 l
4.26 -7.62 l
4.27 -6.40 l
4.27 -3.48 l
4.26 -0.63 l
4.27 -2.69 l
4.27 -3.01 l
4.26 -3.42 l
4.27 -2.09 l
o
0 0 0 srgb
1.50 setlinewidth
[ 4.50 7.50] 0 setdash
np
415.73 210.88 m
4.27 -8.01 l
4.27 -6.98 l
4.26 -5.86 l
4.27 -4.81 l
4.27 -2.78 l
4.26 -1.12 l
4.27 -2.45 l
4.27 -2.67 l
4.26 -2.21 l
4.27 -1.96 l
o
ep
%%Trailer
%%Pages: 1
%%EOF
