%!PS-Adobe-3.0 EPSF-3.0
%%Title: plots_paper/hump_sin_8.eps
%%Creator: matplotlib version 3.0.2, http://matplotlib.org/
%%CreationDate: jeu. janv. 01 00:00:01 1970
%%Orientation: portrait
%%BoundingBox: 54 144 558 648
%%EndComments
%%BeginProlog
/mpldict 9 dict def
mpldict begin
/m { moveto } bind def
/l { lineto } bind def
/r { rlineto } bind def
/c { curveto } bind def
/cl { closepath } bind def
/box {
m
1 index 0 r
0 exch r
neg 0 r
cl
} bind def
/clipbox {
box
clip
newpath
} bind def
%!PS-Adobe-3.0 Resource-Font
%%Title: DejaVu Sans
%%Copyright: Copyright (c) 2003 by Bitstream, Inc. All Rights Reserved. Copyright (c) 2006 by Tavmjong Bah. All Rights Reserved. DejaVu changes are in public domain 
%%Creator: Converted from TrueType to type 3 by PPR
25 dict begin
/_d{bind def}bind def
/_m{moveto}_d
/_l{lineto}_d
/_cl{closepath eofill}_d
/_c{curveto}_d
/_sc{7 -1 roll{setcachedevice}{pop pop pop pop pop pop}ifelse}_d
/_e{exec}_d
/FontName /DejaVuSans def
/PaintType 0 def
/FontMatrix[.001 0 0 .001 0 0]def
/FontBBox[-1021 -463 1793 1232]def
/FontType 3 def
/Encoding [ /space /zero /one /two /three /four /five /six /seven /equal /K /minus ] def
/FontInfo 10 dict dup begin
/FamilyName (DejaVu Sans) def
/FullName (DejaVu Sans) def
/Notice (Copyright (c) 2003 by Bitstream, Inc. All Rights Reserved. Copyright (c) 2006 by Tavmjong Bah. All Rights Reserved. DejaVu changes are in public domain ) def
/Weight (Book) def
/Version (Version 2.35) def
/ItalicAngle 0.0 def
/isFixedPitch false def
/UnderlinePosition -130 def
/UnderlineThickness 90 def
end readonly def
/CharStrings 13 dict dup begin
/.notdef 0 def
/space{318 0 0 0 0 0 _sc
}_d
/zero{636 0 66 -13 570 742 _sc
318 664 _m
267 664 229 639 203 589 _c
177 539 165 464 165 364 _c
165 264 177 189 203 139 _c
229 89 267 64 318 64 _c
369 64 407 89 433 139 _c
458 189 471 264 471 364 _c
471 464 458 539 433 589 _c
407 639 369 664 318 664 _c
318 742 _m
399 742 461 709 505 645 _c
548 580 570 486 570 364 _c
570 241 548 147 505 83 _c
461 19 399 -13 318 -13 _c
236 -13 173 19 130 83 _c
87 147 66 241 66 364 _c
66 486 87 580 130 645 _c
173 709 236 742 318 742 _c
_cl}_d
/one{636 0 110 0 544 729 _sc
124 83 _m
285 83 _l
285 639 _l
110 604 _l
110 694 _l
284 729 _l
383 729 _l
383 83 _l
544 83 _l
544 0 _l
124 0 _l
124 83 _l
_cl}_d
/two{{636 0 73 0 536 742 _sc
192 83 _m
536 83 _l
536 0 _l
73 0 _l
73 83 _l
110 121 161 173 226 239 _c
290 304 331 346 348 365 _c
380 400 402 430 414 455 _c
426 479 433 504 433 528 _c
433 566 419 598 392 622 _c
365 646 330 659 286 659 _c
255 659 222 653 188 643 _c
154 632 117 616 78 594 _c
78 694 _l
118 710 155 722 189 730 _c
223 738 255 742 284 742 _c
}_e{359 742 419 723 464 685 _c
509 647 532 597 532 534 _c
532 504 526 475 515 449 _c
504 422 484 390 454 354 _c
446 344 420 317 376 272 _c
332 227 271 164 192 83 _c
_cl}_e}_d
/three{{636 0 76 -13 556 742 _sc
406 393 _m
453 383 490 362 516 330 _c
542 298 556 258 556 212 _c
556 140 531 84 482 45 _c
432 6 362 -13 271 -13 _c
240 -13 208 -10 176 -4 _c
144 1 110 10 76 22 _c
76 117 _l
103 101 133 89 166 81 _c
198 73 232 69 268 69 _c
330 69 377 81 409 105 _c
441 129 458 165 458 212 _c
458 254 443 288 413 312 _c
383 336 341 349 287 349 _c
}_e{202 349 _l
202 430 _l
291 430 _l
339 430 376 439 402 459 _c
428 478 441 506 441 543 _c
441 580 427 609 401 629 _c
374 649 336 659 287 659 _c
260 659 231 656 200 650 _c
169 644 135 635 98 623 _c
98 711 _l
135 721 170 729 203 734 _c
235 739 266 742 296 742 _c
370 742 429 725 473 691 _c
517 657 539 611 539 553 _c
539 513 527 479 504 451 _c
481 423 448 403 406 393 _c
_cl}_e}_d
/four{636 0 49 0 580 729 _sc
378 643 _m
129 254 _l
378 254 _l
378 643 _l
352 729 _m
476 729 _l
476 254 _l
580 254 _l
580 172 _l
476 172 _l
476 0 _l
378 0 _l
378 172 _l
49 172 _l
49 267 _l
352 729 _l
_cl}_d
/five{{636 0 77 -13 549 729 _sc
108 729 _m
495 729 _l
495 646 _l
198 646 _l
198 467 _l
212 472 227 476 241 478 _c
255 480 270 482 284 482 _c
365 482 429 459 477 415 _c
525 370 549 310 549 234 _c
549 155 524 94 475 51 _c
426 8 357 -13 269 -13 _c
238 -13 207 -10 175 -6 _c
143 -1 111 6 77 17 _c
77 116 _l
106 100 136 88 168 80 _c
199 72 232 69 267 69 _c
}_e{323 69 368 83 401 113 _c
433 143 450 183 450 234 _c
450 284 433 324 401 354 _c
368 384 323 399 267 399 _c
241 399 214 396 188 390 _c
162 384 135 375 108 363 _c
108 729 _l
_cl}_e}_d
/six{{636 0 70 -13 573 742 _sc
330 404 _m
286 404 251 388 225 358 _c
199 328 186 286 186 234 _c
186 181 199 139 225 109 _c
251 79 286 64 330 64 _c
374 64 409 79 435 109 _c
461 139 474 181 474 234 _c
474 286 461 328 435 358 _c
409 388 374 404 330 404 _c
526 713 _m
526 623 _l
501 635 476 644 451 650 _c
425 656 400 659 376 659 _c
310 659 260 637 226 593 _c
}_e{192 549 172 482 168 394 _c
187 422 211 444 240 459 _c
269 474 301 482 336 482 _c
409 482 467 459 509 415 _c
551 371 573 310 573 234 _c
573 159 550 99 506 54 _c
462 9 403 -13 330 -13 _c
246 -13 181 19 137 83 _c
92 147 70 241 70 364 _c
70 479 97 571 152 639 _c
206 707 280 742 372 742 _c
396 742 421 739 447 735 _c
472 730 498 723 526 713 _c
_cl}_e}_d
/seven{636 0 82 0 551 729 _sc
82 729 _m
551 729 _l
551 687 _l
286 0 _l
183 0 _l
432 646 _l
82 646 _l
82 729 _l
_cl}_d
/equal{838 0 106 172 732 454 _sc
106 454 _m
732 454 _l
732 372 _l
106 372 _l
106 454 _l
106 255 _m
732 255 _l
732 172 _l
106 172 _l
106 255 _l
_cl}_d
/K{656 0 98 0 677 729 _sc
98 729 _m
197 729 _l
197 421 _l
524 729 _l
651 729 _l
289 389 _l
677 0 _l
547 0 _l
197 351 _l
197 0 _l
98 0 _l
98 729 _l
_cl}_d
/minus{838 0 106 272 732 355 _sc
106 355 _m
732 355 _l
732 272 _l
106 272 _l
106 355 _l
_cl}_d
end readonly def

/BuildGlyph
 {exch begin
 CharStrings exch
 2 copy known not{pop /.notdef}if
 true 3 1 roll get exec
 end}_d

/BuildChar {
 1 index /Encoding get exch get
 1 index /BuildGlyph get exec
}_d

FontName currentdict end definefont pop
%!PS-Adobe-3.0 Resource-Font
%%Title: DejaVu Serif
%%Copyright: Copyright (c) 2003 by Bitstream, Inc. All Rights Reserved. DejaVu changes are in public domain 
%%Creator: Converted from TrueType to type 3 by PPR
25 dict begin
/_d{bind def}bind def
/_m{moveto}_d
/_l{lineto}_d
/_cl{closepath eofill}_d
/_c{curveto}_d
/_sc{7 -1 roll{setcachedevice}{pop pop pop pop pop pop}ifelse}_d
/_e{exec}_d
/FontName /DejaVuSerif def
/PaintType 0 def
/FontMatrix[.001 0 0 .001 0 0]def
/FontBBox[-770 -347 2105 1109]def
/FontType 3 def
/Encoding [ /space /numbersign /C /T /U /a /d /f /i /k /m /n /o /p /t /u ] def
/FontInfo 10 dict dup begin
/FamilyName (DejaVu Serif) def
/FullName (DejaVu Serif) def
/Notice (Copyright (c) 2003 by Bitstream, Inc. All Rights Reserved. DejaVu changes are in public domain ) def
/Weight (Book) def
/Version (Version 2.35) def
/ItalicAngle 0.0 def
/isFixedPitch false def
/UnderlinePosition -130 def
/UnderlineThickness 90 def
end readonly def
/CharStrings 17 dict dup begin
/.notdef 0 def
/space{318 0 0 0 0 0 _sc
}_d
/numbersign{{838 0 77 0 761 718 _sc
509 440 _m
371 440 _l
330 277 _l
469 277 _l
509 440 _l
440 718 _m
390 515 _l
528 515 _l
578 718 _l
662 718 _l
611 515 _l
761 515 _l
761 440 _l
592 440 _l
552 277 _l
705 277 _l
705 202 _l
533 202 _l
483 0 _l
399 0 _l
450 202 _l
312 202 _l
261 0 _l
178 0 _l
228 202 _l
77 202 _l
77 277 _l
247 277 _l
287 440 _l
133 440 _l
}_e{133 515 _l
306 515 _l
357 718 _l
440 718 _l
_cl}_e}_d
/C{{765 0 56 -13 705 742 _sc
705 193 _m
683 125 647 73 597 39 _c
546 4 482 -13 405 -13 _c
357 -13 312 -5 272 11 _c
231 27 195 50 164 82 _c
127 118 100 160 82 206 _c
64 252 56 305 56 364 _c
56 477 88 568 154 638 _c
219 707 305 742 413 742 _c
453 742 495 736 540 726 _c
584 716 633 700 685 679 _c
685 511 _l
630 511 _l
618 572 593 617 557 646 _c
}_e{521 675 470 690 405 690 _c
327 690 268 662 228 607 _c
188 551 168 470 168 364 _c
168 257 188 176 228 121 _c
268 65 327 38 405 38 _c
459 38 503 51 539 77 _c
574 103 599 141 615 193 _c
705 193 _l
_cl}_e}_d
/T{667 0 10 0 657 729 _sc
191 0 _m
191 52 _l
284 52 _l
284 671 _l
70 671 _l
70 557 _l
10 557 _l
10 729 _l
657 729 _l
657 557 _l
597 557 _l
597 671 _l
383 671 _l
383 52 _l
476 52 _l
476 0 _l
191 0 _l
_cl}_d
/U{{843 0 47 -13 798 729 _sc
140 677 _m
47 677 _l
47 729 _l
332 729 _l
332 677 _l
239 677 _l
239 300 _l
239 206 254 141 284 105 _c
314 68 367 50 442 50 _c
516 50 569 68 599 105 _c
629 141 645 206 645 300 _c
645 677 _l
552 677 _l
552 729 _l
798 729 _l
798 677 _l
705 677 _l
705 290 _l
705 179 683 101 641 55 _c
598 9 526 -13 424 -13 _c
322 -13 249 10 205 56 _c
}_e{161 102 140 180 140 290 _c
140 677 _l
_cl}_e}_d
/a{{596 0 50 -13 568 533 _sc
398 163 _m
398 273 _l
282 273 _l
237 273 204 263 182 244 _c
160 224 150 195 150 156 _c
150 120 161 91 183 70 _c
205 48 235 38 273 38 _c
310 38 340 49 363 72 _c
386 95 398 125 398 163 _c
488 324 _m
488 52 _l
568 52 _l
568 0 _l
398 0 _l
398 56 _l
378 32 355 14 329 3 _c
303 -7 272 -13 238 -13 _c
180 -13 134 2 100 32 _c
}_e{66 62 50 104 50 156 _c
50 209 69 250 108 280 _c
146 310 201 325 272 325 _c
398 325 _l
398 361 _l
398 400 386 430 362 452 _c
338 474 304 485 261 485 _c
225 485 197 476 176 460 _c
154 444 141 420 136 388 _c
90 388 _l
90 493 _l
121 506 151 516 181 523 _c
210 529 239 533 267 533 _c
339 533 393 515 431 479 _c
469 443 488 392 488 324 _c
_cl}_e}_d
/d{{640 0 50 -13 611 760 _sc
525 52 _m
611 52 _l
611 0 _l
435 0 _l
435 81 _l
417 48 395 24 368 9 _c
340 -5 307 -13 267 -13 _c
203 -13 150 12 110 62 _c
70 112 50 178 50 260 _c
50 341 70 407 110 457 _c
150 507 203 533 267 533 _c
307 533 340 525 368 510 _c
395 494 417 470 435 438 _c
435 708 _l
350 708 _l
350 760 _l
525 760 _l
525 52 _l
435 234 _m
435 285 _l
}_e{435 347 423 394 399 427 _c
375 460 340 477 295 477 _c
249 477 214 458 190 422 _c
166 386 155 332 155 260 _c
155 188 166 133 190 97 _c
214 60 249 42 295 42 _c
340 42 375 58 399 91 _c
423 123 435 171 435 234 _c
_cl}_e}_d
/f{{370 0 36 0 430 760 _sc
430 637 _m
383 637 _l
382 661 375 680 362 693 _c
348 705 329 712 303 712 _c
269 712 246 702 232 684 _c
218 666 212 633 212 586 _c
212 519 _l
357 519 _l
357 467 _l
212 467 _l
212 52 _l
327 52 _l
327 0 _l
36 0 _l
36 52 _l
122 52 _l
122 467 _l
36 467 _l
36 519 _l
122 519 _l
122 584 _l
122 642 137 685 167 715 _c
}_e{197 745 241 760 300 760 _c
322 760 343 758 365 754 _c
387 750 408 744 430 736 _c
430 637 _l
_cl}_e}_d
/i{320 0 36 0 297 736 _sc
97 680 _m
97 695 102 708 113 719 _c
124 730 137 736 153 736 _c
167 736 180 730 191 719 _c
202 708 208 695 208 680 _c
208 664 202 651 192 641 _c
181 630 168 625 153 625 _c
137 625 124 630 113 641 _c
102 651 97 664 97 680 _c
212 52 _m
297 52 _l
297 0 _l
36 0 _l
36 52 _l
122 52 _l
122 467 _l
36 467 _l
36 519 _l
212 519 _l
212 52 _l
_cl}_d
/k{{606 0 29 0 613 760 _sc
286 0 _m
34 0 _l
34 52 _l
115 52 _l
115 708 _l
29 708 _l
29 760 _l
205 760 _l
205 265 _l
424 467 _l
349 467 _l
349 519 _l
584 519 _l
584 467 _l
495 467 _l
341 324 _l
538 52 _l
613 52 _l
613 0 _l
357 0 _l
357 52 _l
431 52 _l
276 265 _l
205 199 _l
205 52 _l
286 52 _l
286 0 _l
_cl}_e}_d
/m{{948 0 36 0 921 533 _sc
518 418 _m
535 456 557 484 584 504 _c
611 523 642 533 678 533 _c
732 533 773 516 800 482 _c
826 448 840 398 840 330 _c
840 52 _l
921 52 _l
921 0 _l
672 0 _l
672 52 _l
750 52 _l
750 320 _l
750 372 742 410 726 433 _c
710 455 685 467 649 467 _c
609 467 578 451 557 421 _c
536 391 526 347 526 289 _c
526 52 _l
604 52 _l
604 0 _l
358 0 _l
}_e{358 52 _l
436 52 _l
436 323 _l
436 375 428 412 412 434 _c
396 456 371 467 335 467 _c
295 467 264 451 243 421 _c
222 391 212 347 212 289 _c
212 52 _l
290 52 _l
290 0 _l
41 0 _l
41 52 _l
122 52 _l
122 468 _l
36 468 _l
36 519 _l
212 519 _l
212 427 _l
228 461 249 488 275 506 _c
301 524 330 533 363 533 _c
403 533 436 523 463 503 _c
}_e{490 483 508 454 518 418 _c
_cl}_e}_d
/n{{644 0 36 0 616 533 _sc
41 0 _m
41 52 _l
122 52 _l
122 467 _l
36 467 _l
36 519 _l
212 519 _l
212 427 _l
228 461 250 488 276 506 _c
302 524 333 533 369 533 _c
426 533 468 516 495 484 _c
522 451 536 400 536 330 _c
536 52 _l
616 52 _l
616 0 _l
368 0 _l
368 52 _l
446 52 _l
446 302 _l
446 365 438 408 422 432 _c
406 456 379 468 340 468 _c
}_e{298 468 266 452 244 422 _c
222 391 212 347 212 289 _c
212 52 _l
290 52 _l
290 0 _l
41 0 _l
_cl}_e}_d
/o{602 0 50 -13 552 533 _sc
301 34 _m
349 34 385 53 410 91 _c
434 129 447 185 447 260 _c
447 334 434 390 410 428 _c
385 466 349 485 301 485 _c
253 485 216 466 192 428 _c
167 390 155 334 155 260 _c
155 185 167 129 192 91 _c
216 53 253 34 301 34 _c
301 -13 _m
225 -13 165 11 119 61 _c
73 111 50 177 50 260 _c
50 342 72 408 118 458 _c
164 508 225 533 301 533 _c
377 533 437 508 483 458 _c
529 408 552 342 552 260 _c
552 177 529 111 483 61 _c
437 11 377 -13 301 -13 _c
_cl}_d
/p{{640 0 29 -207 590 533 _sc
205 285 _m
205 234 _l
205 171 217 123 241 91 _c
265 58 299 42 345 42 _c
391 42 425 60 449 97 _c
473 133 485 188 485 260 _c
485 332 473 386 449 422 _c
425 458 391 477 345 477 _c
299 477 265 460 241 427 _c
217 394 205 347 205 285 _c
115 467 _m
29 467 _l
29 519 _l
205 519 _l
205 438 _l
222 470 244 494 272 510 _c
299 525 333 533 373 533 _c
}_e{437 533 489 507 529 457 _c
569 407 590 341 590 260 _c
590 178 569 112 529 62 _c
489 12 437 -13 373 -13 _c
333 -13 299 -5 272 9 _c
244 24 222 48 205 81 _c
205 -155 _l
290 -155 _l
290 -207 _l
29 -207 _l
29 -155 _l
115 -155 _l
115 467 _l
_cl}_e}_d
/t{402 0 29 -13 394 680 _sc
108 467 _m
29 467 _l
29 519 _l
108 519 _l
108 680 _l
198 680 _l
198 519 _l
367 519 _l
367 467 _l
198 467 _l
198 137 _l
198 93 202 64 211 52 _c
219 40 235 34 258 34 _c
281 34 298 41 309 55 _c
319 69 325 91 326 122 _c
394 122 _l
391 74 378 40 355 19 _c
332 -2 297 -13 250 -13 _c
198 -13 161 -1 140 21 _c
118 43 108 82 108 137 _c
108 467 _l
_cl}_d
/u{{644 0 27 -13 607 519 _sc
354 519 _m
522 519 _l
522 52 _l
607 52 _l
607 0 _l
432 0 _l
432 92 _l
415 57 393 31 367 13 _c
341 -4 310 -13 276 -13 _c
218 -13 175 3 148 35 _c
121 67 108 119 108 189 _c
108 467 _l
27 467 _l
27 519 _l
198 519 _l
198 217 _l
198 153 205 110 221 87 _c
237 63 264 52 304 52 _c
346 52 377 67 399 98 _c
421 128 432 173 432 231 _c
}_e{432 467 _l
354 467 _l
354 519 _l
_cl}_e}_d
end readonly def

/BuildGlyph
 {exch begin
 CharStrings exch
 2 copy known not{pop /.notdef}if
 true 3 1 roll get exec
 end}_d

/BuildChar {
 1 index /Encoding get exch get
 1 index /BuildGlyph get exec
}_d

FontName currentdict end definefont pop
end
%%EndProlog
mpldict begin
54 144 translate
504 504 0 0 clipbox
gsave
0 0 m
504 0 l
504 504 l
0 504 l
cl
1.000 setgray
fill
grestore
gsave
63 55.44 m
453.6 55.44 l
453.6 443.52 l
63 443.52 l
cl
1.000 setgray
fill
grestore
0.800 setlinewidth
1 setlinejoin
2 setlinecap
[] 0 setdash
0.690 setgray
gsave
390.6 388.1 63 55.44 clipbox
80.754545 55.44 m
80.754545 443.52 l
stroke
grestore
0 setlinecap
0.000 setgray
gsave
/o {
gsave
newpath
translate
0.8 setlinewidth
1 setlinejoin
0 setlinecap
0 0 m
0 -3.5 l

gsave
0.000 setgray
fill
grestore
stroke
grestore
} bind def
80.7545 55.44 o
grestore
gsave
68.754545 40.518125 translate
0.000000 rotate
/DejaVuSans findfont
10.0 scalefont
setfont
0.000000 0.064063 moveto
/one glyphshow

6.362305 0.064063 moveto
/zero glyphshow

/DejaVuSans findfont
7.0 scalefont
setfont
12.820312 3.892188 moveto
/minus glyphshow

18.685547 3.892188 moveto
/one glyphshow


grestore
2 setlinecap
0.690 setgray
gsave
390.6 388.1 63 55.44 clipbox
228.202854 55.44 m
228.202854 443.52 l
stroke
grestore
0 setlinecap
0.000 setgray
gsave
/o {
gsave
newpath
translate
0.8 setlinewidth
1 setlinejoin
0 setlinecap
0 0 m
0 -3.5 l

gsave
0.000 setgray
fill
grestore
stroke
grestore
} bind def
228.203 55.44 o
grestore
gsave
219.202854 39.518125 translate
0.000000 rotate
/DejaVuSans findfont
10.0 scalefont
setfont
0.000000 0.976562 moveto
/one glyphshow

6.362305 0.976562 moveto
/zero glyphshow

/DejaVuSans findfont
7.0 scalefont
setfont
12.820312 4.804688 moveto
/zero glyphshow


grestore
2 setlinecap
0.690 setgray
gsave
390.6 388.1 63 55.44 clipbox
375.651162 55.44 m
375.651162 443.52 l
stroke
grestore
0 setlinecap
0.000 setgray
gsave
/o {
gsave
newpath
translate
0.8 setlinewidth
1 setlinejoin
0 setlinecap
0 0 m
0 -3.5 l

gsave
0.000 setgray
fill
grestore
stroke
grestore
} bind def
375.651 55.44 o
grestore
gsave
366.651162 40.518125 translate
0.000000 rotate
/DejaVuSans findfont
10.0 scalefont
setfont
0.000000 0.064063 moveto
/one glyphshow

6.362305 0.064063 moveto
/zero glyphshow

/DejaVuSans findfont
7.0 scalefont
setfont
12.820312 3.892188 moveto
/one glyphshow


grestore
0.600 setlinewidth
gsave
/o {
gsave
newpath
translate
0.6 setlinewidth
1 setlinejoin
0 setlinecap
0 0 m
0 -2 l

gsave
0.000 setgray
fill
grestore
stroke
grestore
} bind def
66.4653 55.44 o
grestore
gsave
/o {
gsave
newpath
translate
0.6 setlinewidth
1 setlinejoin
0 setlinecap
0 0 m
0 -2 l

gsave
0.000 setgray
fill
grestore
stroke
grestore
} bind def
74.0077 55.44 o
grestore
gsave
/o {
gsave
newpath
translate
0.6 setlinewidth
1 setlinejoin
0 setlinecap
0 0 m
0 -2 l

gsave
0.000 setgray
fill
grestore
stroke
grestore
} bind def
125.141 55.44 o
grestore
gsave
/o {
gsave
newpath
translate
0.6 setlinewidth
1 setlinejoin
0 setlinecap
0 0 m
0 -2 l

gsave
0.000 setgray
fill
grestore
stroke
grestore
} bind def
151.105 55.44 o
grestore
gsave
/o {
gsave
newpath
translate
0.6 setlinewidth
1 setlinejoin
0 setlinecap
0 0 m
0 -2 l

gsave
0.000 setgray
fill
grestore
stroke
grestore
} bind def
169.527 55.44 o
grestore
gsave
/o {
gsave
newpath
translate
0.6 setlinewidth
1 setlinejoin
0 setlinecap
0 0 m
0 -2 l

gsave
0.000 setgray
fill
grestore
stroke
grestore
} bind def
183.816 55.44 o
grestore
gsave
/o {
gsave
newpath
translate
0.6 setlinewidth
1 setlinejoin
0 setlinecap
0 0 m
0 -2 l

gsave
0.000 setgray
fill
grestore
stroke
grestore
} bind def
195.492 55.44 o
grestore
gsave
/o {
gsave
newpath
translate
0.6 setlinewidth
1 setlinejoin
0 setlinecap
0 0 m
0 -2 l

gsave
0.000 setgray
fill
grestore
stroke
grestore
} bind def
205.363 55.44 o
grestore
gsave
/o {
gsave
newpath
translate
0.6 setlinewidth
1 setlinejoin
0 setlinecap
0 0 m
0 -2 l

gsave
0.000 setgray
fill
grestore
stroke
grestore
} bind def
213.914 55.44 o
grestore
gsave
/o {
gsave
newpath
translate
0.6 setlinewidth
1 setlinejoin
0 setlinecap
0 0 m
0 -2 l

gsave
0.000 setgray
fill
grestore
stroke
grestore
} bind def
221.456 55.44 o
grestore
gsave
/o {
gsave
newpath
translate
0.6 setlinewidth
1 setlinejoin
0 setlinecap
0 0 m
0 -2 l

gsave
0.000 setgray
fill
grestore
stroke
grestore
} bind def
272.589 55.44 o
grestore
gsave
/o {
gsave
newpath
translate
0.6 setlinewidth
1 setlinejoin
0 setlinecap
0 0 m
0 -2 l

gsave
0.000 setgray
fill
grestore
stroke
grestore
} bind def
298.554 55.44 o
grestore
gsave
/o {
gsave
newpath
translate
0.6 setlinewidth
1 setlinejoin
0 setlinecap
0 0 m
0 -2 l

gsave
0.000 setgray
fill
grestore
stroke
grestore
} bind def
316.976 55.44 o
grestore
gsave
/o {
gsave
newpath
translate
0.6 setlinewidth
1 setlinejoin
0 setlinecap
0 0 m
0 -2 l

gsave
0.000 setgray
fill
grestore
stroke
grestore
} bind def
331.265 55.44 o
grestore
gsave
/o {
gsave
newpath
translate
0.6 setlinewidth
1 setlinejoin
0 setlinecap
0 0 m
0 -2 l

gsave
0.000 setgray
fill
grestore
stroke
grestore
} bind def
342.94 55.44 o
grestore
gsave
/o {
gsave
newpath
translate
0.6 setlinewidth
1 setlinejoin
0 setlinecap
0 0 m
0 -2 l

gsave
0.000 setgray
fill
grestore
stroke
grestore
} bind def
352.811 55.44 o
grestore
gsave
/o {
gsave
newpath
translate
0.6 setlinewidth
1 setlinejoin
0 setlinecap
0 0 m
0 -2 l

gsave
0.000 setgray
fill
grestore
stroke
grestore
} bind def
361.362 55.44 o
grestore
gsave
/o {
gsave
newpath
translate
0.6 setlinewidth
1 setlinejoin
0 setlinecap
0 0 m
0 -2 l

gsave
0.000 setgray
fill
grestore
stroke
grestore
} bind def
368.904 55.44 o
grestore
gsave
/o {
gsave
newpath
translate
0.6 setlinewidth
1 setlinejoin
0 setlinecap
0 0 m
0 -2 l

gsave
0.000 setgray
fill
grestore
stroke
grestore
} bind def
420.038 55.44 o
grestore
gsave
/o {
gsave
newpath
translate
0.6 setlinewidth
1 setlinejoin
0 setlinecap
0 0 m
0 -2 l

gsave
0.000 setgray
fill
grestore
stroke
grestore
} bind def
446.002 55.44 o
grestore
/DejaVuSerif findfont
20.000 scalefont
setfont
gsave
229.487500 18.236875 translate
0.000000 rotate
0.000000 0.000000 m /k glyphshow
12.119141 0.000000 m /U glyphshow
28.974609 0.000000 m /C glyphshow
44.277344 0.000000 m /T glyphshow
grestore
0.800 setlinewidth
2 setlinecap
0.690 setgray
gsave
390.6 388.1 63 55.44 clipbox
63 107.574597 m
453.6 107.574597 l
stroke
grestore
0 setlinecap
0.000 setgray
gsave
/o {
gsave
newpath
translate
0.8 setlinewidth
1 setlinejoin
0 setlinecap
0 0 m
-3.5 0 l

gsave
0.000 setgray
fill
grestore
stroke
grestore
} bind def
63 107.575 o
grestore
/DejaVuSans findfont
10.000 scalefont
setfont
gsave
43.281250 103.777722 translate
0.000000 rotate
0.000000 0.000000 m /three glyphshow
6.362305 0.000000 m /zero glyphshow
grestore
2 setlinecap
0.690 setgray
gsave
390.6 388.1 63 55.44 clipbox
63 190.762437 m
453.6 190.762437 l
stroke
grestore
0 setlinecap
0.000 setgray
gsave
/o {
gsave
newpath
translate
0.8 setlinewidth
1 setlinejoin
0 setlinecap
0 0 m
-3.5 0 l

gsave
0.000 setgray
fill
grestore
stroke
grestore
} bind def
63 190.762 o
grestore
gsave
43.281250 186.965562 translate
0.000000 rotate
0.000000 0.000000 m /four glyphshow
6.362305 0.000000 m /zero glyphshow
grestore
2 setlinecap
0.690 setgray
gsave
390.6 388.1 63 55.44 clipbox
63 273.950277 m
453.6 273.950277 l
stroke
grestore
0 setlinecap
0.000 setgray
gsave
/o {
gsave
newpath
translate
0.8 setlinewidth
1 setlinejoin
0 setlinecap
0 0 m
-3.5 0 l

gsave
0.000 setgray
fill
grestore
stroke
grestore
} bind def
63 273.95 o
grestore
gsave
43.281250 270.153402 translate
0.000000 rotate
0.000000 0.000000 m /five glyphshow
6.362305 0.000000 m /zero glyphshow
grestore
2 setlinecap
0.690 setgray
gsave
390.6 388.1 63 55.44 clipbox
63 357.138116 m
453.6 357.138116 l
stroke
grestore
0 setlinecap
0.000 setgray
gsave
/o {
gsave
newpath
translate
0.8 setlinewidth
1 setlinejoin
0 setlinecap
0 0 m
-3.5 0 l

gsave
0.000 setgray
fill
grestore
stroke
grestore
} bind def
63 357.138 o
grestore
gsave
43.281250 353.341241 translate
0.000000 rotate
0.000000 0.000000 m /six glyphshow
6.362305 0.000000 m /zero glyphshow
grestore
2 setlinecap
0.690 setgray
gsave
390.6 388.1 63 55.44 clipbox
63 440.325956 m
453.6 440.325956 l
stroke
grestore
0 setlinecap
0.000 setgray
gsave
/o {
gsave
newpath
translate
0.8 setlinewidth
1 setlinejoin
0 setlinecap
0 0 m
-3.5 0 l

gsave
0.000 setgray
fill
grestore
stroke
grestore
} bind def
63 440.326 o
grestore
gsave
43.281250 436.529081 translate
0.000000 rotate
0.000000 0.000000 m /seven glyphshow
6.362305 0.000000 m /zero glyphshow
grestore
/DejaVuSerif findfont
20.000 scalefont
setfont
gsave
35.125000 170.659687 translate
90.000000 rotate
0.000000 0.000000 m /numbersign glyphshow
16.757812 0.000000 m /o glyphshow
28.798828 0.000000 m /p glyphshow
41.601562 0.000000 m /t glyphshow
49.638672 0.000000 m /i glyphshow
56.035156 0.000000 m /m glyphshow
75.000000 0.000000 m /a glyphshow
86.923828 0.000000 m /space glyphshow
93.281250 0.000000 m /f glyphshow
100.683594 0.000000 m /o glyphshow
112.724609 0.000000 m /u glyphshow
125.605469 0.000000 m /n glyphshow
138.486328 0.000000 m /d glyphshow
151.289062 0.000000 m /space glyphshow
grestore
1.500 setlinewidth
0.502 0.000 0.502 setrgbcolor
gsave
390.6 388.1 63 55.44 clipbox
80.754545 297.855918 m
80.754545 311.659095 l
stroke
grestore
gsave
390.6 388.1 63 55.44 clipbox
125.140909 183.351073 m
125.140909 192.683403 l
stroke
grestore
gsave
390.6 388.1 63 55.44 clipbox
169.527273 144.671311 m
169.527273 151.613756 l
stroke
grestore
gsave
390.6 388.1 63 55.44 clipbox
213.913636 129.357097 m
213.913636 135.316591 l
stroke
grestore
gsave
390.6 388.1 63 55.44 clipbox
258.3 127.84481 m
258.3 134.111408 l
stroke
grestore
gsave
390.6 388.1 63 55.44 clipbox
302.686364 130.422433 m
302.686364 136.025929 l
stroke
grestore
gsave
390.6 388.1 63 55.44 clipbox
347.072727 132.495171 m
347.072727 138.99992 l
stroke
grestore
gsave
390.6 388.1 63 55.44 clipbox
391.459091 130.821357 m
391.459091 136.5698 l
stroke
grestore
gsave
390.6 388.1 63 55.44 clipbox
435.845455 131.388268 m
435.845455 137.389353 l
stroke
grestore
0.000 0.502 0.000 setrgbcolor
gsave
390.6 388.1 63 55.44 clipbox
80.754545 197.310888 m
80.754545 212.442392 l
stroke
grestore
gsave
390.6 388.1 63 55.44 clipbox
125.140909 135.797622 m
125.140909 151.004031 l
stroke
grestore
gsave
390.6 388.1 63 55.44 clipbox
169.527273 100.458106 m
169.527273 114.358336 l
stroke
grestore
gsave
390.6 388.1 63 55.44 clipbox
213.913636 87.385618 m
213.913636 100.810716 l
stroke
grestore
gsave
390.6 388.1 63 55.44 clipbox
258.3 81.167387 m
258.3 94.107102 l
stroke
grestore
gsave
390.6 388.1 63 55.44 clipbox
302.686364 76.812523 m
302.686364 89.810431 l
stroke
grestore
gsave
390.6 388.1 63 55.44 clipbox
347.072727 76.792227 m
347.072727 89.109766 l
stroke
grestore
gsave
390.6 388.1 63 55.44 clipbox
391.459091 73.979045 m
391.459091 86.155258 l
stroke
grestore
gsave
390.6 388.1 63 55.44 clipbox
435.845455 73.08 m
435.845455 85.279629 l
stroke
grestore
0.000 0.000 1.000 setrgbcolor
gsave
390.6 388.1 63 55.44 clipbox
80.754545 370.129813 m
80.754545 381.580947 l
stroke
grestore
gsave
390.6 388.1 63 55.44 clipbox
125.140909 393.533624 m
125.140909 405.705122 l
stroke
grestore
gsave
390.6 388.1 63 55.44 clipbox
169.527273 412.734324 m
169.527273 425.88 l
stroke
grestore
gsave
390.6 388.1 63 55.44 clipbox
213.913636 302.936547 m
213.913636 318.945725 l
stroke
grestore
gsave
390.6 388.1 63 55.44 clipbox
258.3 188.074122 m
258.3 196.390056 l
stroke
grestore
gsave
390.6 388.1 63 55.44 clipbox
302.686364 149.813939 m
302.686364 155.510873 l
stroke
grestore
gsave
390.6 388.1 63 55.44 clipbox
347.072727 141.664997 m
347.072727 147.133164 l
stroke
grestore
gsave
390.6 388.1 63 55.44 clipbox
391.459091 136.519214 m
391.459091 142.019114 l
stroke
grestore
gsave
390.6 388.1 63 55.44 clipbox
435.845455 131.622822 m
435.845455 136.600214 l
stroke
grestore
1.000 0.000 0.000 setrgbcolor
gsave
390.6 388.1 63 55.44 clipbox
80.754545 383.728508 m
80.754545 395.04603 l
stroke
grestore
gsave
390.6 388.1 63 55.44 clipbox
125.140909 395.059409 m
125.140909 406.120387 l
stroke
grestore
gsave
390.6 388.1 63 55.44 clipbox
169.527273 368.355798 m
169.527273 380.360201 l
stroke
grestore
gsave
390.6 388.1 63 55.44 clipbox
213.913636 267.155874 m
213.913636 276.807121 l
stroke
grestore
gsave
390.6 388.1 63 55.44 clipbox
258.3 215.038587 m
258.3 221.612095 l
stroke
grestore
gsave
390.6 388.1 63 55.44 clipbox
302.686364 194.319148 m
302.686364 200.349404 l
stroke
grestore
gsave
390.6 388.1 63 55.44 clipbox
347.072727 183.055151 m
347.072727 188.819933 l
stroke
grestore
gsave
390.6 388.1 63 55.44 clipbox
391.459091 184.419953 m
391.459091 190.893562 l
stroke
grestore
gsave
390.6 388.1 63 55.44 clipbox
435.845455 183.743272 m
435.845455 189.296442 l
stroke
grestore
1.000 0.647 0.000 setrgbcolor
gsave
390.6 388.1 63 55.44 clipbox
80.754545 388.767609 m
80.754545 402.429646 l
stroke
grestore
gsave
390.6 388.1 63 55.44 clipbox
125.140909 282.460394 m
125.140909 294.833195 l
stroke
grestore
gsave
390.6 388.1 63 55.44 clipbox
169.527273 195.880787 m
169.527273 203.390825 l
stroke
grestore
gsave
390.6 388.1 63 55.44 clipbox
213.913636 176.491938 m
213.913636 182.516761 l
stroke
grestore
gsave
390.6 388.1 63 55.44 clipbox
258.3 167.83753 m
258.3 172.814385 l
stroke
grestore
gsave
390.6 388.1 63 55.44 clipbox
302.686364 169.533091 m
302.686364 174.890006 l
stroke
grestore
gsave
390.6 388.1 63 55.44 clipbox
347.072727 160.177547 m
347.072727 165.777849 l
stroke
grestore
gsave
390.6 388.1 63 55.44 clipbox
391.459091 171.510626 m
391.459091 177.18278 l
stroke
grestore
gsave
390.6 388.1 63 55.44 clipbox
435.845455 161.228216 m
435.845455 166.779147 l
stroke
grestore
2 setlinecap
0.502 0.000 0.502 setrgbcolor
gsave
390.6 388.1 63 55.44 clipbox
80.754545 304.757507 m
125.140909 188.017238 l
169.527273 148.142533 l
213.913636 132.336844 l
258.3 130.978109 l
302.686364 133.224181 l
347.072727 135.747545 l
391.459091 133.695579 l
435.845455 134.388811 l
stroke
grestore
0.000 0.502 0.000 setrgbcolor
gsave
390.6 388.1 63 55.44 clipbox
80.754545 204.87664 m
125.140909 143.400827 l
169.527273 107.408221 l
213.913636 94.098167 l
258.3 87.637245 l
302.686364 83.311477 l
347.072727 82.950996 l
391.459091 80.067151 l
435.845455 79.179814 l
stroke
grestore
0.000 0.000 1.000 setrgbcolor
gsave
390.6 388.1 63 55.44 clipbox
80.754545 375.85538 m
125.140909 399.619373 l
169.527273 419.307162 l
213.913636 310.941136 l
258.3 192.232089 l
302.686364 152.662406 l
347.072727 144.399081 l
391.459091 139.269164 l
435.845455 134.111518 l
stroke
grestore
1.000 0.000 0.000 setrgbcolor
gsave
390.6 388.1 63 55.44 clipbox
80.754545 389.387269 m
125.140909 400.589898 l
169.527273 374.357999 l
213.913636 271.981498 l
258.3 218.325341 l
302.686364 197.334276 l
347.072727 185.937542 l
391.459091 187.656757 l
435.845455 186.519857 l
stroke
grestore
1.000 0.647 0.000 setrgbcolor
gsave
390.6 388.1 63 55.44 clipbox
80.754545 395.598628 m
125.140909 288.646795 l
169.527273 199.635806 l
213.913636 179.504349 l
258.3 170.325957 l
302.686364 172.211548 l
347.072727 162.977698 l
391.459091 174.346703 l
435.845455 164.003682 l
stroke
grestore
0.502 0.000 0.502 setrgbcolor
gsave
390.6 388.1 63 55.44 clipbox
80.754545 304.757507 m
125.140909 188.017238 l
169.527273 148.142533 l
213.913636 132.336844 l
258.3 130.978109 l
302.686364 133.224181 l
347.072727 135.747545 l
391.459091 133.695579 l
435.845455 134.388811 l
stroke
grestore
1.000 setlinewidth
0 setlinecap
gsave
390.6 388.1 63 55.44 clipbox
/o {
gsave
newpath
translate
1.0 setlinewidth
1 setlinejoin
0 setlinecap
0 -3 m
0.795609 -3 1.55874 -2.683901 2.12132 -2.12132 c
2.683901 -1.55874 3 -0.795609 3 0 c
3 0.795609 2.683901 1.55874 2.12132 2.12132 c
1.55874 2.683901 0.795609 3 0 3 c
-0.795609 3 -1.55874 2.683901 -2.12132 2.12132 c
-2.683901 1.55874 -3 0.795609 -3 0 c
-3 -0.795609 -2.683901 -1.55874 -2.12132 -2.12132 c
-1.55874 -2.683901 -0.795609 -3 0 -3 c
cl

gsave
0.502 0.000 0.502 setrgbcolor
fill
grestore
stroke
grestore
} bind def
80.7545 304.758 o
125.141 188.017 o
169.527 148.143 o
213.914 132.337 o
258.3 130.978 o
302.686 133.224 o
347.073 135.748 o
391.459 133.696 o
435.845 134.389 o
grestore
1.500 setlinewidth
2 setlinecap
0.000 0.502 0.000 setrgbcolor
gsave
390.6 388.1 63 55.44 clipbox
80.754545 204.87664 m
125.140909 143.400827 l
169.527273 107.408221 l
213.913636 94.098167 l
258.3 87.637245 l
302.686364 83.311477 l
347.072727 82.950996 l
391.459091 80.067151 l
435.845455 79.179814 l
stroke
grestore
1.000 setlinewidth
0 setlinejoin
0 setlinecap
gsave
390.6 388.1 63 55.44 clipbox
/o {
gsave
newpath
translate
1.0 setlinewidth
0 setlinejoin
0 setlinecap
-3 0 m
3 -3 l
3 3 l
cl

gsave
0.000 0.502 0.000 setrgbcolor
fill
grestore
stroke
grestore
} bind def
80.7545 204.877 o
125.141 143.401 o
169.527 107.408 o
213.914 94.0982 o
258.3 87.6372 o
302.686 83.3115 o
347.073 82.951 o
391.459 80.0672 o
435.845 79.1798 o
grestore
1.500 setlinewidth
1 setlinejoin
2 setlinecap
0.000 0.000 1.000 setrgbcolor
gsave
390.6 388.1 63 55.44 clipbox
80.754545 375.85538 m
125.140909 399.619373 l
169.527273 419.307162 l
213.913636 310.941136 l
258.3 192.232089 l
302.686364 152.662406 l
347.072727 144.399081 l
391.459091 139.269164 l
435.845455 134.111518 l
stroke
grestore
1.000 setlinewidth
0 setlinejoin
0 setlinecap
gsave
390.6 388.1 63 55.44 clipbox
/o {
gsave
newpath
translate
1.0 setlinewidth
0 setlinejoin
0 setlinecap
0 3 m
-3 -3 l
3 -3 l
cl

gsave
0.000 0.000 1.000 setrgbcolor
fill
grestore
stroke
grestore
} bind def
80.7545 375.855 o
125.141 399.619 o
169.527 419.307 o
213.914 310.941 o
258.3 192.232 o
302.686 152.662 o
347.073 144.399 o
391.459 139.269 o
435.845 134.112 o
grestore
1.500 setlinewidth
1 setlinejoin
2 setlinecap
1.000 0.000 0.000 setrgbcolor
gsave
390.6 388.1 63 55.44 clipbox
80.754545 389.387269 m
125.140909 400.589898 l
169.527273 374.357999 l
213.913636 271.981498 l
258.3 218.325341 l
302.686364 197.334276 l
347.072727 185.937542 l
391.459091 187.656757 l
435.845455 186.519857 l
stroke
grestore
1.000 setlinewidth
2 setlinejoin
0 setlinecap
gsave
390.6 388.1 63 55.44 clipbox
/o {
gsave
newpath
translate
1.0 setlinewidth
2 setlinejoin
0 setlinecap
0 3 m
-0.673542 0.927051 l
-2.85317 0.927051 l
-1.089814 -0.354102 l
-1.763356 -2.427051 l
-0 -1.145898 l
1.763356 -2.427051 l
1.089814 -0.354102 l
2.85317 0.927051 l
0.673542 0.927051 l
cl

gsave
1.000 0.000 0.000 setrgbcolor
fill
grestore
stroke
grestore
} bind def
80.7545 389.387 o
125.141 400.59 o
169.527 374.358 o
213.914 271.981 o
258.3 218.325 o
302.686 197.334 o
347.073 185.938 o
391.459 187.657 o
435.845 186.52 o
grestore
1.500 setlinewidth
1 setlinejoin
2 setlinecap
1.000 0.647 0.000 setrgbcolor
gsave
390.6 388.1 63 55.44 clipbox
80.754545 395.598628 m
125.140909 288.646795 l
169.527273 199.635806 l
213.913636 179.504349 l
258.3 170.325957 l
302.686364 172.211548 l
347.072727 162.977698 l
391.459091 174.346703 l
435.845455 164.003682 l
stroke
grestore
1.000 setlinewidth
0 setlinejoin
0 setlinecap
gsave
390.6 388.1 63 55.44 clipbox
/o {
gsave
newpath
translate
1.0 setlinewidth
0 setlinejoin
0 setlinecap
3 -0 m
-3 3 l
-3 -3 l
cl

gsave
1.000 0.647 0.000 setrgbcolor
fill
grestore
stroke
grestore
} bind def
80.7545 395.599 o
125.141 288.647 o
169.527 199.636 o
213.914 179.504 o
258.3 170.326 o
302.686 172.212 o
347.073 162.978 o
391.459 174.347 o
435.845 164.004 o
grestore
0.800 setlinewidth
2 setlinecap
[] 0 setdash
0.000 setgray
gsave
63 55.44 m
63 443.52 l
stroke
grestore
gsave
453.6 55.44 m
453.6 443.52 l
stroke
grestore
gsave
63 55.44 m
453.6 55.44 l
stroke
grestore
gsave
63 443.52 m
453.6 443.52 l
stroke
grestore
1.000 setlinewidth
0 setlinecap
0.800 setgray
gsave
307.56875 280.723125 m
439.6 280.723125 l
442.266667 280.723125 443.6 282.056458 443.6 284.723125 c
443.6 429.52 l
443.6 432.186667 442.266667 433.52 439.6 433.52 c
307.56875 433.52 l
304.902083 433.52 303.56875 432.186667 303.56875 429.52 c
303.56875 284.723125 l
303.56875 282.056458 304.902083 280.723125 307.56875 280.723125 c
cl
gsave
1.000 setgray
fill
grestore
stroke
grestore
1.500 setlinewidth
1 setlinejoin
[] 0 setdash
0.502 0.000 0.502 setrgbcolor
gsave
331.56875 407.316875 m
331.56875 427.316875 l
stroke
grestore
2 setlinecap
gsave
311.56875 417.316875 m
351.56875 417.316875 l
stroke
grestore
1.000 setlinewidth
0 setlinecap
gsave
/o {
gsave
newpath
translate
1.0 setlinewidth
1 setlinejoin
0 setlinecap
0 -3 m
0.795609 -3 1.55874 -2.683901 2.12132 -2.12132 c
2.683901 -1.55874 3 -0.795609 3 0 c
3 0.795609 2.683901 1.55874 2.12132 2.12132 c
1.55874 2.683901 0.795609 3 0 3 c
-0.795609 3 -1.55874 2.683901 -2.12132 2.12132 c
-2.683901 1.55874 -3 0.795609 -3 0 c
-3 -0.795609 -2.683901 -1.55874 -2.12132 -2.12132 c
-1.55874 -2.683901 -0.795609 -3 0 -3 c
cl

gsave
0.502 0.000 0.502 setrgbcolor
fill
grestore
stroke
grestore
} bind def
331.569 417.317 o
grestore
0.000 setgray
/DejaVuSans findfont
20.000 scalefont
setfont
gsave
367.568750 410.316875 translate
0.000000 rotate
0.000000 0.000000 m /K glyphshow
13.115234 0.000000 m /space glyphshow
19.472656 0.000000 m /equal glyphshow
36.230469 0.000000 m /space glyphshow
42.587891 0.000000 m /one glyphshow
55.312500 0.000000 m /one glyphshow
grestore
1.500 setlinewidth
0.000 0.502 0.000 setrgbcolor
gsave
331.56875 377.9575 m
331.56875 397.9575 l
stroke
grestore
2 setlinecap
gsave
311.56875 387.9575 m
351.56875 387.9575 l
stroke
grestore
1.000 setlinewidth
0 setlinejoin
0 setlinecap
gsave
/o {
gsave
newpath
translate
1.0 setlinewidth
0 setlinejoin
0 setlinecap
-3 0 m
3 -3 l
3 3 l
cl

gsave
0.000 0.502 0.000 setrgbcolor
fill
grestore
stroke
grestore
} bind def
331.569 387.957 o
grestore
0.000 setgray
gsave
367.568750 380.957500 translate
0.000000 rotate
0.000000 0.000000 m /K glyphshow
13.115234 0.000000 m /space glyphshow
19.472656 0.000000 m /equal glyphshow
36.230469 0.000000 m /space glyphshow
42.587891 0.000000 m /one glyphshow
55.312500 0.000000 m /seven glyphshow
grestore
1.500 setlinewidth
1 setlinejoin
0.000 0.000 1.000 setrgbcolor
gsave
331.56875 348.598125 m
331.56875 368.598125 l
stroke
grestore
2 setlinecap
gsave
311.56875 358.598125 m
351.56875 358.598125 l
stroke
grestore
1.000 setlinewidth
0 setlinejoin
0 setlinecap
gsave
/o {
gsave
newpath
translate
1.0 setlinewidth
0 setlinejoin
0 setlinecap
0 3 m
-3 -3 l
3 -3 l
cl

gsave
0.000 0.000 1.000 setrgbcolor
fill
grestore
stroke
grestore
} bind def
331.569 358.598 o
grestore
0.000 setgray
gsave
367.568750 351.598125 translate
0.000000 rotate
0.000000 0.000000 m /K glyphshow
13.115234 0.000000 m /space glyphshow
19.472656 0.000000 m /equal glyphshow
36.230469 0.000000 m /space glyphshow
42.587891 0.000000 m /two glyphshow
grestore
1.500 setlinewidth
1 setlinejoin
1.000 0.000 0.000 setrgbcolor
gsave
331.56875 319.23875 m
331.56875 339.23875 l
stroke
grestore
2 setlinecap
gsave
311.56875 329.23875 m
351.56875 329.23875 l
stroke
grestore
1.000 setlinewidth
2 setlinejoin
0 setlinecap
gsave
/o {
gsave
newpath
translate
1.0 setlinewidth
2 setlinejoin
0 setlinecap
0 3 m
-0.673542 0.927051 l
-2.85317 0.927051 l
-1.089814 -0.354102 l
-1.763356 -2.427051 l
-0 -1.145898 l
1.763356 -2.427051 l
1.089814 -0.354102 l
2.85317 0.927051 l
0.673542 0.927051 l
cl

gsave
1.000 0.000 0.000 setrgbcolor
fill
grestore
stroke
grestore
} bind def
331.569 329.239 o
grestore
0.000 setgray
gsave
367.568750 322.238750 translate
0.000000 rotate
0.000000 0.000000 m /K glyphshow
13.115234 0.000000 m /space glyphshow
19.472656 0.000000 m /equal glyphshow
36.230469 0.000000 m /space glyphshow
42.587891 0.000000 m /three glyphshow
grestore
1.500 setlinewidth
1 setlinejoin
1.000 0.647 0.000 setrgbcolor
gsave
331.56875 289.879375 m
331.56875 309.879375 l
stroke
grestore
2 setlinecap
gsave
311.56875 299.879375 m
351.56875 299.879375 l
stroke
grestore
1.000 setlinewidth
0 setlinejoin
0 setlinecap
gsave
/o {
gsave
newpath
translate
1.0 setlinewidth
0 setlinejoin
0 setlinecap
3 -0 m
-3 3 l
-3 -3 l
cl

gsave
1.000 0.647 0.000 setrgbcolor
fill
grestore
stroke
grestore
} bind def
331.569 299.879 o
grestore
0.000 setgray
gsave
367.568750 292.879375 translate
0.000000 rotate
0.000000 0.000000 m /K glyphshow
13.115234 0.000000 m /space glyphshow
19.472656 0.000000 m /equal glyphshow
36.230469 0.000000 m /space glyphshow
42.587891 0.000000 m /seven glyphshow
grestore

end
showpage
