%!PS-Adobe-3.0 EPSF-3.0
%%DocumentNeededResources: font Helvetica
%%+ font Helvetica-Bold
%%+ font Helvetica-Oblique
%%+ font Helvetica-BoldOblique
%%+ font Symbol
%%Title: R Graphics Output
%%Creator: R Software
%%Pages: (atend)
%%BoundingBox: 0 0 504 504
%%EndComments
%%BeginProlog
/bp  { gs sRGB gs } def
% begin .ps.prolog
/gs  { gsave } bind def
/gr  { grestore } bind def
/ep  { showpage gr gr } bind def
/m   { moveto } bind def
/l  { rlineto } bind def
/np  { newpath } bind def
/cp  { closepath } bind def
/f   { fill } bind def
/o   { stroke } bind def
/c   { newpath 0 360 arc } bind def
/r   { 4 2 roll moveto 1 copy 3 -1 roll exch 0 exch rlineto 0 rlineto -1 mul 0 exch rlineto closepath } bind def
/p1  { stroke } bind def
/p2  { gsave bg fill grestore newpath } bind def
/p3  { gsave bg fill grestore stroke } bind def
/p6  { gsave bg eofill grestore newpath } bind def
/p7  { gsave bg eofill grestore stroke } bind def
/t   { 5 -2 roll moveto gsave rotate
       1 index stringwidth pop
       mul neg 0 rmoveto show grestore } bind def
/ta  { 4 -2 roll moveto gsave rotate show } bind def
/tb  { 2 -1 roll 0 rmoveto show } bind def
/cl  { grestore gsave newpath 3 index 3 index moveto 1 index
       4 -1 roll lineto  exch 1 index lineto lineto
       closepath clip newpath } bind def
/rgb { setrgbcolor } bind def
/s   { scalefont setfont } bind def
% end   .ps.prolog
/sRGB { [ /CIEBasedABC
          << /DecodeLMN
               [ { dup 0.03928 le
                        {12.92321 div}
                        {0.055 add 1.055 div 2.4 exp }
                     ifelse
                 } bind dup dup
               ]
             /MatrixLMN [0.412457 0.212673 0.019334
                         0.357576 0.715152 0.119192
                         0.180437 0.072175 0.950301]
             /WhitePoint [0.9505 1.0 1.0890]
           >>
         ] setcolorspace } bind def
/srgb { setcolor } bind def
%%IncludeResource: font Helvetica
/Helvetica findfont
dup length dict begin
  {1 index /FID ne {def} {pop pop} ifelse} forall
  /Encoding ISOLatin1Encoding def
  currentdict
  end
/Font1 exch definefont pop
%%IncludeResource: font Helvetica-Bold
/Helvetica-Bold findfont
dup length dict begin
  {1 index /FID ne {def} {pop pop} ifelse} forall
  /Encoding ISOLatin1Encoding def
  currentdict
  end
/Font2 exch definefont pop
%%IncludeResource: font Helvetica-Oblique
/Helvetica-Oblique findfont
dup length dict begin
  {1 index /FID ne {def} {pop pop} ifelse} forall
  /Encoding ISOLatin1Encoding def
  currentdict
  end
/Font3 exch definefont pop
%%IncludeResource: font Helvetica-BoldOblique
/Helvetica-BoldOblique findfont
dup length dict begin
  {1 index /FID ne {def} {pop pop} ifelse} forall
  /Encoding ISOLatin1Encoding def
  currentdict
  end
/Font4 exch definefont pop
%%IncludeResource: font Symbol
/Symbol findfont
dup length dict begin
  {1 index /FID ne {def} {pop pop} ifelse} forall
  currentdict
  end
/Font5 exch definefont pop
%%EndProlog
%%Page: 1 1
bp
59.04 73.44 473.76 444.96 cl
0 0 0 srgb
2.25 setlinewidth
[] 0 setdash
1 setlinecap
1 setlinejoin
10.00 setmiterlimit
np
79.89 181.23 m
5.48 4.96 l
5.49 4.00 l
5.48 4.14 l
5.49 5.09 l
5.48 4.44 l
5.49 3.69 l
5.49 3.73 l
5.48 3.93 l
5.49 3.70 l
5.48 0 l
5.49 4.55 l
5.48 8.95 l
5.49 8.33 l
5.49 8.42 l
5.48 1.79 l
5.49 6.71 l
5.48 -1.37 l
5.49 13.77 l
5.48 11.10 l
5.49 65.12 l
5.49 7.44 l
5.48 7.48 l
5.49 7.62 l
5.48 7.72 l
5.49 7.47 l
5.48 6.56 l
5.49 6.58 l
5.49 6.38 l
5.48 6.83 l
5.49 -10.15 l
5.48 -23.14 l
5.49 -23.12 l
5.48 -31.27 l
5.49 -21.95 l
5.49 -19.85 l
5.48 -15.20 l
5.49 -11.70 l
5.48 -10.82 l
5.49 -7.38 l
5.48 -6.03 l
5.49 -1.72 l
5.49 -0.09 l
5.48 0.88 l
5.49 -0.43 l
5.48 -1.38 l
5.49 -2.49 l
5.48 -2.74 l
5.49 -2.60 l
5.49 -3.30 l
5.48 -3.90 l
5.49 -4.10 l
5.48 -5.07 l
5.49 -4.72 l
5.48 -4.57 l
5.49 -3.98 l
5.49 -1.33 l
5.48 10.62 l
5.49 5.96 l
5.48 -0.70 l
5.49 -2.21 l
5.48 -3.30 l
5.49 -3.29 l
5.49 -2.20 l
5.48 167.67 l
5.49 20.53 l
5.48 -1.57 l
5.49 -12.38 l
5.48 -14.72 l
5.49 -23.77 l
5.49 -26.52 l
5.48 -20.82 l
5.49 -14.36 l
o
0.00 0.00 504.00 504.00 cl
0 0 0 srgb
0.75 setlinewidth
[] 0 setdash
1 setlinecap
1 setlinejoin
10.00 setmiterlimit
np
74.40 73.44 m
384.00 0 l
o
np
74.40 73.44 m
0 -7.20 l
o
np
129.26 73.44 m
0 -7.20 l
o
np
184.11 73.44 m
0 -7.20 l
o
np
238.97 73.44 m
0 -7.20 l
o
np
293.83 73.44 m
0 -7.20 l
o
np
348.69 73.44 m
0 -7.20 l
o
np
403.54 73.44 m
0 -7.20 l
o
np
458.40 73.44 m
0 -7.20 l
o
/Font1 findfont 12 s
74.40 47.52 (0) .5 0 t
129.26 47.52 (10) .5 0 t
184.11 47.52 (20) .5 0 t
238.97 47.52 (30) .5 0 t
293.83 47.52 (40) .5 0 t
348.69 47.52 (50) .5 0 t
403.54 47.52 (60) .5 0 t
458.40 47.52 (70) .5 0 t
np
59.04 87.20 m
0 317.54 l
o
np
59.04 87.20 m
-7.20 0 l
o
np
59.04 140.12 m
-7.20 0 l
o
np
59.04 193.05 m
-7.20 0 l
o
np
59.04 245.97 m
-7.20 0 l
o
np
59.04 298.89 m
-7.20 0 l
o
np
59.04 351.82 m
-7.20 0 l
o
np
59.04 404.74 m
-7.20 0 l
o
41.76 87.20 (0) .5 90 t
41.76 140.12 (10) .5 90 t
41.76 193.05 (20) .5 90 t
41.76 245.97 (30) .5 90 t
41.76 298.89 (40) .5 90 t
41.76 351.82 (50) .5 90 t
41.76 404.74 (60) .5 90 t
np
59.04 73.44 m
414.72 0 l
0 371.52 l
-414.72 0 l
0 -371.52 l
o
0.00 0.00 504.00 504.00 cl
/Font1 findfont 12 s
0 0 0 srgb
255.73 18.72 (Da) 0 ta
-0.360 (y) tb gr
12.96 259.20 (SWC\(mm\)) .5 90 t
/Font2 findfont 14 s
176.16 469.45 (SWC sim) 0 ta
-0.280 (ulation o) tb
-0.280 (ver times) tb gr
59.04 73.44 473.76 444.96 cl
0.8275 0.8275 0.8275 srgb
1.50 setlinewidth
[ 0.00 6.00] 0 setdash
1 setlinecap
1 setlinejoin
10.00 setmiterlimit
np
128.16 73.44 m
0 371.52 l
o
np
197.28 73.44 m
0 371.52 l
o
np
266.40 73.44 m
0 371.52 l
o
np
335.52 73.44 m
0 371.52 l
o
np
404.64 73.44 m
0 371.52 l
o
np
59.04 166.32 m
414.72 0 l
o
np
59.04 259.20 m
414.72 0 l
o
np
59.04 352.08 m
414.72 0 l
o
0 1 0 srgb
2.25 setlinewidth
[] 0 setdash
np
79.89 181.23 m
5.48 3.40 l
5.49 -1.48 l
5.48 22.39 l
5.49 1.82 l
5.48 2.15 l
5.49 2.17 l
5.49 1.91 l
5.48 -0.02 l
5.49 -0.79 l
5.48 -0.25 l
5.49 0.32 l
5.48 0.49 l
5.49 34.09 l
5.49 6.16 l
5.48 30.17 l
5.49 2.97 l
5.48 35.73 l
5.49 0.32 l
5.48 0.69 l
5.49 22.81 l
5.49 6.94 l
5.48 7.98 l
5.49 7.51 l
5.48 6.42 l
5.49 4.69 l
5.48 3.74 l
5.49 1.69 l
5.49 -6.21 l
5.48 -13.44 l
5.49 -12.29 l
5.48 -8.77 l
5.49 -4.22 l
5.48 -19.82 l
5.49 -19.88 l
5.49 -31.06 l
5.48 -15.06 l
5.49 -25.96 l
5.48 -21.35 l
5.49 -16.36 l
5.48 -13.56 l
5.49 -10.86 l
5.49 -11.25 l
5.48 -10.17 l
5.49 -8.28 l
5.48 -7.74 l
5.49 -5.86 l
5.48 -5.42 l
5.49 -4.27 l
5.49 -3.38 l
5.48 -3.29 l
5.49 -2.84 l
5.48 -2.41 l
5.49 -2.36 l
5.48 -2.14 l
5.49 25.79 l
5.49 1.91 l
5.48 -5.64 l
5.49 -3.65 l
5.48 -0.67 l
5.49 -0.68 l
5.48 -0.63 l
5.49 -0.50 l
5.49 11.28 l
5.48 165.18 l
5.49 -15.51 l
5.48 -18.24 l
5.49 -15.33 l
5.48 -14.81 l
5.49 -12.51 l
5.49 -11.85 l
5.48 -10.54 l
5.49 -0.86 l
o
1 0 0 srgb
np
79.89 181.58 m
5.48 1.72 l
5.49 -4.55 l
5.48 20.25 l
5.49 -0.44 l
5.48 0.99 l
5.49 1.44 l
5.49 1.01 l
5.48 -2.14 l
5.49 -1.75 l
5.48 -1.68 l
5.49 -1.64 l
5.48 -2.20 l
5.49 31.72 l
5.49 5.24 l
5.48 28.35 l
5.49 1.18 l
5.48 33.65 l
5.49 -2.77 l
5.48 -1.86 l
5.49 64.30 l
5.49 5.34 l
5.48 10.42 l
5.49 7.92 l
5.48 4.98 l
5.49 3.74 l
5.48 1.72 l
5.49 2.03 l
5.49 -2.46 l
5.48 -6.97 l
5.49 -4.44 l
5.48 -8.49 l
5.49 -6.90 l
5.48 -12.10 l
5.49 -11.61 l
5.49 -16.12 l
5.48 -7.15 l
5.49 -10.06 l
5.48 -12.89 l
5.49 -7.48 l
5.48 -9.49 l
5.49 -5.78 l
5.49 -9.82 l
5.48 -7.19 l
5.49 -9.00 l
5.48 -6.93 l
5.49 -7.88 l
5.48 -5.93 l
5.49 -7.13 l
5.49 -4.30 l
5.48 -6.77 l
5.49 -4.64 l
5.48 -6.13 l
5.49 -5.11 l
5.48 -7.72 l
5.49 22.85 l
5.49 0.68 l
5.48 -4.88 l
5.49 -7.28 l
5.48 -4.62 l
5.49 -6.55 l
5.48 -4.06 l
5.49 -4.11 l
5.49 11.83 l
5.48 165.68 l
5.49 -8.96 l
5.48 -13.85 l
5.49 -15.40 l
5.48 -16.09 l
5.49 -11.24 l
5.49 -9.68 l
5.48 -8.93 l
5.49 3.65 l
o
0 0 0 srgb
0.75 setlinewidth
[] 0 setdash
101.83 166.58 121.12 -69.12 r p1
1 0 0 srgb
1.50 setlinewidth
[] 0 setdash
np
114.79 149.30 m
25.92 0 l
o
0 1 0 srgb
np
114.79 132.02 m
25.92 0 l
o
0 0 0 srgb
np
114.79 114.74 m
25.92 0 l
o
/Font1 findfont 14 s
153.67 144.28 (Optimiz) 0 ta
-0.210 (ed) tb gr
153.67 127.00 (Def) 0 ta
-0.420 (ault) tb gr
153.67 109.72 (Sensors) 0 0 t
ep
%%Trailer
%%Pages: 1
%%EOF
