%!PS-Adobe-3.0 EPSF-3.0 
%%BoundingBox: 0 0 340 340
%%Pages: 0
%%Creator: LibreOffice 6.1
%%Title: none
%%CreationDate: none
%%LanguageLevel: 2
%%EndComments
%%BeginProlog
%%BeginResource: procset SDRes-Prolog 1.0 0
/b4_inc_state save def
/dict_count countdictstack def
/op_count count 1 sub def
userdict begin
0 setgray 0 setlinecap 1 setlinewidth 0 setlinejoin 10 setmiterlimit[] 0 setdash newpath
/languagelevel where {pop languagelevel 1 ne {false setstrokeadjust false setoverprint} if} if
/bdef {bind def} bind def
/c {setgray} bdef
/l {neg lineto} bdef
/rl {neg rlineto} bdef
/lc {setlinecap} bdef
/lj {setlinejoin} bdef
/lw {setlinewidth} bdef
/ml {setmiterlimit} bdef
/ld {setdash} bdef
/m {neg moveto} bdef
/ct {6 2 roll neg 6 2 roll neg 6 2 roll neg curveto} bdef
/r {rotate} bdef
/t {neg translate} bdef
/s {scale} bdef
/sw {show} bdef
/gs {gsave} bdef
/gr {grestore} bdef
/f {findfont dup length dict begin
{1 index /FID ne {def} {pop pop} ifelse} forall /Encoding ISOLatin1Encoding def
currentdict end /NFont exch definefont pop /NFont findfont} bdef
/p {closepath} bdef
/sf {scalefont setfont} bdef
/ef {eofill}bdef
/pc {closepath stroke}bdef
/ps {stroke}bdef
/pum {matrix currentmatrix}bdef
/pom {setmatrix}bdef
/bs {/aString exch def /nXOfs exch def /nWidth exch def currentpoint nXOfs 0 rmoveto pum nWidth aString stringwidth pop div 1 scale aString show pom moveto} bdef
%%EndResource
%%EndProlog
%%BeginSetup
%%EndSetup
%%Page: 1 1
%%BeginPageSetup
%%EndPageSetup
pum
0.02833 0.02833 s 
0 -12000 t
/tm matrix currentmatrix def
gs
0 0 m 11999 0 l 11999 11999 l 0 11999 l 0 0 l eoclip newpath
gs
0 0 m 11999 0 l 11999 11999 l 0 11999 l 0 0 l eoclip newpath
gs
53 lw 1 lj 0.000 c 7699 3500 m  8152 3500 8499 3846 8499 4299 ct 8499 4752 8152 5099 7699 5099 ct 
7246 5099 6900 4752 6900 4299 ct 6900 3846 7246 3500 7699 3500 ct pc
gr
pum
7525 4521 t
0.000 c 32 0 m  32 -39 l  42 -64 55 -85 71 -104 ct 86 -122 102 -139 118 -154 ct 
135 -169 152 -183 168 -196 ct 185 -208 199 -221 213 -234 ct 226 -247 237 -260 245 -274 ct 
253 -289 257 -304 257 -322 ct 257 -346 250 -365 236 -378 ct 222 -391 202 -398 177 -398 ct 
154 -398 134 -392 119 -379 ct 103 -366 94 -348 91 -324 ct 34 -329 l  39 -364 53 -392 79 -413 ct 
104 -434 137 -444 177 -444 ct 221 -444 255 -434 279 -413 ct 303 -392 314 -362 314 -324 ct 
314 -307 311 -290 303 -274 ct 295 -257 283 -240 268 -223 ct 253 -206 224 -180 180 -145 ct 
157 -126 138 -108 124 -93 ct 110 -77 100 -62 93 -47 ct 321 -47 l  321 0 l  32 0 l 
p ef
pom
gs
53 lw 1 lj 4499 9900 m  4952 9900 5299 10246 5299 10699 ct 5299 11152 4952 11499 4499 11499 ct 
4046 11499 3700 11152 3700 10699 ct 3700 10246 4046 9900 4499 9900 ct pc
gr
pum
3973 10921 t
48 0 m  48 -47 l  160 -47 l  160 -384 l  61 -314 l  61 -366 l  164 -438 l 
216 -438 l  216 -47 l  322 -47 l  322 0 l  48 0 l  p ef
383 0 m  383 -39 l  393 -64 406 -85 422 -104 ct 437 -122 453 -139 469 -154 ct 
486 -169 503 -183 519 -196 ct 536 -208 550 -221 564 -234 ct 577 -247 588 -260 596 -274 ct 
604 -289 608 -304 608 -322 ct 608 -346 601 -365 587 -378 ct 573 -391 553 -398 528 -398 ct 
505 -398 485 -392 470 -379 ct 454 -366 445 -348 442 -324 ct 385 -329 l  390 -364 404 -392 430 -413 ct 
455 -434 488 -444 528 -444 ct 572 -444 606 -434 630 -413 ct 654 -392 665 -362 665 -324 ct 
665 -307 662 -290 654 -274 ct 646 -257 634 -240 619 -223 ct 604 -206 575 -180 531 -145 ct 
508 -126 489 -108 475 -93 ct 461 -77 451 -62 444 -47 ct 672 -47 l  672 0 l  383 0 l 
p ef
735 0 m  735 -39 l  745 -64 758 -85 774 -104 ct 789 -122 805 -139 821 -154 ct 
838 -169 855 -183 871 -196 ct 888 -208 902 -221 916 -234 ct 929 -247 940 -260 948 -274 ct 
956 -289 960 -304 960 -322 ct 960 -346 953 -365 939 -378 ct 925 -391 905 -398 880 -398 ct 
857 -398 837 -392 822 -379 ct 806 -366 797 -348 794 -324 ct 737 -329 l  742 -364 756 -392 782 -413 ct 
807 -434 840 -444 880 -444 ct 924 -444 958 -434 982 -413 ct 1006 -392 1017 -362 1017 -324 ct 
1017 -307 1014 -290 1006 -274 ct 998 -257 986 -240 971 -223 ct 956 -206 927 -180 883 -145 ct 
860 -126 841 -108 827 -93 ct 813 -77 803 -62 796 -47 ct 1024 -47 l  1024 0 l 
735 0 l  p ef
pom
gs
53 lw 1 lj 4499 3500 m  4952 3500 5299 3846 5299 4299 ct 5299 4752 4952 5099 4499 5099 ct 
4046 5099 3700 4752 3700 4299 ct 3700 3846 4046 3500 4499 3500 ct pc
gr
pum
4325 4521 t
48 0 m  48 -47 l  160 -47 l  160 -384 l  61 -314 l  61 -366 l  164 -438 l 
216 -438 l  216 -47 l  322 -47 l  322 0 l  48 0 l  p ef
pom
gs
53 lw 1 lj 10899 3500 m  11352 3500 11699 3846 11699 4299 ct 11699 4752 11352 5099 10899 5099 ct 
10446 5099 10100 4752 10100 4299 ct 10100 3846 10446 3500 10899 3500 ct pc
gr
pum
10725 4521 t
325 -121 m  325 -81 312 -49 287 -27 ct 261 -5 225 6 177 6 ct 133 6 98 -4 71 -24 ct 
45 -44 29 -73 24 -113 ct 82 -118 l  89 -66 121 -40 177 -40 ct 205 -40 227 -47 243 -61 ct 
259 -75 267 -96 267 -123 ct 267 -147 258 -165 240 -179 ct 222 -192 195 -199 161 -199 ct 
129 -199 l  129 -247 l  159 -247 l  190 -247 214 -254 231 -267 ct 247 -280 256 -299 256 -322 ct 
256 -346 249 -364 235 -378 ct 221 -391 201 -398 174 -398 ct 149 -398 129 -392 114 -379 ct 
99 -367 90 -349 88 -326 ct 32 -330 l  36 -366 51 -394 76 -414 ct 102 -434 134 -444 175 -444 ct 
218 -444 252 -434 277 -413 ct 301 -393 313 -365 313 -328 ct 313 -300 305 -278 290 -260 ct 
274 -243 251 -231 222 -225 ct 222 -223 l  254 -220 280 -209 298 -191 ct 316 -172 325 -149 325 -121 ct 
p ef
pom
gs
53 lw 1 lj 4499 6700 m  4952 6700 5299 7046 5299 7499 ct 5299 7952 4952 8299 4499 8299 ct 
4046 8299 3700 7952 3700 7499 ct 3700 7046 4046 6700 4499 6700 ct pc
gr
pum
4148 7721 t
48 0 m  48 -47 l  160 -47 l  160 -384 l  61 -314 l  61 -366 l  164 -438 l 
216 -438 l  216 -47 l  322 -47 l  322 0 l  48 0 l  p ef
383 0 m  383 -39 l  393 -64 406 -85 422 -104 ct 437 -122 453 -139 469 -154 ct 
486 -169 503 -183 519 -196 ct 536 -208 550 -221 564 -234 ct 577 -247 588 -260 596 -274 ct 
604 -289 608 -304 608 -322 ct 608 -346 601 -365 587 -378 ct 573 -391 553 -398 528 -398 ct 
505 -398 485 -392 470 -379 ct 454 -366 445 -348 442 -324 ct 385 -329 l  390 -364 404 -392 430 -413 ct 
455 -434 488 -444 528 -444 ct 572 -444 606 -434 630 -413 ct 654 -392 665 -362 665 -324 ct 
665 -307 662 -290 654 -274 ct 646 -257 634 -240 619 -223 ct 604 -206 575 -180 531 -145 ct 
508 -126 489 -108 475 -93 ct 461 -77 451 -62 444 -47 ct 672 -47 l  672 0 l  383 0 l 
p ef
pom
gs
53 lw 1 lj 1299 6700 m  1752 6700 2099 7046 2099 7499 ct 2099 7952 1752 8299 1299 8299 ct 
846 8299 500 7952 500 7499 ct 500 7046 846 6700 1299 6700 ct pc
gr
pum
972 7721 t
48 0 m  48 -47 l  160 -47 l  160 -384 l  61 -314 l  61 -366 l  164 -438 l 
216 -438 l  216 -47 l  322 -47 l  322 0 l  48 0 l  p ef
353 0 m  353 -47 l  465 -47 l  465 -384 l  366 -314 l  366 -366 l  469 -438 l 
521 -438 l  521 -47 l  627 -47 l  627 0 l  353 0 l  p ef
pom
gs
53 lw 1 lj 7699 6700 m  8152 6700 8499 7046 8499 7499 ct 8499 7952 8152 8299 7699 8299 ct 
7246 8299 6900 7952 6900 7499 ct 6900 7046 7246 6700 7699 6700 ct pc
gr
pum
7348 7721 t
48 0 m  48 -47 l  160 -47 l  160 -384 l  61 -314 l  61 -366 l  164 -438 l 
216 -438 l  216 -47 l  322 -47 l  322 0 l  48 0 l  p ef
676 -121 m  676 -81 663 -49 638 -27 ct 612 -5 576 6 528 6 ct 484 6 449 -4 422 -24 ct 
396 -44 380 -73 375 -113 ct 433 -118 l  440 -66 472 -40 528 -40 ct 556 -40 578 -47 594 -61 ct 
610 -75 618 -96 618 -123 ct 618 -147 609 -165 591 -179 ct 573 -192 546 -199 512 -199 ct 
480 -199 l  480 -247 l  510 -247 l  541 -247 565 -254 582 -267 ct 598 -280 607 -299 607 -322 ct 
607 -346 600 -364 586 -378 ct 572 -391 552 -398 525 -398 ct 500 -398 480 -392 465 -379 ct 
450 -367 441 -349 439 -326 ct 383 -330 l  387 -366 402 -394 427 -414 ct 453 -434 485 -444 526 -444 ct 
569 -444 603 -434 628 -413 ct 652 -393 664 -365 664 -328 ct 664 -300 656 -278 641 -260 ct 
625 -243 602 -231 573 -225 ct 573 -223 l  605 -220 631 -209 649 -191 ct 667 -172 676 -149 676 -121 ct 
p ef
pom
gs
53 lw 1 lj 1299 9900 m  1752 9900 2099 10246 2099 10699 ct 2099 11152 1752 11499 1299 11499 ct 
846 11499 500 11152 500 10699 ct 500 10246 846 9900 1299 9900 ct pc
gr
pum
773 10921 t
48 0 m  48 -47 l  160 -47 l  160 -384 l  61 -314 l  61 -366 l  164 -438 l 
216 -438 l  216 -47 l  322 -47 l  322 0 l  48 0 l  p ef
383 0 m  383 -39 l  393 -64 406 -85 422 -104 ct 437 -122 453 -139 469 -154 ct 
486 -169 503 -183 519 -196 ct 536 -208 550 -221 564 -234 ct 577 -247 588 -260 596 -274 ct 
604 -289 608 -304 608 -322 ct 608 -346 601 -365 587 -378 ct 573 -391 553 -398 528 -398 ct 
505 -398 485 -392 470 -379 ct 454 -366 445 -348 442 -324 ct 385 -329 l  390 -364 404 -392 430 -413 ct 
455 -434 488 -444 528 -444 ct 572 -444 606 -434 630 -413 ct 654 -392 665 -362 665 -324 ct 
665 -307 662 -290 654 -274 ct 646 -257 634 -240 619 -223 ct 604 -206 575 -180 531 -145 ct 
508 -126 489 -108 475 -93 ct 461 -77 451 -62 444 -47 ct 672 -47 l  672 0 l  383 0 l 
p ef
751 0 m  751 -47 l  863 -47 l  863 -384 l  764 -314 l  764 -366 l  867 -438 l 
919 -438 l  919 -47 l  1025 -47 l  1025 0 l  751 0 l  p ef
pom
gs
53 lw 1 lj 7699 9900 m  8152 9900 8499 10246 8499 10699 ct 8499 11152 8152 11499 7699 11499 ct 
7246 11499 6900 11152 6900 10699 ct 6900 10246 7246 9900 7699 9900 ct pc
gr
pum
7173 10921 t
48 0 m  48 -47 l  160 -47 l  160 -384 l  61 -314 l  61 -366 l  164 -438 l 
216 -438 l  216 -47 l  322 -47 l  322 0 l  48 0 l  p ef
383 0 m  383 -39 l  393 -64 406 -85 422 -104 ct 437 -122 453 -139 469 -154 ct 
486 -169 503 -183 519 -196 ct 536 -208 550 -221 564 -234 ct 577 -247 588 -260 596 -274 ct 
604 -289 608 -304 608 -322 ct 608 -346 601 -365 587 -378 ct 573 -391 553 -398 528 -398 ct 
505 -398 485 -392 470 -379 ct 454 -366 445 -348 442 -324 ct 385 -329 l  390 -364 404 -392 430 -413 ct 
455 -434 488 -444 528 -444 ct 572 -444 606 -434 630 -413 ct 654 -392 665 -362 665 -324 ct 
665 -307 662 -290 654 -274 ct 646 -257 634 -240 619 -223 ct 604 -206 575 -180 531 -145 ct 
508 -126 489 -108 475 -93 ct 461 -77 451 -62 444 -47 ct 672 -47 l  672 0 l  383 0 l 
p ef
1028 -121 m  1028 -81 1015 -49 990 -27 ct 964 -5 928 6 880 6 ct 836 6 801 -4 774 -24 ct 
748 -44 732 -73 727 -113 ct 785 -118 l  792 -66 824 -40 880 -40 ct 908 -40 930 -47 946 -61 ct 
962 -75 970 -96 970 -123 ct 970 -147 961 -165 943 -179 ct 925 -192 898 -199 864 -199 ct 
832 -199 l  832 -247 l  862 -247 l  893 -247 917 -254 934 -267 ct 950 -280 959 -299 959 -322 ct 
959 -346 952 -364 938 -378 ct 924 -391 904 -398 877 -398 ct 852 -398 832 -392 817 -379 ct 
802 -367 793 -349 791 -326 ct 735 -330 l  739 -366 754 -394 779 -414 ct 805 -434 837 -444 878 -444 ct 
921 -444 955 -434 980 -413 ct 1004 -393 1016 -365 1016 -328 ct 1016 -300 1008 -278 993 -260 ct 
977 -243 954 -231 925 -225 ct 925 -223 l  957 -220 983 -209 1001 -191 ct 1019 -172 1028 -149 1028 -121 ct 
p ef
pom
gs
53 lw 1 lj 7699 300 m  8152 300 8499 646 8499 1099 ct 8499 1552 8152 1899 7699 1899 ct 
7246 1899 6900 1552 6900 1099 ct 6900 646 7246 300 7699 300 ct pc
gr
gs
50 lw 1 lj 7700 1900 m  7700 3500 l  ps
gr
gs
50 lw 1 lj 7700 1900 m  4500 3500 l  ps
gr
gs
50 lw 1 lj 7700 1900 m  10900 3500 l  ps
gr
gs
50 lw 1 lj 4500 5100 m  7700 6700 l  ps
gr
gs
50 lw 1 lj 4500 5100 m  4500 6700 l  ps
gr
gs
50 lw 1 lj 4500 5100 m  1300 6700 l  ps
gr
gs
50 lw 1 lj 4500 8300 m  1300 9900 l  ps
gr
gs
50 lw 1 lj 4500 8300 m  4500 9900 l  ps
gr
gs
50 lw 1 lj 4500 8300 m  7700 9900 l  ps
gr
gr
gs
0 0 m 11999 0 l 11999 11999 l 0 11999 l 0 0 l eoclip newpath
gr
gr
0 12000 t 
pom
count op_count sub {pop} repeat countdictstack dict_count sub {end} repeat b4_inc_state restore
%%PageTrailer
%%Trailer
%%EOF
