%!PS-Adobe-3.0 EPSF-3.0
%%Title: boxbestEverFitness.eps
%%Creator: matplotlib version 3.0.2, http://matplotlib.org/
%%CreationDate: jeu. janv. 01 00:00:01 1970
%%Orientation: portrait
%%BoundingBox: -54 36 666 756
%%EndComments
%%BeginProlog
/mpldict 9 dict def
mpldict begin
/m { moveto } bind def
/l { lineto } bind def
/r { rlineto } bind def
/c { curveto } bind def
/cl { closepath } bind def
/box {
m
1 index 0 r
0 exch r
neg 0 r
cl
} bind def
/clipbox {
box
clip
newpath
} bind def
%!PS-Adobe-3.0 Resource-Font
%%Title: DejaVu Sans
%%Copyright: Copyright (c) 2003 by Bitstream, Inc. All Rights Reserved. Copyright (c) 2006 by Tavmjong Bah. All Rights Reserved. DejaVu changes are in public domain 
%%Creator: Converted from TrueType to type 3 by PPR
25 dict begin
/_d{bind def}bind def
/_m{moveto}_d
/_l{lineto}_d
/_cl{closepath eofill}_d
/_c{curveto}_d
/_sc{7 -1 roll{setcachedevice}{pop pop pop pop pop pop}ifelse}_d
/_e{exec}_d
/FontName /DejaVuSans def
/PaintType 0 def
/FontMatrix[.001 0 0 .001 0 0]def
/FontBBox[-1021 -463 1793 1232]def
/FontType 3 def
/Encoding [ /hyphen /zero /one /two /five /six /seven /eight /nine /A /C /D /E /I /M /O /P /Q /R /S ] def
/FontInfo 10 dict dup begin
/FamilyName (DejaVu Sans) def
/FullName (DejaVu Sans) def
/Notice (Copyright (c) 2003 by Bitstream, Inc. All Rights Reserved. Copyright (c) 2006 by Tavmjong Bah. All Rights Reserved. DejaVu changes are in public domain ) def
/Weight (Book) def
/Version (Version 2.35) def
/ItalicAngle 0.0 def
/isFixedPitch false def
/UnderlinePosition -130 def
/UnderlineThickness 90 def
end readonly def
/CharStrings 21 dict dup begin
/.notdef 0 def
/hyphen{361 0 49 234 312 314 _sc
49 314 _m
312 314 _l
312 234 _l
49 234 _l
49 314 _l
_cl}_d
/zero{636 0 66 -13 570 742 _sc
318 664 _m
267 664 229 639 203 589 _c
177 539 165 464 165 364 _c
165 264 177 189 203 139 _c
229 89 267 64 318 64 _c
369 64 407 89 433 139 _c
458 189 471 264 471 364 _c
471 464 458 539 433 589 _c
407 639 369 664 318 664 _c
318 742 _m
399 742 461 709 505 645 _c
548 580 570 486 570 364 _c
570 241 548 147 505 83 _c
461 19 399 -13 318 -13 _c
236 -13 173 19 130 83 _c
87 147 66 241 66 364 _c
66 486 87 580 130 645 _c
173 709 236 742 318 742 _c
_cl}_d
/one{636 0 110 0 544 729 _sc
124 83 _m
285 83 _l
285 639 _l
110 604 _l
110 694 _l
284 729 _l
383 729 _l
383 83 _l
544 83 _l
544 0 _l
124 0 _l
124 83 _l
_cl}_d
/two{{636 0 73 0 536 742 _sc
192 83 _m
536 83 _l
536 0 _l
73 0 _l
73 83 _l
110 121 161 173 226 239 _c
290 304 331 346 348 365 _c
380 400 402 430 414 455 _c
426 479 433 504 433 528 _c
433 566 419 598 392 622 _c
365 646 330 659 286 659 _c
255 659 222 653 188 643 _c
154 632 117 616 78 594 _c
78 694 _l
118 710 155 722 189 730 _c
223 738 255 742 284 742 _c
}_e{359 742 419 723 464 685 _c
509 647 532 597 532 534 _c
532 504 526 475 515 449 _c
504 422 484 390 454 354 _c
446 344 420 317 376 272 _c
332 227 271 164 192 83 _c
_cl}_e}_d
/five{{636 0 77 -13 549 729 _sc
108 729 _m
495 729 _l
495 646 _l
198 646 _l
198 467 _l
212 472 227 476 241 478 _c
255 480 270 482 284 482 _c
365 482 429 459 477 415 _c
525 370 549 310 549 234 _c
549 155 524 94 475 51 _c
426 8 357 -13 269 -13 _c
238 -13 207 -10 175 -6 _c
143 -1 111 6 77 17 _c
77 116 _l
106 100 136 88 168 80 _c
199 72 232 69 267 69 _c
}_e{323 69 368 83 401 113 _c
433 143 450 183 450 234 _c
450 284 433 324 401 354 _c
368 384 323 399 267 399 _c
241 399 214 396 188 390 _c
162 384 135 375 108 363 _c
108 729 _l
_cl}_e}_d
/six{{636 0 70 -13 573 742 _sc
330 404 _m
286 404 251 388 225 358 _c
199 328 186 286 186 234 _c
186 181 199 139 225 109 _c
251 79 286 64 330 64 _c
374 64 409 79 435 109 _c
461 139 474 181 474 234 _c
474 286 461 328 435 358 _c
409 388 374 404 330 404 _c
526 713 _m
526 623 _l
501 635 476 644 451 650 _c
425 656 400 659 376 659 _c
310 659 260 637 226 593 _c
}_e{192 549 172 482 168 394 _c
187 422 211 444 240 459 _c
269 474 301 482 336 482 _c
409 482 467 459 509 415 _c
551 371 573 310 573 234 _c
573 159 550 99 506 54 _c
462 9 403 -13 330 -13 _c
246 -13 181 19 137 83 _c
92 147 70 241 70 364 _c
70 479 97 571 152 639 _c
206 707 280 742 372 742 _c
396 742 421 739 447 735 _c
472 730 498 723 526 713 _c
_cl}_e}_d
/seven{636 0 82 0 551 729 _sc
82 729 _m
551 729 _l
551 687 _l
286 0 _l
183 0 _l
432 646 _l
82 646 _l
82 729 _l
_cl}_d
/eight{{636 0 68 -13 568 742 _sc
318 346 _m
271 346 234 333 207 308 _c
180 283 167 249 167 205 _c
167 161 180 126 207 101 _c
234 76 271 64 318 64 _c
364 64 401 76 428 102 _c
455 127 469 161 469 205 _c
469 249 455 283 429 308 _c
402 333 365 346 318 346 _c
219 388 _m
177 398 144 418 120 447 _c
96 476 85 511 85 553 _c
85 611 105 657 147 691 _c
188 725 245 742 318 742 _c
}_e{390 742 447 725 489 691 _c
530 657 551 611 551 553 _c
551 511 539 476 515 447 _c
491 418 459 398 417 388 _c
464 377 501 355 528 323 _c
554 291 568 251 568 205 _c
568 134 546 80 503 43 _c
459 5 398 -13 318 -13 _c
237 -13 175 5 132 43 _c
89 80 68 134 68 205 _c
68 251 81 291 108 323 _c
134 355 171 377 219 388 _c
183 544 _m
183 506 194 476 218 455 _c
}_e{242 434 275 424 318 424 _c
360 424 393 434 417 455 _c
441 476 453 506 453 544 _c
453 582 441 611 417 632 _c
393 653 360 664 318 664 _c
275 664 242 653 218 632 _c
194 611 183 582 183 544 _c
_cl}_e}_d
/nine{{636 0 63 -13 566 742 _sc
110 15 _m
110 105 _l
134 93 159 84 185 78 _c
210 72 235 69 260 69 _c
324 69 374 90 408 134 _c
442 178 462 244 468 334 _c
448 306 424 284 396 269 _c
367 254 335 247 300 247 _c
226 247 168 269 126 313 _c
84 357 63 417 63 494 _c
63 568 85 628 129 674 _c
173 719 232 742 306 742 _c
390 742 455 709 499 645 _c
543 580 566 486 566 364 _c
}_e{566 248 538 157 484 89 _c
429 21 356 -13 264 -13 _c
239 -13 214 -10 189 -6 _c
163 -2 137 5 110 15 _c
306 324 _m
350 324 385 339 411 369 _c
437 399 450 441 450 494 _c
450 546 437 588 411 618 _c
385 648 350 664 306 664 _c
262 664 227 648 201 618 _c
175 588 162 546 162 494 _c
162 441 175 399 201 369 _c
227 339 262 324 306 324 _c
_cl}_e}_d
/A{684 0 8 0 676 729 _sc
342 632 _m
208 269 _l
476 269 _l
342 632 _l
286 729 _m
398 729 _l
676 0 _l
573 0 _l
507 187 _l
178 187 _l
112 0 _l
8 0 _l
286 729 _l
_cl}_d
/C{{698 0 56 -13 644 742 _sc
644 673 _m
644 569 _l
610 599 575 622 537 638 _c
499 653 460 661 418 661 _c
334 661 270 635 226 584 _c
182 533 160 460 160 364 _c
160 268 182 194 226 143 _c
270 92 334 67 418 67 _c
460 67 499 74 537 90 _c
575 105 610 128 644 159 _c
644 56 _l
609 32 572 15 534 4 _c
496 -7 455 -13 412 -13 _c
302 -13 215 20 151 87 _c
}_e{87 154 56 246 56 364 _c
56 481 87 573 151 641 _c
215 708 302 742 412 742 _c
456 742 497 736 535 725 _c
573 713 610 696 644 673 _c
_cl}_e}_d
/D{770 0 98 0 711 729 _sc
197 648 _m
197 81 _l
316 81 _l
416 81 490 103 537 149 _c
583 195 607 267 607 365 _c
607 463 583 534 537 580 _c
490 625 416 648 316 648 _c
197 648 _l
98 729 _m
301 729 _l
442 729 546 699 612 641 _c
678 582 711 490 711 365 _c
711 239 677 147 611 88 _c
545 29 441 0 301 0 _c
98 0 _l
98 729 _l
_cl}_d
/E{632 0 98 0 568 729 _sc
98 729 _m
559 729 _l
559 646 _l
197 646 _l
197 430 _l
544 430 _l
544 347 _l
197 347 _l
197 83 _l
568 83 _l
568 0 _l
98 0 _l
98 729 _l
_cl}_d
/I{295 0 98 0 197 729 _sc
98 729 _m
197 729 _l
197 0 _l
98 0 _l
98 729 _l
_cl}_d
/M{863 0 98 0 765 729 _sc
98 729 _m
245 729 _l
431 233 _l
618 729 _l
765 729 _l
765 0 _l
669 0 _l
669 640 _l
481 140 _l
382 140 _l
194 640 _l
194 0 _l
98 0 _l
98 729 _l
_cl}_d
/O{787 0 56 -13 731 742 _sc
394 662 _m
322 662 265 635 223 582 _c
181 528 160 456 160 364 _c
160 272 181 199 223 146 _c
265 92 322 66 394 66 _c
465 66 522 92 564 146 _c
606 199 627 272 627 364 _c
627 456 606 528 564 582 _c
522 635 465 662 394 662 _c
394 742 _m
496 742 577 707 639 639 _c
700 571 731 479 731 364 _c
731 248 700 157 639 89 _c
577 21 496 -13 394 -13 _c
291 -13 209 21 148 89 _c
86 157 56 248 56 364 _c
56 479 86 571 148 639 _c
209 707 291 742 394 742 _c
_cl}_d
/P{603 0 98 0 569 729 _sc
197 648 _m
197 374 _l
321 374 _l
367 374 402 385 427 409 _c
452 433 465 467 465 511 _c
465 555 452 588 427 612 _c
402 636 367 648 321 648 _c
197 648 _l
98 729 _m
321 729 _l
402 729 464 710 506 673 _c
548 636 569 582 569 511 _c
569 439 548 384 506 348 _c
464 311 402 293 321 293 _c
197 293 _l
197 0 _l
98 0 _l
98 729 _l
_cl}_d
/Q{{787 0 56 -128 731 742 _sc
394 662 _m
322 662 265 635 223 582 _c
181 528 160 456 160 364 _c
160 272 181 199 223 146 _c
265 92 322 66 394 66 _c
465 66 522 92 564 146 _c
606 199 627 272 627 364 _c
627 456 606 528 564 582 _c
522 635 465 662 394 662 _c
532 13 _m
662 -128 _l
543 -128 _l
435 -11 _l
424 -11 416 -12 410 -12 _c
404 -12 399 -13 394 -13 _c
291 -13 209 21 148 89 _c
}_e{86 157 56 248 56 364 _c
56 479 86 571 148 639 _c
209 707 291 742 394 742 _c
496 742 577 707 639 639 _c
700 571 731 479 731 364 _c
731 279 714 206 680 146 _c
646 86 596 41 532 13 _c
_cl}_e}_d
/R{{695 0 98 0 666 729 _sc
444 342 _m
465 334 486 319 506 296 _c
526 272 546 240 566 199 _c
666 0 _l
560 0 _l
467 187 _l
443 235 419 268 397 284 _c
374 300 343 308 304 308 _c
197 308 _l
197 0 _l
98 0 _l
98 729 _l
321 729 _l
404 729 466 711 507 677 _c
548 642 569 589 569 519 _c
569 473 558 434 537 404 _c
515 374 484 353 444 342 _c
197 648 _m
197 389 _l
321 389 _l
}_e{368 389 404 400 428 422 _c
452 444 465 476 465 519 _c
465 561 452 593 428 615 _c
404 637 368 648 321 648 _c
197 648 _l
_cl}_e}_d
/S{{635 0 66 -13 579 742 _sc
535 705 _m
535 609 _l
497 627 462 640 429 649 _c
395 657 363 662 333 662 _c
279 662 237 651 208 631 _c
179 610 165 580 165 542 _c
165 510 174 485 194 469 _c
213 452 250 439 304 429 _c
364 417 _l
437 403 491 378 526 343 _c
561 307 579 260 579 201 _c
579 130 555 77 508 41 _c
460 5 391 -13 300 -13 _c
265 -13 228 -9 189 -2 _c
}_e{150 5 110 16 69 32 _c
69 134 _l
109 111 148 94 186 83 _c
224 71 262 66 300 66 _c
356 66 399 77 430 99 _c
460 121 476 152 476 194 _c
476 230 465 258 443 278 _c
421 298 385 313 335 323 _c
275 335 _l
201 349 148 372 115 404 _c
82 435 66 478 66 534 _c
66 598 88 649 134 686 _c
179 723 242 742 322 742 _c
356 742 390 739 426 733 _c
461 727 497 717 535 705 _c
}_e{_cl}_e}_d
end readonly def

/BuildGlyph
 {exch begin
 CharStrings exch
 2 copy known not{pop /.notdef}if
 true 3 1 roll get exec
 end}_d

/BuildChar {
 1 index /Encoding get exch get
 1 index /BuildGlyph get exec
}_d

FontName currentdict end definefont pop
%!PS-Adobe-3.0 Resource-Font
%%Title: DejaVu Serif Bold
%%Copyright: Copyright (c) 2003 by Bitstream, Inc. All Rights Reserved. DejaVu changes are in public domain 
%%Creator: Converted from TrueType to type 3 by PPR
25 dict begin
/_d{bind def}bind def
/_m{moveto}_d
/_l{lineto}_d
/_cl{closepath eofill}_d
/_c{curveto}_d
/_sc{7 -1 roll{setcachedevice}{pop pop pop pop pop pop}ifelse}_d
/_e{exec}_d
/FontName /DejaVuSerif-Bold def
/PaintType 0 def
/FontMatrix[.001 0 0 .001 0 0]def
/FontBBox[-836 -389 1796 1145]def
/FontType 3 def
/Encoding [ /space /F /e /i /n /s /t ] def
/FontInfo 10 dict dup begin
/FamilyName (DejaVu Serif) def
/FullName (DejaVu Serif Bold) def
/Notice (Copyright (c) 2003 by Bitstream, Inc. All Rights Reserved. DejaVu changes are in public domain ) def
/Weight (Bold) def
/Version (Version 2.35) def
/ItalicAngle 0.0 def
/isFixedPitch false def
/UnderlinePosition -130 def
/UnderlineThickness 90 def
end readonly def
/CharStrings 8 dict dup begin
/.notdef 0 def
/space{348 0 0 0 0 0 _sc
}_d
/F{710 0 47 0 697 729 _sc
47 0 _m
47 59 _l
140 59 _l
140 670 _l
47 670 _l
47 729 _l
697 729 _l
697 557 _l
630 557 _l
630 662 _l
329 662 _l
329 428 _l
514 428 _l
514 521 _l
581 521 _l
581 269 _l
514 269 _l
514 362 _l
329 362 _l
329 59 _l
444 59 _l
444 0 _l
47 0 _l
_cl}_d
/e{{636 0 41 -13 591 533 _sc
401 293 _m
401 361 394 409 382 437 _c
369 464 347 478 317 478 _c
287 478 265 464 253 437 _c
240 410 234 365 234 302 _c
234 293 _l
401 293 _l
591 235 _m
234 235 _l
234 231 _l
234 163 244 115 264 85 _c
284 55 316 41 362 41 _c
399 41 429 51 452 71 _c
475 91 490 119 497 157 _c
578 157 _l
564 98 536 55 494 28 _c
452 0 394 -13 320 -13 _c
}_e{230 -13 161 10 113 57 _c
65 104 41 172 41 260 _c
41 346 65 413 114 461 _c
163 509 232 533 320 533 _c
406 533 471 507 517 457 _c
563 406 587 332 591 235 _c
_cl}_e}_d
/i{380 0 34 0 355 760 _sc
92 666 _m
92 692 101 715 119 733 _c
137 751 159 760 186 760 _c
212 760 234 751 252 733 _c
270 715 279 692 279 666 _c
279 640 270 618 252 600 _c
234 582 212 573 186 573 _c
159 573 137 582 119 600 _c
101 618 92 640 92 666 _c
281 59 _m
355 59 _l
355 0 _l
34 0 _l
34 59 _l
108 59 _l
108 460 _l
34 460 _l
34 519 _l
281 519 _l
281 59 _l
_cl}_d
/n{{727 0 34 0 704 533 _sc
34 0 _m
34 59 _l
108 59 _l
108 460 _l
34 460 _l
34 519 _l
281 519 _l
281 446 _l
301 476 325 498 352 512 _c
378 526 412 533 453 533 _c
511 533 555 515 585 481 _c
615 447 630 396 630 330 _c
630 59 _l
704 59 _l
704 0 _l
394 0 _l
394 59 _l
457 59 _l
457 335 _l
457 379 451 409 440 426 _c
428 443 409 452 382 452 _c
}_e{347 452 321 439 305 413 _c
289 387 281 347 281 292 _c
281 59 _l
344 59 _l
344 0 _l
34 0 _l
_cl}_e}_d
/s{{563 0 43 -13 522 533 _sc
47 15 _m
47 160 _l
102 160 _l
106 121 121 91 145 71 _c
169 51 203 41 245 41 _c
280 41 307 47 326 59 _c
344 71 354 89 354 112 _c
354 132 348 148 336 160 _c
324 171 301 181 267 190 _c
196 208 _l
142 221 103 240 79 265 _c
55 290 43 324 43 366 _c
43 422 62 464 101 492 _c
140 519 200 533 282 533 _c
312 533 345 530 380 525 _c
}_e{414 520 453 512 495 502 _c
495 371 _l
440 371 _l
437 406 424 433 402 451 _c
380 469 348 478 306 478 _c
270 478 244 472 226 461 _c
208 449 199 433 199 412 _c
199 394 204 380 214 370 _c
224 360 243 351 271 345 _c
342 327 _l
410 309 457 288 483 263 _c
509 237 522 202 522 157 _c
522 98 501 55 459 28 _c
417 0 352 -13 264 -13 _c
232 -13 197 -10 161 -6 _c
}_e{125 -2 87 5 47 15 _c
_cl}_e}_d
/t{462 0 24 -13 457 680 _sc
99 460 _m
24 460 _l
24 519 _l
99 519 _l
99 680 _l
272 680 _l
272 519 _l
416 519 _l
416 460 _l
272 460 _l
272 142 _l
272 96 275 68 282 57 _c
289 46 302 41 322 41 _c
342 41 358 48 368 62 _c
378 76 383 97 384 127 _c
457 127 _l
454 75 440 38 414 18 _c
388 -2 344 -13 282 -13 _c
210 -13 162 -2 137 20 _c
111 42 99 82 99 142 _c
99 460 _l
_cl}_d
end readonly def

/BuildGlyph
 {exch begin
 CharStrings exch
 2 copy known not{pop /.notdef}if
 true 3 1 roll get exec
 end}_d

/BuildChar {
 1 index /Encoding get exch get
 1 index /BuildGlyph get exec
}_d

FontName currentdict end definefont pop
end
%%EndProlog
mpldict begin
-54 36 translate
720 720 0 0 clipbox
gsave
0 0 m
720 0 l
720 720 l
0 720 l
cl
1.000 setgray
fill
grestore
gsave
90 79.2 m
648 79.2 l
648 633.6 l
90 633.6 l
cl
1.000 setgray
fill
grestore
0.800 setlinewidth
1 setlinejoin
2 setlinecap
[] 0 setdash
0.690 setgray
gsave
558 554.4 90 79.2 clipbox
229.5 79.2 m
229.5 633.6 l
stroke
grestore
0 setlinecap
0.000 setgray
gsave
/o {
gsave
newpath
translate
0.8 setlinewidth
1 setlinejoin
0 setlinecap
0 0 m
0 -3.5 l

gsave
0.000 setgray
fill
grestore
stroke
grestore
} bind def
229.5 79.2 o
grestore
/DejaVuSans findfont
15.000 scalefont
setfont
gsave
217.114583 33.530098 translate
45.000000 rotate
0.000000 0.000000 m /Q glyphshow
11.806641 0.000000 m /R glyphshow
22.229004 0.000000 m /D glyphshow
33.779297 0.000000 m /S glyphshow
grestore
2 setlinecap
0.690 setgray
gsave
558 554.4 90 79.2 clipbox
508.5 79.2 m
508.5 633.6 l
stroke
grestore
0 setlinecap
0.000 setgray
gsave
/o {
gsave
newpath
translate
0.8 setlinewidth
1 setlinejoin
0 setlinecap
0 0 m
0 -3.5 l

gsave
0.000 setgray
fill
grestore
stroke
grestore
} bind def
508.5 79.2 o
grestore
gsave
476.840399 -5.018270 translate
45.000000 rotate
0.000000 0.000000 m /C glyphshow
10.473633 0.000000 m /M glyphshow
23.415527 0.000000 m /A glyphshow
33.676758 0.000000 m /hyphen glyphshow
39.089355 0.000000 m /E glyphshow
48.566895 0.000000 m /S glyphshow
58.088379 0.000000 m /hyphen glyphshow
63.500977 0.000000 m /I glyphshow
67.924805 0.000000 m /P glyphshow
76.970215 0.000000 m /O glyphshow
88.776855 0.000000 m /P glyphshow
grestore
2 setlinecap
0.690 setgray
gsave
558 554.4 90 79.2 clipbox
90 80.012903 m
648 80.012903 l
stroke
grestore
0 setlinecap
0.000 setgray
gsave
/o {
gsave
newpath
translate
0.8 setlinewidth
1 setlinejoin
0 setlinecap
0 0 m
-3.5 0 l

gsave
0.000 setgray
fill
grestore
stroke
grestore
} bind def
90 80.0129 o
grestore
/DejaVuSans findfont
10.000 scalefont
setfont
gsave
70.281250 76.216028 translate
0.000000 rotate
0.000000 0.000000 m /one glyphshow
6.362305 0.000000 m /five glyphshow
grestore
2 setlinecap
0.690 setgray
gsave
558 554.4 90 79.2 clipbox
90 161.303226 m
648 161.303226 l
stroke
grestore
0 setlinecap
0.000 setgray
gsave
/o {
gsave
newpath
translate
0.8 setlinewidth
1 setlinejoin
0 setlinecap
0 0 m
-3.5 0 l

gsave
0.000 setgray
fill
grestore
stroke
grestore
} bind def
90 161.303 o
grestore
gsave
70.281250 157.506351 translate
0.000000 rotate
0.000000 0.000000 m /one glyphshow
6.362305 0.000000 m /six glyphshow
grestore
2 setlinecap
0.690 setgray
gsave
558 554.4 90 79.2 clipbox
90 242.593548 m
648 242.593548 l
stroke
grestore
0 setlinecap
0.000 setgray
gsave
/o {
gsave
newpath
translate
0.8 setlinewidth
1 setlinejoin
0 setlinecap
0 0 m
-3.5 0 l

gsave
0.000 setgray
fill
grestore
stroke
grestore
} bind def
90 242.594 o
grestore
gsave
70.281250 238.796673 translate
0.000000 rotate
0.000000 0.000000 m /one glyphshow
6.362305 0.000000 m /seven glyphshow
grestore
2 setlinecap
0.690 setgray
gsave
558 554.4 90 79.2 clipbox
90 323.883871 m
648 323.883871 l
stroke
grestore
0 setlinecap
0.000 setgray
gsave
/o {
gsave
newpath
translate
0.8 setlinewidth
1 setlinejoin
0 setlinecap
0 0 m
-3.5 0 l

gsave
0.000 setgray
fill
grestore
stroke
grestore
} bind def
90 323.884 o
grestore
gsave
70.281250 320.086996 translate
0.000000 rotate
0.000000 0.000000 m /one glyphshow
6.362305 0.000000 m /eight glyphshow
grestore
2 setlinecap
0.690 setgray
gsave
558 554.4 90 79.2 clipbox
90 405.174194 m
648 405.174194 l
stroke
grestore
0 setlinecap
0.000 setgray
gsave
/o {
gsave
newpath
translate
0.8 setlinewidth
1 setlinejoin
0 setlinecap
0 0 m
-3.5 0 l

gsave
0.000 setgray
fill
grestore
stroke
grestore
} bind def
90 405.174 o
grestore
gsave
70.281250 401.377319 translate
0.000000 rotate
0.000000 0.000000 m /one glyphshow
6.362305 0.000000 m /nine glyphshow
grestore
2 setlinecap
0.690 setgray
gsave
558 554.4 90 79.2 clipbox
90 486.464516 m
648 486.464516 l
stroke
grestore
0 setlinecap
0.000 setgray
gsave
/o {
gsave
newpath
translate
0.8 setlinewidth
1 setlinejoin
0 setlinecap
0 0 m
-3.5 0 l

gsave
0.000 setgray
fill
grestore
stroke
grestore
} bind def
90 486.465 o
grestore
gsave
70.281250 482.667641 translate
0.000000 rotate
0.000000 0.000000 m /two glyphshow
6.362305 0.000000 m /zero glyphshow
grestore
2 setlinecap
0.690 setgray
gsave
558 554.4 90 79.2 clipbox
90 567.754839 m
648 567.754839 l
stroke
grestore
0 setlinecap
0.000 setgray
gsave
/o {
gsave
newpath
translate
0.8 setlinewidth
1 setlinejoin
0 setlinecap
0 0 m
-3.5 0 l

gsave
0.000 setgray
fill
grestore
stroke
grestore
} bind def
90 567.755 o
grestore
gsave
70.281250 563.957964 translate
0.000000 rotate
0.000000 0.000000 m /two glyphshow
6.362305 0.000000 m /one glyphshow
grestore
/DejaVuSerif-Bold findfont
20.000 scalefont
setfont
gsave
62.125000 312.501563 translate
90.000000 rotate
0.000000 0.000000 m /F glyphshow
14.199219 0.000000 m /i glyphshow
21.796875 0.000000 m /t glyphshow
31.035156 0.000000 m /n glyphshow
45.576172 0.000000 m /e glyphshow
58.300781 0.000000 m /s glyphshow
69.560547 0.000000 m /s glyphshow
80.820312 0.000000 m /space glyphshow
grestore
1.000 setlinewidth
2 setlinecap
gsave
558 554.4 90 79.2 clipbox
194.625 145.045161 m
264.375 145.045161 l
264.375 134.321926 l
246.9375 185.690323 l
264.375 237.058719 l
264.375 218.206452 l
194.625 218.206452 l
194.625 237.058719 l
212.0625 185.690323 l
194.625 134.321926 l
194.625 145.045161 l
stroke
grestore
gsave
558 554.4 90 79.2 clipbox
229.5 145.045161 m
229.5 104.4 l
stroke
grestore
gsave
558 554.4 90 79.2 clipbox
229.5 218.206452 m
229.5 218.206452 l
stroke
grestore
gsave
558 554.4 90 79.2 clipbox
212.0625 104.4 m
246.9375 104.4 l
stroke
grestore
gsave
558 554.4 90 79.2 clipbox
212.0625 218.206452 m
246.9375 218.206452 l
stroke
grestore
0 setlinejoin
0 setlinecap
1.000 0.000 0.000 setrgbcolor
gsave
558 554.4 90 79.2 clipbox
/o {
gsave
newpath
translate
1.0 setlinewidth
0 setlinejoin
0 setlinecap
-3 -3 m
3 -3 l
3 3 l
-3 3 l
cl

gsave
1.000 0.000 0.000 setrgbcolor
fill
grestore
stroke
grestore
} bind def
229.5 323.884 o
grestore
1 setlinejoin
2 setlinecap
0.000 setgray
gsave
558 554.4 90 79.2 clipbox
473.625 364.529032 m
543.375 364.529032 l
543.375 319.5602 l
525.9375 405.174194 l
543.375 490.788187 l
543.375 486.464516 l
473.625 486.464516 l
473.625 490.788187 l
491.0625 405.174194 l
473.625 319.5602 l
473.625 364.529032 l
stroke
grestore
gsave
558 554.4 90 79.2 clipbox
508.5 364.529032 m
508.5 364.529032 l
stroke
grestore
gsave
558 554.4 90 79.2 clipbox
508.5 486.464516 m
508.5 486.464516 l
stroke
grestore
gsave
558 554.4 90 79.2 clipbox
491.0625 364.529032 m
525.9375 364.529032 l
stroke
grestore
gsave
558 554.4 90 79.2 clipbox
491.0625 486.464516 m
525.9375 486.464516 l
stroke
grestore
0 setlinejoin
0 setlinecap
1.000 0.000 0.000 setrgbcolor
gsave
558 554.4 90 79.2 clipbox
/o {
gsave
newpath
translate
1.0 setlinewidth
0 setlinejoin
0 setlinecap
-3 -3 m
3 -3 l
3 3 l
-3 3 l
cl

gsave
1.000 0.000 0.000 setrgbcolor
fill
grestore
stroke
grestore
} bind def
508.5 210.077 o
508.5 608.4 o
grestore
1 setlinejoin
2 setlinecap
1.000 0.498 0.055 setrgbcolor
gsave
558 554.4 90 79.2 clipbox
212.0625 185.690323 m
246.9375 185.690323 l
stroke
grestore
gsave
558 554.4 90 79.2 clipbox
491.0625 405.174194 m
525.9375 405.174194 l
stroke
grestore
0.800 setlinewidth
0 setlinejoin
[] 0 setdash
0.000 setgray
gsave
90 79.2 m
90 633.6 l
stroke
grestore
gsave
648 79.2 m
648 633.6 l
stroke
grestore
gsave
90 79.2 m
648 79.2 l
stroke
grestore
gsave
90 633.6 m
648 633.6 l
stroke
grestore

end
showpage
