%!PS-Adobe-3.0 EPSF-3.0
%%DocumentNeededResources: font Helvetica
%%+ font Helvetica-Bold
%%+ font Helvetica-Oblique
%%+ font Helvetica-BoldOblique
%%+ font Symbol
%%Title: R Graphics Output
%%Creator: R Software
%%Pages: (atend)
%%BoundingBox: 0 0 504 504
%%EndComments
%%BeginProlog
/bp  { gs sRGB gs } def
% begin .ps.prolog
/gs  { gsave } bind def
/gr  { grestore } bind def
/ep  { showpage gr gr } bind def
/m   { moveto } bind def
/l  { rlineto } bind def
/np  { newpath } bind def
/cp  { closepath } bind def
/f   { fill } bind def
/o   { stroke } bind def
/c   { newpath 0 360 arc } bind def
/r   { 4 2 roll moveto 1 copy 3 -1 roll exch 0 exch rlineto 0 rlineto -1 mul 0 exch rlineto closepath } bind def
/p1  { stroke } bind def
/p2  { gsave bg fill grestore newpath } bind def
/p3  { gsave bg fill grestore stroke } bind def
/p6  { gsave bg eofill grestore newpath } bind def
/p7  { gsave bg eofill grestore stroke } bind def
/t   { 5 -2 roll moveto gsave rotate
       1 index stringwidth pop
       mul neg 0 rmoveto show grestore } bind def
/ta  { 4 -2 roll moveto gsave rotate show } bind def
/tb  { 2 -1 roll 0 rmoveto show } bind def
/cl  { grestore gsave newpath 3 index 3 index moveto 1 index
       4 -1 roll lineto  exch 1 index lineto lineto
       closepath clip newpath } bind def
/rgb { setrgbcolor } bind def
/s   { scalefont setfont } bind def
% end   .ps.prolog
/sRGB { [ /CIEBasedABC
          << /DecodeLMN
               [ { dup 0.03928 le
                        {12.92321 div}
                        {0.055 add 1.055 div 2.4 exp }
                     ifelse
                 } bind dup dup
               ]
             /MatrixLMN [0.412457 0.212673 0.019334
                         0.357576 0.715152 0.119192
                         0.180437 0.072175 0.950301]
             /WhitePoint [0.9505 1.0 1.0890]
           >>
         ] setcolorspace } bind def
/srgb { setcolor } bind def
%%IncludeResource: font Helvetica
/Helvetica findfont
dup length dict begin
  {1 index /FID ne {def} {pop pop} ifelse} forall
  /Encoding ISOLatin1Encoding def
  currentdict
  end
/Font1 exch definefont pop
%%IncludeResource: font Helvetica-Bold
/Helvetica-Bold findfont
dup length dict begin
  {1 index /FID ne {def} {pop pop} ifelse} forall
  /Encoding ISOLatin1Encoding def
  currentdict
  end
/Font2 exch definefont pop
%%IncludeResource: font Helvetica-Oblique
/Helvetica-Oblique findfont
dup length dict begin
  {1 index /FID ne {def} {pop pop} ifelse} forall
  /Encoding ISOLatin1Encoding def
  currentdict
  end
/Font3 exch definefont pop
%%IncludeResource: font Helvetica-BoldOblique
/Helvetica-BoldOblique findfont
dup length dict begin
  {1 index /FID ne {def} {pop pop} ifelse} forall
  /Encoding ISOLatin1Encoding def
  currentdict
  end
/Font4 exch definefont pop
%%IncludeResource: font Symbol
/Symbol findfont
dup length dict begin
  {1 index /FID ne {def} {pop pop} ifelse} forall
  currentdict
  end
/Font5 exch definefont pop
%%EndProlog
%%Page: 1 1
bp
59.04 73.44 473.76 444.96 cl
0 0 0 srgb
1.50 setlinewidth
[] 0 setdash
1 setlinecap
1 setlinejoin
10.00 setmiterlimit
np
77.60 222.94 m
3.20 4.17 l
3.20 4.41 l
3.20 4.05 l
3.20 4.93 l
3.20 3.63 l
3.20 6.12 l
3.20 7.39 l
3.20 7.16 l
3.20 6.63 l
3.20 5.53 l
3.20 3.89 l
3.20 3.94 l
3.20 4.70 l
3.20 4.81 l
3.20 4.73 l
3.20 4.56 l
3.20 6.18 l
3.20 6.49 l
3.20 5.87 l
3.20 5.39 l
3.20 4.89 l
3.20 4.80 l
3.20 4.75 l
3.20 5.68 l
3.20 5.96 l
3.20 5.96 l
3.20 5.10 l
3.20 5.17 l
3.20 5.25 l
3.20 4.34 l
3.20 4.35 l
3.20 6.03 l
3.20 5.85 l
3.20 6.25 l
3.20 5.24 l
3.20 0 l
3.20 0 l
3.20 0 l
3.20 0 l
3.20 0 l
3.20 0 l
3.20 0 l
3.20 0 l
3.20 0 l
3.20 -0.40 l
3.20 -3.20 l
3.20 -2.45 l
3.20 1.91 l
3.20 -1.19 l
3.20 5.33 l
3.20 0 l
3.20 0 l
3.20 0 l
3.20 -5.58 l
3.20 -15.24 l
3.20 -15.52 l
3.20 -3.16 l
3.20 5.93 l
3.20 -5.53 l
3.20 -9.87 l
3.20 -8.63 l
3.20 -7.84 l
3.20 -8.12 l
3.20 -10.73 l
3.20 -10.43 l
3.20 -10.87 l
3.20 -10.66 l
3.20 -8.00 l
3.20 -10.32 l
3.20 5.38 l
3.20 25.79 l
3.20 -14.83 l
3.20 -18.19 l
3.20 -12.51 l
3.20 -8.86 l
3.20 -9.36 l
3.20 -10.74 l
3.20 -10.07 l
3.20 -8.30 l
3.20 -8.01 l
3.20 -6.98 l
3.20 -5.86 l
3.20 -4.81 l
3.20 -2.78 l
3.20 -1.12 l
3.20 -2.45 l
3.20 -2.67 l
3.20 -2.21 l
3.20 -1.96 l
3.20 0.18 l
3.20 53.45 l
3.20 134.37 l
3.20 1.88 l
3.20 -5.29 l
3.20 -6.26 l
3.20 -8.46 l
3.20 -16.98 l
3.20 -18.82 l
3.20 -16.02 l
397.60 279.46 lineto
3.20 -11.08 l
3.20 -11.68 l
3.20 -12.29 l
3.20 -13.02 l
3.20 -11.88 l
3.20 -9.40 l
3.20 -5.23 l
3.20 -2.76 l
3.20 0.11 l
o
0.00 0.00 504.00 504.00 cl
0 0 0 srgb
0.75 setlinewidth
[] 0 setdash
1 setlinecap
1 setlinejoin
10.00 setmiterlimit
np
74.40 73.44 m
384.00 0 l
o
np
74.40 73.44 m
0 -7.20 l
o
np
138.40 73.44 m
0 -7.20 l
o
np
202.40 73.44 m
0 -7.20 l
o
np
266.40 73.44 m
0 -7.20 l
o
np
330.40 73.44 m
0 -7.20 l
o
np
394.40 73.44 m
0 -7.20 l
o
np
458.40 73.44 m
0 -7.20 l
o
/Font1 findfont 12 s
74.40 47.52 (0) .5 0 t
138.40 47.52 (20) .5 0 t
202.40 47.52 (40) .5 0 t
266.40 47.52 (60) .5 0 t
330.40 47.52 (80) .5 0 t
394.40 47.52 (100) .5 0 t
458.40 47.52 (120) .5 0 t
np
59.04 87.20 m
0 344.00 l
o
np
59.04 87.20 m
-7.20 0 l
o
np
59.04 136.34 m
-7.20 0 l
o
np
59.04 185.49 m
-7.20 0 l
o
np
59.04 234.63 m
-7.20 0 l
o
np
59.04 283.77 m
-7.20 0 l
o
np
59.04 332.91 m
-7.20 0 l
o
np
59.04 382.06 m
-7.20 0 l
o
np
59.04 431.20 m
-7.20 0 l
o
41.76 87.20 (0) .5 90 t
41.76 136.34 (10) .5 90 t
41.76 185.49 (20) .5 90 t
41.76 234.63 (30) .5 90 t
41.76 283.77 (40) .5 90 t
41.76 332.91 (50) .5 90 t
41.76 382.06 (60) .5 90 t
41.76 431.20 (70) .5 90 t
np
59.04 73.44 m
414.72 0 l
0 371.52 l
-414.72 0 l
0 -371.52 l
o
0.00 0.00 504.00 504.00 cl
/Font1 findfont 12 s
0 0 0 srgb
252.73 18.72 (Da) 0 ta
-0.360 (ys) tb gr
12.96 259.20 (SWC \(mm\)) .5 90 t
59.04 73.44 473.76 444.96 cl
0 0 0 srgb
0.75 setlinewidth
[] 0 setdash
1 setlinecap
1 setlinejoin
10.00 setmiterlimit
77.60 156.00 149.63 -69.12 r p1
1.50 setlinewidth
[] 0 setdash
np
86.24 144.48 m
17.28 0 l
o
0.6275 0.1255 0.9412 srgb
np
86.24 132.96 m
17.28 0 l
o
0 1 0 srgb
np
86.24 121.44 m
17.28 0 l
o
1 0 0 srgb
np
86.24 109.92 m
17.28 0 l
o
0 0 0 srgb
1.50 setlinewidth
[ 4.50 7.50] 0 setdash
np
86.24 98.40 m
17.28 0 l
o
/Font1 findfont 10 s
112.16 140.89 (Sensors) 0 0 t
112.16 129.37 (Def) 0 ta
-0.300 (ault) tb gr
112.16 117.85 (Best predictor) 0 0 t
112.16 106.33 (Linear combination) 0 0 t
112.16 94.81 (Unkno) 0 ta
-0.150 (wn sensors v) tb
-0.250 (alues) tb gr
0.8275 0.8275 0.8275 srgb
0.75 setlinewidth
[ 0.00 3.00] 0 setdash
np
110.88 73.44 m
0 371.52 l
o
np
162.72 73.44 m
0 371.52 l
o
np
214.56 73.44 m
0 371.52 l
o
np
266.40 73.44 m
0 371.52 l
o
np
318.24 73.44 m
0 371.52 l
o
np
370.08 73.44 m
0 371.52 l
o
np
421.92 73.44 m
0 371.52 l
o
np
59.04 135.36 m
414.72 0 l
o
np
59.04 197.28 m
414.72 0 l
o
np
59.04 259.20 m
414.72 0 l
o
np
59.04 321.12 m
414.72 0 l
o
np
59.04 383.04 m
414.72 0 l
o
/Font1 findfont 12 s
0 0 0 srgb
419.06 122.30 (F) 0 ta
-0.360 (orecast) tb gr
1.50 setlinewidth
[ 0.00 6.00] 0 setdash
np
426.40 87.20 m
0 344.00 l
o
1 0 0 srgb
1.50 setlinewidth
[] 0 setdash
np
77.60 227.13 m
3.20 0.42 l
3.20 -0.03 l
3.20 -0.68 l
3.20 -1.32 l
3.20 -1.86 l
3.20 36.70 l
3.20 8.99 l
3.20 7.64 l
3.20 4.59 l
3.20 2.87 l
3.20 0.48 l
3.20 -0.65 l
3.20 -0.10 l
3.20 22.94 l
3.20 6.02 l
3.20 5.94 l
3.20 6.30 l
3.20 15.29 l
3.20 3.75 l
3.20 2.75 l
3.20 0.31 l
3.20 -1.39 l
3.20 -0.05 l
3.20 1.34 l
3.20 1.57 l
3.20 8.57 l
3.20 28.24 l
3.20 7.78 l
3.20 4.13 l
3.20 3.53 l
3.20 -5.37 l
3.20 -7.70 l
3.20 0.12 l
3.20 -1.68 l
3.20 2.88 l
3.20 -1.39 l
3.20 -1.21 l
3.20 -1.48 l
3.20 -1.69 l
3.20 22.04 l
3.20 8.23 l
3.20 -4.14 l
3.20 2.60 l
3.20 -5.22 l
3.20 -4.94 l
3.20 -9.29 l
3.20 21.18 l
3.20 -10.28 l
3.20 -10.23 l
3.20 26.28 l
3.20 -18.62 l
3.20 -16.34 l
3.20 0.28 l
3.20 -9.54 l
3.20 -2.02 l
3.20 -12.82 l
3.20 14.27 l
3.20 -3.88 l
3.20 -4.93 l
3.20 1.03 l
3.20 -17.79 l
3.20 -13.45 l
3.20 -16.00 l
3.20 -14.66 l
3.20 -11.93 l
3.20 -11.72 l
3.20 -8.61 l
3.20 -9.28 l
3.20 -11.35 l
3.20 77.65 l
3.20 -13.46 l
3.20 -14.92 l
3.20 -13.66 l
3.20 -12.53 l
3.20 -13.54 l
3.20 -15.60 l
3.20 -11.21 l
3.20 -9.95 l
3.20 -9.78 l
3.20 -10.40 l
3.20 -7.76 l
3.20 -7.63 l
3.20 -6.43 l
3.20 -4.85 l
3.20 -1.11 l
3.20 -5.68 l
3.20 -2.91 l
3.20 -1.73 l
3.20 -1.08 l
3.20 104.53 l
3.20 34.88 l
3.20 -7.44 l
3.20 -8.52 l
3.20 -7.94 l
3.20 -5.23 l
3.20 -7.43 l
3.20 3.27 l
3.20 -6.36 l
3.20 8.88 l
397.60 267.82 lineto
3.20 -7.08 l
3.20 -7.75 l
3.20 -7.59 l
3.20 -7.09 l
3.20 -8.00 l
3.20 -6.04 l
3.20 -3.25 l
3.20 9.05 l
3.20 24.25 l
3.20 5.62 l
3.20 -8.43 l
3.20 -8.73 l
3.20 -6.35 l
3.20 -5.90 l
3.20 -6.51 l
3.20 -4.32 l
o
0.6275 0.1255 0.9412 srgb
np
77.60 222.94 m
3.20 -0.21 l
3.20 -0.63 l
3.20 -1.15 l
3.20 -1.81 l
3.20 -2.11 l
3.20 33.22 l
3.20 7.39 l
3.20 6.04 l
3.20 3.52 l
3.20 2.07 l
3.20 0.08 l
3.20 -0.93 l
3.20 -0.47 l
3.20 21.00 l
3.20 5.15 l
3.20 3.99 l
3.20 4.68 l
3.20 13.49 l
3.20 3.04 l
3.20 -3.88 l
3.20 -11.66 l
3.20 -20.71 l
3.20 -17.25 l
3.20 -16.06 l
3.20 -13.62 l
3.20 2.53 l
3.20 48.87 l
3.20 4.68 l
3.20 -5.00 l
3.20 -1.56 l
3.20 -9.04 l
3.20 -14.34 l
3.20 -17.24 l
3.20 4.17 l
3.20 -8.14 l
3.20 -21.92 l
3.20 -21.58 l
3.20 -17.14 l
3.20 -13.27 l
3.20 12.58 l
3.20 -0.08 l
3.20 -12.08 l
3.20 20.23 l
3.20 -7.35 l
3.20 -5.63 l
3.20 -6.05 l
3.20 32.63 l
3.20 -8.99 l
3.20 -7.16 l
3.20 103.67 l
3.20 -27.26 l
3.20 -22.45 l
3.20 -5.10 l
3.20 -11.60 l
3.20 -3.69 l
3.20 -9.42 l
3.20 9.23 l
3.20 -4.95 l
3.20 -4.84 l
3.20 -1.14 l
3.20 -10.96 l
3.20 -8.65 l
3.20 -9.12 l
3.20 -8.16 l
3.20 -6.74 l
3.20 -6.36 l
3.20 -4.62 l
3.20 -4.96 l
3.20 -5.45 l
3.20 73.41 l
3.20 -10.48 l
3.20 -10.71 l
3.20 -9.59 l
3.20 -8.61 l
3.20 -8.16 l
3.20 -6.70 l
3.20 -5.28 l
3.20 -4.77 l
3.20 -4.58 l
3.20 -4.61 l
3.20 -3.73 l
3.20 -3.59 l
3.20 -3.13 l
3.20 -2.46 l
3.20 -0.80 l
3.20 -2.36 l
3.20 -2.46 l
3.20 -1.72 l
3.20 -1.15 l
3.20 97.74 l
3.20 24.81 l
3.20 -12.60 l
3.20 -12.79 l
3.20 -11.42 l
3.20 -7.99 l
3.20 -9.31 l
3.20 -1.38 l
3.20 -7.47 l
3.20 4.18 l
397.60 177.47 lineto
3.20 -7.30 l
3.20 -6.86 l
3.20 -5.11 l
3.20 -4.70 l
3.20 -4.88 l
3.20 -3.90 l
3.20 -2.34 l
3.20 7.44 l
3.20 21.02 l
3.20 1.72 l
3.20 -5.97 l
3.20 -5.86 l
3.20 -4.57 l
3.20 -4.18 l
3.20 -4.31 l
3.20 -3.12 l
o
0 1 0 srgb
np
77.60 221.47 m
3.20 -2.15 l
3.20 -2.92 l
3.20 -3.59 l
3.20 -5.01 l
3.20 -4.93 l
3.20 47.94 l
3.20 7.93 l
3.20 5.11 l
3.20 2.25 l
3.20 0.51 l
3.20 -1.79 l
3.20 -3.40 l
3.20 -3.07 l
3.20 18.96 l
3.20 5.08 l
3.20 3.92 l
3.20 5.86 l
3.20 29.54 l
3.20 6.31 l
3.20 5.27 l
3.20 4.56 l
3.20 4.08 l
3.20 3.94 l
3.20 4.67 l
3.20 5.14 l
3.20 12.54 l
3.20 5.48 l
3.20 5.55 l
3.20 3.85 l
3.20 6.45 l
3.20 1.71 l
3.20 1.81 l
3.20 -5.60 l
3.20 13.24 l
3.20 0 l
3.20 -8.59 l
3.20 -11.52 l
3.20 -10.93 l
3.20 -9.76 l
3.20 14.82 l
3.20 3.50 l
3.20 -9.29 l
3.20 20.55 l
3.20 -7.69 l
3.20 -7.04 l
3.20 -10.92 l
3.20 34.44 l
3.20 -10.77 l
3.20 -9.94 l
3.20 23.14 l
3.20 -15.83 l
3.20 -13.65 l
3.20 1.73 l
3.20 -7.48 l
3.20 0.29 l
3.20 -9.65 l
3.20 15.44 l
3.20 -2.50 l
3.20 -2.43 l
3.20 3.43 l
3.20 -14.62 l
3.20 -11.42 l
3.20 -14.99 l
3.20 -14.57 l
3.20 -12.28 l
3.20 -12.53 l
3.20 -9.42 l
3.20 -9.88 l
3.20 -12.02 l
3.20 72.18 l
3.20 -12.58 l
3.20 -15.24 l
3.20 -14.13 l
3.20 -12.92 l
3.20 -13.89 l
3.20 -16.04 l
3.20 -11.39 l
3.20 -10.10 l
3.20 -9.87 l
3.20 -10.44 l
3.20 -7.78 l
3.20 -7.62 l
3.20 -6.40 l
3.20 -3.48 l
3.20 -0.63 l
3.20 -2.69 l
3.20 -3.01 l
3.20 -3.42 l
3.20 -2.09 l
3.20 98.38 l
3.20 32.37 l
3.20 -8.54 l
3.20 -9.47 l
3.20 -8.77 l
3.20 -5.76 l
3.20 -7.60 l
3.20 2.64 l
3.20 -6.24 l
3.20 8.09 l
397.60 255.24 lineto
3.20 -6.90 l
3.20 -7.52 l
3.20 -7.35 l
3.20 -6.83 l
3.20 -7.66 l
3.20 -5.79 l
3.20 -3.13 l
3.20 8.44 l
3.20 22.74 l
3.20 5.10 l
3.20 -8.11 l
3.20 -8.36 l
3.20 -6.08 l
3.20 -5.64 l
3.20 -6.18 l
3.20 -4.11 l
o
0 0 0 srgb
1.50 setlinewidth
[ 4.50 7.50] 0 setdash
np
426.40 202.23 m
3.20 1.53 l
3.20 3.65 l
3.20 3.90 l
3.20 5.67 l
3.20 6.21 l
3.20 4.92 l
3.20 5.17 l
o
ep
%%Trailer
%%Pages: 1
%%EOF
