%!PS-Adobe-3.0 EPSF-3.0
%%DocumentNeededResources: font Helvetica
%%+ font Helvetica-Bold
%%+ font Helvetica-Oblique
%%+ font Helvetica-BoldOblique
%%+ font Symbol
%%Title: R Graphics Output
%%Creator: R Software
%%Pages: (atend)
%%BoundingBox: 0 0 504 504
%%EndComments
%%BeginProlog
/bp  { gs sRGB gs } def
% begin .ps.prolog
/gs  { gsave } bind def
/gr  { grestore } bind def
/ep  { showpage gr gr } bind def
/m   { moveto } bind def
/l  { rlineto } bind def
/np  { newpath } bind def
/cp  { closepath } bind def
/f   { fill } bind def
/o   { stroke } bind def
/c   { newpath 0 360 arc } bind def
/r   { 4 2 roll moveto 1 copy 3 -1 roll exch 0 exch rlineto 0 rlineto -1 mul 0 exch rlineto closepath } bind def
/p1  { stroke } bind def
/p2  { gsave bg fill grestore newpath } bind def
/p3  { gsave bg fill grestore stroke } bind def
/p6  { gsave bg eofill grestore newpath } bind def
/p7  { gsave bg eofill grestore stroke } bind def
/t   { 5 -2 roll moveto gsave rotate
       1 index stringwidth pop
       mul neg 0 rmoveto show grestore } bind def
/ta  { 4 -2 roll moveto gsave rotate show } bind def
/tb  { 2 -1 roll 0 rmoveto show } bind def
/cl  { grestore gsave newpath 3 index 3 index moveto 1 index
       4 -1 roll lineto  exch 1 index lineto lineto
       closepath clip newpath } bind def
/rgb { setrgbcolor } bind def
/s   { scalefont setfont } bind def
% end   .ps.prolog
/sRGB { [ /CIEBasedABC
          << /DecodeLMN
               [ { dup 0.03928 le
                        {12.92321 div}
                        {0.055 add 1.055 div 2.4 exp }
                     ifelse
                 } bind dup dup
               ]
             /MatrixLMN [0.412457 0.212673 0.019334
                         0.357576 0.715152 0.119192
                         0.180437 0.072175 0.950301]
             /WhitePoint [0.9505 1.0 1.0890]
           >>
         ] setcolorspace } bind def
/srgb { setcolor } bind def
%%IncludeResource: font Helvetica
/Helvetica findfont
dup length dict begin
  {1 index /FID ne {def} {pop pop} ifelse} forall
  /Encoding ISOLatin1Encoding def
  currentdict
  end
/Font1 exch definefont pop
%%IncludeResource: font Helvetica-Bold
/Helvetica-Bold findfont
dup length dict begin
  {1 index /FID ne {def} {pop pop} ifelse} forall
  /Encoding ISOLatin1Encoding def
  currentdict
  end
/Font2 exch definefont pop
%%IncludeResource: font Helvetica-Oblique
/Helvetica-Oblique findfont
dup length dict begin
  {1 index /FID ne {def} {pop pop} ifelse} forall
  /Encoding ISOLatin1Encoding def
  currentdict
  end
/Font3 exch definefont pop
%%IncludeResource: font Helvetica-BoldOblique
/Helvetica-BoldOblique findfont
dup length dict begin
  {1 index /FID ne {def} {pop pop} ifelse} forall
  /Encoding ISOLatin1Encoding def
  currentdict
  end
/Font4 exch definefont pop
%%IncludeResource: font Symbol
/Symbol findfont
dup length dict begin
  {1 index /FID ne {def} {pop pop} ifelse} forall
  currentdict
  end
/Font5 exch definefont pop
%%EndProlog
%%Page: 1 1
bp
59.04 73.44 473.76 444.96 cl
0 0 0 srgb
1.50 setlinewidth
[] 0 setdash
1 setlinecap
1 setlinejoin
10.00 setmiterlimit
np
84.00 222.94 m
9.60 4.17 l
9.60 4.41 l
9.60 4.05 l
9.60 4.93 l
9.60 3.63 l
9.60 6.12 l
9.60 7.39 l
9.60 7.16 l
9.60 6.63 l
9.60 5.53 l
9.60 3.89 l
9.60 3.94 l
9.60 4.70 l
9.60 4.81 l
9.60 4.73 l
9.60 4.56 l
9.60 6.18 l
9.60 6.49 l
9.60 5.87 l
9.60 5.39 l
9.60 4.89 l
9.60 4.80 l
9.60 4.75 l
9.60 5.68 l
9.60 5.96 l
9.60 5.96 l
9.60 5.10 l
9.60 5.17 l
9.60 5.25 l
o
0.00 0.00 504.00 504.00 cl
0 0 0 srgb
0.75 setlinewidth
[] 0 setdash
1 setlinecap
1 setlinejoin
10.00 setmiterlimit
np
74.40 73.44 m
384.00 0 l
o
np
74.40 73.44 m
0 -7.20 l
o
np
170.40 73.44 m
0 -7.20 l
o
np
266.40 73.44 m
0 -7.20 l
o
np
362.40 73.44 m
0 -7.20 l
o
np
458.40 73.44 m
0 -7.20 l
o
/Font1 findfont 12 s
74.40 47.52 (0) .5 0 t
170.40 47.52 (10) .5 0 t
266.40 47.52 (20) .5 0 t
362.40 47.52 (30) .5 0 t
458.40 47.52 (40) .5 0 t
np
59.04 87.20 m
0 344.00 l
o
np
59.04 87.20 m
-7.20 0 l
o
np
59.04 136.34 m
-7.20 0 l
o
np
59.04 185.49 m
-7.20 0 l
o
np
59.04 234.63 m
-7.20 0 l
o
np
59.04 283.77 m
-7.20 0 l
o
np
59.04 332.91 m
-7.20 0 l
o
np
59.04 382.06 m
-7.20 0 l
o
np
59.04 431.20 m
-7.20 0 l
o
41.76 87.20 (0) .5 90 t
41.76 136.34 (10) .5 90 t
41.76 185.49 (20) .5 90 t
41.76 234.63 (30) .5 90 t
41.76 283.77 (40) .5 90 t
41.76 332.91 (50) .5 90 t
41.76 382.06 (60) .5 90 t
41.76 431.20 (70) .5 90 t
np
59.04 73.44 m
414.72 0 l
0 371.52 l
-414.72 0 l
0 -371.52 l
o
0.00 0.00 504.00 504.00 cl
/Font1 findfont 12 s
0 0 0 srgb
252.73 18.72 (Da) 0 ta
-0.360 (ys) tb gr
12.96 259.20 (SWC \(mm\)) .5 90 t
59.04 73.44 473.76 444.96 cl
0 0 0 srgb
0.75 setlinewidth
[] 0 setdash
1 setlinecap
1 setlinejoin
10.00 setmiterlimit
84.00 156.00 149.63 -69.12 r p1
1.50 setlinewidth
[] 0 setdash
np
92.64 144.48 m
17.28 0 l
o
0.6275 0.1255 0.9412 srgb
np
92.64 132.96 m
17.28 0 l
o
0 1 0 srgb
np
92.64 121.44 m
17.28 0 l
o
1 0 0 srgb
np
92.64 109.92 m
17.28 0 l
o
0 0 0 srgb
1.50 setlinewidth
[ 4.50 7.50] 0 setdash
np
92.64 98.40 m
17.28 0 l
o
/Font1 findfont 10 s
118.56 140.89 (Sensors) 0 0 t
118.56 129.37 (Def) 0 ta
-0.300 (ault) tb gr
118.56 117.85 (Best predictor) 0 0 t
118.56 106.33 (Linear combination) 0 0 t
118.56 94.81 (Unkno) 0 ta
-0.150 (wn sensors v) tb
-0.250 (alues) tb gr
0.8275 0.8275 0.8275 srgb
0.75 setlinewidth
[ 0.00 3.00] 0 setdash
np
110.88 73.44 m
0 371.52 l
o
np
162.72 73.44 m
0 371.52 l
o
np
214.56 73.44 m
0 371.52 l
o
np
266.40 73.44 m
0 371.52 l
o
np
318.24 73.44 m
0 371.52 l
o
np
370.08 73.44 m
0 371.52 l
o
np
421.92 73.44 m
0 371.52 l
o
np
59.04 135.36 m
414.72 0 l
o
np
59.04 197.28 m
414.72 0 l
o
np
59.04 259.20 m
414.72 0 l
o
np
59.04 321.12 m
414.72 0 l
o
np
59.04 383.04 m
414.72 0 l
o
/Font1 findfont 12 s
0 0 0 srgb
387.06 122.30 (F) 0 ta
-0.360 (orecast) tb gr
1.50 setlinewidth
[ 0.00 6.00] 0 setdash
np
362.40 87.20 m
0 344.00 l
o
1 0 0 srgb
1.50 setlinewidth
[] 0 setdash
np
84.00 225.68 m
9.60 3.61 l
9.60 3.60 l
9.60 3.09 l
9.60 3.49 l
9.60 2.32 l
9.60 9.82 l
9.60 7.02 l
9.60 7.22 l
9.60 5.62 l
9.60 4.38 l
9.60 2.69 l
9.60 2.38 l
9.60 2.92 l
9.60 12.17 l
9.60 4.25 l
9.60 7.47 l
9.60 7.09 l
9.60 -0.54 l
9.60 6.28 l
9.60 4.59 l
9.60 4.94 l
9.60 5.07 l
9.60 5.74 l
9.60 6.59 l
9.60 7.87 l
9.60 5.17 l
9.60 3.65 l
9.60 5.04 l
9.60 9.77 l
9.60 -0.02 l
9.60 -12.63 l
9.60 -15.27 l
9.60 22.85 l
9.60 -49.28 l
9.60 -1.98 l
9.60 34.12 l
9.60 43.34 l
9.60 38.02 l
9.60 31.27 l
o
0.6275 0.1255 0.9412 srgb
np
84.00 222.94 m
9.60 -0.21 l
9.60 -0.63 l
9.60 -1.15 l
9.60 -1.81 l
9.60 -2.11 l
9.60 33.22 l
9.60 7.39 l
9.60 6.04 l
9.60 3.52 l
9.60 2.07 l
9.60 0.08 l
9.60 -0.93 l
9.60 -0.47 l
9.60 21.00 l
9.60 5.15 l
9.60 3.99 l
9.60 4.68 l
9.60 13.49 l
9.60 3.04 l
9.60 -3.88 l
9.60 -11.66 l
9.60 -20.71 l
9.60 -17.25 l
9.60 -16.06 l
9.60 -13.62 l
9.60 2.53 l
9.60 48.87 l
9.60 4.68 l
9.60 -5.00 l
9.60 -1.56 l
9.60 -9.04 l
9.60 -14.34 l
9.60 -17.24 l
9.60 4.17 l
9.60 -8.14 l
9.60 -21.92 l
9.60 -21.58 l
9.60 -17.14 l
9.60 -13.27 l
o
0 1 0 srgb
np
84.00 221.47 m
9.60 -2.15 l
9.60 -2.92 l
9.60 -3.59 l
9.60 -5.01 l
9.60 -4.93 l
9.60 47.94 l
9.60 7.93 l
9.60 5.11 l
9.60 2.25 l
9.60 0.51 l
9.60 -1.79 l
9.60 -3.40 l
9.60 -3.07 l
9.60 18.96 l
9.60 5.08 l
9.60 3.92 l
9.60 5.86 l
9.60 29.54 l
9.60 6.31 l
9.60 5.27 l
9.60 4.56 l
9.60 4.08 l
9.60 3.94 l
9.60 4.67 l
9.60 5.14 l
9.60 12.54 l
9.60 5.48 l
9.60 5.55 l
9.60 3.85 l
9.60 6.45 l
9.60 1.71 l
9.60 1.81 l
9.60 -5.60 l
9.60 13.24 l
9.60 0 l
9.60 -8.59 l
9.60 -11.52 l
9.60 -10.93 l
9.60 -9.76 l
o
0 0 0 srgb
1.50 setlinewidth
[ 4.50 7.50] 0 setdash
np
362.40 375.08 m
9.60 4.34 l
9.60 4.35 l
9.60 6.03 l
9.60 5.85 l
9.60 6.25 l
9.60 5.24 l
9.60 0 l
9.60 0 l
9.60 0 l
9.60 0 l
o
ep
%%Trailer
%%Pages: 1
%%EOF
