%!PS-Adobe-3.0 EPSF-3.0
%%Title: fitness.eps
%%Creator: matplotlib version 3.0.2, http://matplotlib.org/
%%CreationDate: jeu. janv. 01 00:00:01 1970
%%Orientation: portrait
%%BoundingBox: -54 36 666 756
%%EndComments
%%BeginProlog
/mpldict 9 dict def
mpldict begin
/m { moveto } bind def
/l { lineto } bind def
/r { rlineto } bind def
/c { curveto } bind def
/cl { closepath } bind def
/box {
m
1 index 0 r
0 exch r
neg 0 r
cl
} bind def
/clipbox {
box
clip
newpath
} bind def
%!PS-Adobe-3.0 Resource-Font
%%Title: DejaVu Sans
%%Copyright: Copyright (c) 2003 by Bitstream, Inc. All Rights Reserved. Copyright (c) 2006 by Tavmjong Bah. All Rights Reserved. DejaVu changes are in public domain 
%%Creator: Converted from TrueType to type 3 by PPR
25 dict begin
/_d{bind def}bind def
/_m{moveto}_d
/_l{lineto}_d
/_cl{closepath eofill}_d
/_c{curveto}_d
/_sc{7 -1 roll{setcachedevice}{pop pop pop pop pop pop}ifelse}_d
/_e{exec}_d
/FontName /DejaVuSans def
/PaintType 0 def
/FontMatrix[.001 0 0 .001 0 0]def
/FontBBox[-1021 -463 1793 1232]def
/FontType 3 def
/Encoding [ /space /period /zero /one /two /three /four /five /seven /C /D /I /O /P /Q /R /S /underscore /a /c /e /m /o /p /r /s ] def
/FontInfo 10 dict dup begin
/FamilyName (DejaVu Sans) def
/FullName (DejaVu Sans) def
/Notice (Copyright (c) 2003 by Bitstream, Inc. All Rights Reserved. Copyright (c) 2006 by Tavmjong Bah. All Rights Reserved. DejaVu changes are in public domain ) def
/Weight (Book) def
/Version (Version 2.35) def
/ItalicAngle 0.0 def
/isFixedPitch false def
/UnderlinePosition -130 def
/UnderlineThickness 90 def
end readonly def
/CharStrings 27 dict dup begin
/.notdef 0 def
/space{318 0 0 0 0 0 _sc
}_d
/period{318 0 107 0 210 124 _sc
107 124 _m
210 124 _l
210 0 _l
107 0 _l
107 124 _l
_cl}_d
/zero{636 0 66 -13 570 742 _sc
318 664 _m
267 664 229 639 203 589 _c
177 539 165 464 165 364 _c
165 264 177 189 203 139 _c
229 89 267 64 318 64 _c
369 64 407 89 433 139 _c
458 189 471 264 471 364 _c
471 464 458 539 433 589 _c
407 639 369 664 318 664 _c
318 742 _m
399 742 461 709 505 645 _c
548 580 570 486 570 364 _c
570 241 548 147 505 83 _c
461 19 399 -13 318 -13 _c
236 -13 173 19 130 83 _c
87 147 66 241 66 364 _c
66 486 87 580 130 645 _c
173 709 236 742 318 742 _c
_cl}_d
/one{636 0 110 0 544 729 _sc
124 83 _m
285 83 _l
285 639 _l
110 604 _l
110 694 _l
284 729 _l
383 729 _l
383 83 _l
544 83 _l
544 0 _l
124 0 _l
124 83 _l
_cl}_d
/two{{636 0 73 0 536 742 _sc
192 83 _m
536 83 _l
536 0 _l
73 0 _l
73 83 _l
110 121 161 173 226 239 _c
290 304 331 346 348 365 _c
380 400 402 430 414 455 _c
426 479 433 504 433 528 _c
433 566 419 598 392 622 _c
365 646 330 659 286 659 _c
255 659 222 653 188 643 _c
154 632 117 616 78 594 _c
78 694 _l
118 710 155 722 189 730 _c
223 738 255 742 284 742 _c
}_e{359 742 419 723 464 685 _c
509 647 532 597 532 534 _c
532 504 526 475 515 449 _c
504 422 484 390 454 354 _c
446 344 420 317 376 272 _c
332 227 271 164 192 83 _c
_cl}_e}_d
/three{{636 0 76 -13 556 742 _sc
406 393 _m
453 383 490 362 516 330 _c
542 298 556 258 556 212 _c
556 140 531 84 482 45 _c
432 6 362 -13 271 -13 _c
240 -13 208 -10 176 -4 _c
144 1 110 10 76 22 _c
76 117 _l
103 101 133 89 166 81 _c
198 73 232 69 268 69 _c
330 69 377 81 409 105 _c
441 129 458 165 458 212 _c
458 254 443 288 413 312 _c
383 336 341 349 287 349 _c
}_e{202 349 _l
202 430 _l
291 430 _l
339 430 376 439 402 459 _c
428 478 441 506 441 543 _c
441 580 427 609 401 629 _c
374 649 336 659 287 659 _c
260 659 231 656 200 650 _c
169 644 135 635 98 623 _c
98 711 _l
135 721 170 729 203 734 _c
235 739 266 742 296 742 _c
370 742 429 725 473 691 _c
517 657 539 611 539 553 _c
539 513 527 479 504 451 _c
481 423 448 403 406 393 _c
_cl}_e}_d
/four{636 0 49 0 580 729 _sc
378 643 _m
129 254 _l
378 254 _l
378 643 _l
352 729 _m
476 729 _l
476 254 _l
580 254 _l
580 172 _l
476 172 _l
476 0 _l
378 0 _l
378 172 _l
49 172 _l
49 267 _l
352 729 _l
_cl}_d
/five{{636 0 77 -13 549 729 _sc
108 729 _m
495 729 _l
495 646 _l
198 646 _l
198 467 _l
212 472 227 476 241 478 _c
255 480 270 482 284 482 _c
365 482 429 459 477 415 _c
525 370 549 310 549 234 _c
549 155 524 94 475 51 _c
426 8 357 -13 269 -13 _c
238 -13 207 -10 175 -6 _c
143 -1 111 6 77 17 _c
77 116 _l
106 100 136 88 168 80 _c
199 72 232 69 267 69 _c
}_e{323 69 368 83 401 113 _c
433 143 450 183 450 234 _c
450 284 433 324 401 354 _c
368 384 323 399 267 399 _c
241 399 214 396 188 390 _c
162 384 135 375 108 363 _c
108 729 _l
_cl}_e}_d
/seven{636 0 82 0 551 729 _sc
82 729 _m
551 729 _l
551 687 _l
286 0 _l
183 0 _l
432 646 _l
82 646 _l
82 729 _l
_cl}_d
/C{{698 0 56 -13 644 742 _sc
644 673 _m
644 569 _l
610 599 575 622 537 638 _c
499 653 460 661 418 661 _c
334 661 270 635 226 584 _c
182 533 160 460 160 364 _c
160 268 182 194 226 143 _c
270 92 334 67 418 67 _c
460 67 499 74 537 90 _c
575 105 610 128 644 159 _c
644 56 _l
609 32 572 15 534 4 _c
496 -7 455 -13 412 -13 _c
302 -13 215 20 151 87 _c
}_e{87 154 56 246 56 364 _c
56 481 87 573 151 641 _c
215 708 302 742 412 742 _c
456 742 497 736 535 725 _c
573 713 610 696 644 673 _c
_cl}_e}_d
/D{770 0 98 0 711 729 _sc
197 648 _m
197 81 _l
316 81 _l
416 81 490 103 537 149 _c
583 195 607 267 607 365 _c
607 463 583 534 537 580 _c
490 625 416 648 316 648 _c
197 648 _l
98 729 _m
301 729 _l
442 729 546 699 612 641 _c
678 582 711 490 711 365 _c
711 239 677 147 611 88 _c
545 29 441 0 301 0 _c
98 0 _l
98 729 _l
_cl}_d
/I{295 0 98 0 197 729 _sc
98 729 _m
197 729 _l
197 0 _l
98 0 _l
98 729 _l
_cl}_d
/O{787 0 56 -13 731 742 _sc
394 662 _m
322 662 265 635 223 582 _c
181 528 160 456 160 364 _c
160 272 181 199 223 146 _c
265 92 322 66 394 66 _c
465 66 522 92 564 146 _c
606 199 627 272 627 364 _c
627 456 606 528 564 582 _c
522 635 465 662 394 662 _c
394 742 _m
496 742 577 707 639 639 _c
700 571 731 479 731 364 _c
731 248 700 157 639 89 _c
577 21 496 -13 394 -13 _c
291 -13 209 21 148 89 _c
86 157 56 248 56 364 _c
56 479 86 571 148 639 _c
209 707 291 742 394 742 _c
_cl}_d
/P{603 0 98 0 569 729 _sc
197 648 _m
197 374 _l
321 374 _l
367 374 402 385 427 409 _c
452 433 465 467 465 511 _c
465 555 452 588 427 612 _c
402 636 367 648 321 648 _c
197 648 _l
98 729 _m
321 729 _l
402 729 464 710 506 673 _c
548 636 569 582 569 511 _c
569 439 548 384 506 348 _c
464 311 402 293 321 293 _c
197 293 _l
197 0 _l
98 0 _l
98 729 _l
_cl}_d
/Q{{787 0 56 -128 731 742 _sc
394 662 _m
322 662 265 635 223 582 _c
181 528 160 456 160 364 _c
160 272 181 199 223 146 _c
265 92 322 66 394 66 _c
465 66 522 92 564 146 _c
606 199 627 272 627 364 _c
627 456 606 528 564 582 _c
522 635 465 662 394 662 _c
532 13 _m
662 -128 _l
543 -128 _l
435 -11 _l
424 -11 416 -12 410 -12 _c
404 -12 399 -13 394 -13 _c
291 -13 209 21 148 89 _c
}_e{86 157 56 248 56 364 _c
56 479 86 571 148 639 _c
209 707 291 742 394 742 _c
496 742 577 707 639 639 _c
700 571 731 479 731 364 _c
731 279 714 206 680 146 _c
646 86 596 41 532 13 _c
_cl}_e}_d
/R{{695 0 98 0 666 729 _sc
444 342 _m
465 334 486 319 506 296 _c
526 272 546 240 566 199 _c
666 0 _l
560 0 _l
467 187 _l
443 235 419 268 397 284 _c
374 300 343 308 304 308 _c
197 308 _l
197 0 _l
98 0 _l
98 729 _l
321 729 _l
404 729 466 711 507 677 _c
548 642 569 589 569 519 _c
569 473 558 434 537 404 _c
515 374 484 353 444 342 _c
197 648 _m
197 389 _l
321 389 _l
}_e{368 389 404 400 428 422 _c
452 444 465 476 465 519 _c
465 561 452 593 428 615 _c
404 637 368 648 321 648 _c
197 648 _l
_cl}_e}_d
/S{{635 0 66 -13 579 742 _sc
535 705 _m
535 609 _l
497 627 462 640 429 649 _c
395 657 363 662 333 662 _c
279 662 237 651 208 631 _c
179 610 165 580 165 542 _c
165 510 174 485 194 469 _c
213 452 250 439 304 429 _c
364 417 _l
437 403 491 378 526 343 _c
561 307 579 260 579 201 _c
579 130 555 77 508 41 _c
460 5 391 -13 300 -13 _c
265 -13 228 -9 189 -2 _c
}_e{150 5 110 16 69 32 _c
69 134 _l
109 111 148 94 186 83 _c
224 71 262 66 300 66 _c
356 66 399 77 430 99 _c
460 121 476 152 476 194 _c
476 230 465 258 443 278 _c
421 298 385 313 335 323 _c
275 335 _l
201 349 148 372 115 404 _c
82 435 66 478 66 534 _c
66 598 88 649 134 686 _c
179 723 242 742 322 742 _c
356 742 390 739 426 733 _c
461 727 497 717 535 705 _c
}_e{_cl}_e}_d
/underscore{500 0 -9 -235 510 -165 _sc
510 -165 _m
510 -235 _l
-9 -235 _l
-9 -165 _l
510 -165 _l
_cl}_d
/a{{613 0 60 -13 522 560 _sc
343 275 _m
270 275 220 266 192 250 _c
164 233 150 205 150 165 _c
150 133 160 107 181 89 _c
202 70 231 61 267 61 _c
317 61 357 78 387 114 _c
417 149 432 196 432 255 _c
432 275 _l
343 275 _l
522 312 _m
522 0 _l
432 0 _l
432 83 _l
411 49 385 25 355 10 _c
325 -5 287 -13 243 -13 _c
187 -13 142 2 109 33 _c
76 64 60 106 60 159 _c
}_e{60 220 80 266 122 298 _c
163 329 224 345 306 345 _c
432 345 _l
432 354 _l
432 395 418 427 391 450 _c
364 472 326 484 277 484 _c
245 484 215 480 185 472 _c
155 464 127 453 100 439 _c
100 522 _l
132 534 164 544 195 550 _c
226 556 256 560 286 560 _c
365 560 424 539 463 498 _c
502 457 522 395 522 312 _c
_cl}_e}_d
/c{{550 0 55 -13 488 560 _sc
488 526 _m
488 442 _l
462 456 437 466 411 473 _c
385 480 360 484 334 484 _c
276 484 230 465 198 428 _c
166 391 150 339 150 273 _c
150 206 166 154 198 117 _c
230 80 276 62 334 62 _c
360 62 385 65 411 72 _c
437 79 462 90 488 104 _c
488 21 _l
462 9 436 0 410 -5 _c
383 -10 354 -13 324 -13 _c
242 -13 176 12 128 64 _c
}_e{79 115 55 185 55 273 _c
55 362 79 432 128 483 _c
177 534 244 560 330 560 _c
358 560 385 557 411 551 _c
437 545 463 537 488 526 _c
_cl}_e}_d
/e{{615 0 55 -13 562 560 _sc
562 296 _m
562 252 _l
149 252 _l
153 190 171 142 205 110 _c
238 78 284 62 344 62 _c
378 62 412 66 444 74 _c
476 82 509 95 541 113 _c
541 28 _l
509 14 476 3 442 -3 _c
408 -9 373 -13 339 -13 _c
251 -13 182 12 131 62 _c
80 112 55 181 55 268 _c
55 357 79 428 127 481 _c
175 533 241 560 323 560 _c
397 560 455 536 498 489 _c
}_e{540 441 562 377 562 296 _c
472 322 _m
471 371 457 410 431 440 _c
404 469 368 484 324 484 _c
274 484 234 469 204 441 _c
174 413 156 373 152 322 _c
472 322 _l
_cl}_e}_d
/m{{974 0 91 0 889 560 _sc
520 442 _m
542 482 569 511 600 531 _c
631 550 668 560 711 560 _c
767 560 811 540 842 500 _c
873 460 889 403 889 330 _c
889 0 _l
799 0 _l
799 327 _l
799 379 789 418 771 444 _c
752 469 724 482 686 482 _c
639 482 602 466 575 435 _c
548 404 535 362 535 309 _c
535 0 _l
445 0 _l
445 327 _l
445 379 435 418 417 444 _c
398 469 369 482 331 482 _c
}_e{285 482 248 466 221 435 _c
194 404 181 362 181 309 _c
181 0 _l
91 0 _l
91 547 _l
181 547 _l
181 462 _l
201 495 226 520 255 536 _c
283 552 317 560 357 560 _c
397 560 430 550 458 530 _c
486 510 506 480 520 442 _c
_cl}_e}_d
/o{612 0 55 -13 557 560 _sc
306 484 _m
258 484 220 465 192 427 _c
164 389 150 338 150 273 _c
150 207 163 156 191 118 _c
219 80 257 62 306 62 _c
354 62 392 80 420 118 _c
448 156 462 207 462 273 _c
462 337 448 389 420 427 _c
392 465 354 484 306 484 _c
306 560 _m
384 560 445 534 490 484 _c
534 433 557 363 557 273 _c
557 183 534 113 490 63 _c
445 12 384 -13 306 -13 _c
227 -13 165 12 121 63 _c
77 113 55 183 55 273 _c
55 363 77 433 121 484 _c
165 534 227 560 306 560 _c
_cl}_d
/p{{635 0 91 -207 580 560 _sc
181 82 _m
181 -207 _l
91 -207 _l
91 547 _l
181 547 _l
181 464 _l
199 496 223 520 252 536 _c
281 552 316 560 356 560 _c
422 560 476 533 518 481 _c
559 428 580 359 580 273 _c
580 187 559 117 518 65 _c
476 13 422 -13 356 -13 _c
316 -13 281 -5 252 10 _c
223 25 199 49 181 82 _c
487 273 _m
487 339 473 390 446 428 _c
418 466 381 485 334 485 _c
}_e{286 485 249 466 222 428 _c
194 390 181 339 181 273 _c
181 207 194 155 222 117 _c
249 79 286 61 334 61 _c
381 61 418 79 446 117 _c
473 155 487 207 487 273 _c
_cl}_e}_d
/r{411 0 91 0 411 560 _sc
411 463 _m
401 469 390 473 378 476 _c
366 478 353 480 339 480 _c
288 480 249 463 222 430 _c
194 397 181 350 181 288 _c
181 0 _l
91 0 _l
91 547 _l
181 547 _l
181 462 _l
199 495 224 520 254 536 _c
284 552 321 560 365 560 _c
371 560 378 559 386 559 _c
393 558 401 557 411 555 _c
411 463 _l
_cl}_d
/s{{521 0 54 -13 472 560 _sc
443 531 _m
443 446 _l
417 458 391 468 364 475 _c
336 481 308 485 279 485 _c
234 485 200 478 178 464 _c
156 450 145 430 145 403 _c
145 382 153 366 169 354 _c
185 342 217 330 265 320 _c
296 313 _l
360 299 405 279 432 255 _c
458 230 472 195 472 151 _c
472 100 452 60 412 31 _c
372 1 316 -13 246 -13 _c
216 -13 186 -10 154 -5 _c
}_e{122 0 89 8 54 20 _c
54 113 _l
87 95 120 82 152 74 _c
184 65 216 61 248 61 _c
290 61 323 68 346 82 _c
368 96 380 117 380 144 _c
380 168 371 187 355 200 _c
339 213 303 226 247 238 _c
216 245 _l
160 257 119 275 95 299 _c
70 323 58 356 58 399 _c
58 450 76 490 112 518 _c
148 546 200 560 268 560 _c
301 560 332 557 362 552 _c
391 547 418 540 443 531 _c
}_e{_cl}_e}_d
end readonly def

/BuildGlyph
 {exch begin
 CharStrings exch
 2 copy known not{pop /.notdef}if
 true 3 1 roll get exec
 end}_d

/BuildChar {
 1 index /Encoding get exch get
 1 index /BuildGlyph get exec
}_d

FontName currentdict end definefont pop
%!PS-Adobe-3.0 Resource-Font
%%Title: DejaVu Serif Bold
%%Copyright: Copyright (c) 2003 by Bitstream, Inc. All Rights Reserved. DejaVu changes are in public domain 
%%Creator: Converted from TrueType to type 3 by PPR
25 dict begin
/_d{bind def}bind def
/_m{moveto}_d
/_l{lineto}_d
/_cl{closepath eofill}_d
/_c{curveto}_d
/_sc{7 -1 roll{setcachedevice}{pop pop pop pop pop pop}ifelse}_d
/_e{exec}_d
/FontName /DejaVuSerif-Bold def
/PaintType 0 def
/FontMatrix[.001 0 0 .001 0 0]def
/FontBBox[-836 -389 1796 1145]def
/FontType 3 def
/Encoding [ /space /F /e /i /n /s /t ] def
/FontInfo 10 dict dup begin
/FamilyName (DejaVu Serif) def
/FullName (DejaVu Serif Bold) def
/Notice (Copyright (c) 2003 by Bitstream, Inc. All Rights Reserved. DejaVu changes are in public domain ) def
/Weight (Bold) def
/Version (Version 2.35) def
/ItalicAngle 0.0 def
/isFixedPitch false def
/UnderlinePosition -130 def
/UnderlineThickness 90 def
end readonly def
/CharStrings 8 dict dup begin
/.notdef 0 def
/space{348 0 0 0 0 0 _sc
}_d
/F{710 0 47 0 697 729 _sc
47 0 _m
47 59 _l
140 59 _l
140 670 _l
47 670 _l
47 729 _l
697 729 _l
697 557 _l
630 557 _l
630 662 _l
329 662 _l
329 428 _l
514 428 _l
514 521 _l
581 521 _l
581 269 _l
514 269 _l
514 362 _l
329 362 _l
329 59 _l
444 59 _l
444 0 _l
47 0 _l
_cl}_d
/e{{636 0 41 -13 591 533 _sc
401 293 _m
401 361 394 409 382 437 _c
369 464 347 478 317 478 _c
287 478 265 464 253 437 _c
240 410 234 365 234 302 _c
234 293 _l
401 293 _l
591 235 _m
234 235 _l
234 231 _l
234 163 244 115 264 85 _c
284 55 316 41 362 41 _c
399 41 429 51 452 71 _c
475 91 490 119 497 157 _c
578 157 _l
564 98 536 55 494 28 _c
452 0 394 -13 320 -13 _c
}_e{230 -13 161 10 113 57 _c
65 104 41 172 41 260 _c
41 346 65 413 114 461 _c
163 509 232 533 320 533 _c
406 533 471 507 517 457 _c
563 406 587 332 591 235 _c
_cl}_e}_d
/i{380 0 34 0 355 760 _sc
92 666 _m
92 692 101 715 119 733 _c
137 751 159 760 186 760 _c
212 760 234 751 252 733 _c
270 715 279 692 279 666 _c
279 640 270 618 252 600 _c
234 582 212 573 186 573 _c
159 573 137 582 119 600 _c
101 618 92 640 92 666 _c
281 59 _m
355 59 _l
355 0 _l
34 0 _l
34 59 _l
108 59 _l
108 460 _l
34 460 _l
34 519 _l
281 519 _l
281 59 _l
_cl}_d
/n{{727 0 34 0 704 533 _sc
34 0 _m
34 59 _l
108 59 _l
108 460 _l
34 460 _l
34 519 _l
281 519 _l
281 446 _l
301 476 325 498 352 512 _c
378 526 412 533 453 533 _c
511 533 555 515 585 481 _c
615 447 630 396 630 330 _c
630 59 _l
704 59 _l
704 0 _l
394 0 _l
394 59 _l
457 59 _l
457 335 _l
457 379 451 409 440 426 _c
428 443 409 452 382 452 _c
}_e{347 452 321 439 305 413 _c
289 387 281 347 281 292 _c
281 59 _l
344 59 _l
344 0 _l
34 0 _l
_cl}_e}_d
/s{{563 0 43 -13 522 533 _sc
47 15 _m
47 160 _l
102 160 _l
106 121 121 91 145 71 _c
169 51 203 41 245 41 _c
280 41 307 47 326 59 _c
344 71 354 89 354 112 _c
354 132 348 148 336 160 _c
324 171 301 181 267 190 _c
196 208 _l
142 221 103 240 79 265 _c
55 290 43 324 43 366 _c
43 422 62 464 101 492 _c
140 519 200 533 282 533 _c
312 533 345 530 380 525 _c
}_e{414 520 453 512 495 502 _c
495 371 _l
440 371 _l
437 406 424 433 402 451 _c
380 469 348 478 306 478 _c
270 478 244 472 226 461 _c
208 449 199 433 199 412 _c
199 394 204 380 214 370 _c
224 360 243 351 271 345 _c
342 327 _l
410 309 457 288 483 263 _c
509 237 522 202 522 157 _c
522 98 501 55 459 28 _c
417 0 352 -13 264 -13 _c
232 -13 197 -10 161 -6 _c
}_e{125 -2 87 5 47 15 _c
_cl}_e}_d
/t{462 0 24 -13 457 680 _sc
99 460 _m
24 460 _l
24 519 _l
99 519 _l
99 680 _l
272 680 _l
272 519 _l
416 519 _l
416 460 _l
272 460 _l
272 142 _l
272 96 275 68 282 57 _c
289 46 302 41 322 41 _c
342 41 358 48 368 62 _c
378 76 383 97 384 127 _c
457 127 _l
454 75 440 38 414 18 _c
388 -2 344 -13 282 -13 _c
210 -13 162 -2 137 20 _c
111 42 99 82 99 142 _c
99 460 _l
_cl}_d
end readonly def

/BuildGlyph
 {exch begin
 CharStrings exch
 2 copy known not{pop /.notdef}if
 true 3 1 roll get exec
 end}_d

/BuildChar {
 1 index /Encoding get exch get
 1 index /BuildGlyph get exec
}_d

FontName currentdict end definefont pop
end
%%EndProlog
mpldict begin
-54 36 translate
720 720 0 0 clipbox
gsave
0 0 m
720 0 l
720 720 l
0 720 l
cl
1.000 setgray
fill
grestore
gsave
90 79.2 m
648 79.2 l
648 633.6 l
90 633.6 l
cl
1.000 setgray
fill
grestore
0.800 setlinewidth
1 setlinejoin
2 setlinecap
[] 0 setdash
0.690 setgray
gsave
558 554.4 90 79.2 clipbox
117.9 79.2 m
117.9 633.6 l
stroke
grestore
0 setlinecap
0.000 setgray
gsave
/o {
gsave
newpath
translate
0.8 setlinewidth
1 setlinejoin
0 setlinecap
0 0 m
0 -3.5 l

gsave
0.000 setgray
fill
grestore
stroke
grestore
} bind def
117.9 79.2 o
grestore
/DejaVuSans findfont
10.000 scalefont
setfont
gsave
97.134263 21.840739 translate
45.000000 rotate
0.000000 0.000000 m /C glyphshow
6.982422 0.000000 m /r glyphshow
11.093750 0.000000 m /o glyphshow
17.211914 0.000000 m /p glyphshow
23.559570 0.000000 m /one glyphshow
29.921875 0.000000 m /underscore glyphshow
34.921875 0.000000 m /Q glyphshow
42.792969 0.000000 m /R glyphshow
49.741211 0.000000 m /D glyphshow
57.441406 0.000000 m /S glyphshow
grestore
2 setlinecap
0.690 setgray
gsave
558 554.4 90 79.2 clipbox
173.7 79.2 m
173.7 633.6 l
stroke
grestore
0 setlinecap
0.000 setgray
gsave
/o {
gsave
newpath
translate
0.8 setlinewidth
1 setlinejoin
0 setlinecap
0 0 m
0 -3.5 l

gsave
0.000 setgray
fill
grestore
stroke
grestore
} bind def
173.7 79.2 o
grestore
gsave
142.344234 0.660681 translate
45.000000 rotate
0.000000 0.000000 m /C glyphshow
6.982422 0.000000 m /r glyphshow
11.093750 0.000000 m /o glyphshow
17.211914 0.000000 m /p glyphshow
23.559570 0.000000 m /one glyphshow
29.921875 0.000000 m /underscore glyphshow
34.921875 0.000000 m /c glyphshow
40.419922 0.000000 m /m glyphshow
50.161133 0.000000 m /a glyphshow
56.289062 0.000000 m /e glyphshow
62.441406 0.000000 m /s glyphshow
67.651367 0.000000 m /space glyphshow
70.830078 0.000000 m /I glyphshow
73.779297 0.000000 m /P glyphshow
79.809570 0.000000 m /O glyphshow
87.680664 0.000000 m /P glyphshow
grestore
2 setlinecap
0.690 setgray
gsave
558 554.4 90 79.2 clipbox
229.5 79.2 m
229.5 633.6 l
stroke
grestore
0 setlinecap
0.000 setgray
gsave
/o {
gsave
newpath
translate
0.8 setlinewidth
1 setlinejoin
0 setlinecap
0 0 m
0 -3.5 l

gsave
0.000 setgray
fill
grestore
stroke
grestore
} bind def
229.5 79.2 o
grestore
gsave
208.734263 21.840739 translate
45.000000 rotate
0.000000 0.000000 m /C glyphshow
6.982422 0.000000 m /r glyphshow
11.093750 0.000000 m /o glyphshow
17.211914 0.000000 m /p glyphshow
23.559570 0.000000 m /two glyphshow
29.921875 0.000000 m /underscore glyphshow
34.921875 0.000000 m /Q glyphshow
42.792969 0.000000 m /R glyphshow
49.741211 0.000000 m /D glyphshow
57.441406 0.000000 m /S glyphshow
grestore
2 setlinecap
0.690 setgray
gsave
558 554.4 90 79.2 clipbox
285.3 79.2 m
285.3 633.6 l
stroke
grestore
0 setlinecap
0.000 setgray
gsave
/o {
gsave
newpath
translate
0.8 setlinewidth
1 setlinejoin
0 setlinecap
0 0 m
0 -3.5 l

gsave
0.000 setgray
fill
grestore
stroke
grestore
} bind def
285.3 79.2 o
grestore
gsave
253.944234 0.660681 translate
45.000000 rotate
0.000000 0.000000 m /C glyphshow
6.982422 0.000000 m /r glyphshow
11.093750 0.000000 m /o glyphshow
17.211914 0.000000 m /p glyphshow
23.559570 0.000000 m /two glyphshow
29.921875 0.000000 m /underscore glyphshow
34.921875 0.000000 m /c glyphshow
40.419922 0.000000 m /m glyphshow
50.161133 0.000000 m /a glyphshow
56.289062 0.000000 m /e glyphshow
62.441406 0.000000 m /s glyphshow
67.651367 0.000000 m /space glyphshow
70.830078 0.000000 m /I glyphshow
73.779297 0.000000 m /P glyphshow
79.809570 0.000000 m /O glyphshow
87.680664 0.000000 m /P glyphshow
grestore
2 setlinecap
0.690 setgray
gsave
558 554.4 90 79.2 clipbox
341.1 79.2 m
341.1 633.6 l
stroke
grestore
0 setlinecap
0.000 setgray
gsave
/o {
gsave
newpath
translate
0.8 setlinewidth
1 setlinejoin
0 setlinecap
0 0 m
0 -3.5 l

gsave
0.000 setgray
fill
grestore
stroke
grestore
} bind def
341.1 79.2 o
grestore
gsave
320.334263 21.840739 translate
45.000000 rotate
0.000000 0.000000 m /C glyphshow
6.982422 0.000000 m /r glyphshow
11.093750 0.000000 m /o glyphshow
17.211914 0.000000 m /p glyphshow
23.559570 0.000000 m /three glyphshow
29.921875 0.000000 m /underscore glyphshow
34.921875 0.000000 m /Q glyphshow
42.792969 0.000000 m /R glyphshow
49.741211 0.000000 m /D glyphshow
57.441406 0.000000 m /S glyphshow
grestore
2 setlinecap
0.690 setgray
gsave
558 554.4 90 79.2 clipbox
396.9 79.2 m
396.9 633.6 l
stroke
grestore
0 setlinecap
0.000 setgray
gsave
/o {
gsave
newpath
translate
0.8 setlinewidth
1 setlinejoin
0 setlinecap
0 0 m
0 -3.5 l

gsave
0.000 setgray
fill
grestore
stroke
grestore
} bind def
396.9 79.2 o
grestore
gsave
365.544234 0.660681 translate
45.000000 rotate
0.000000 0.000000 m /C glyphshow
6.982422 0.000000 m /r glyphshow
11.093750 0.000000 m /o glyphshow
17.211914 0.000000 m /p glyphshow
23.559570 0.000000 m /three glyphshow
29.921875 0.000000 m /underscore glyphshow
34.921875 0.000000 m /c glyphshow
40.419922 0.000000 m /m glyphshow
50.161133 0.000000 m /a glyphshow
56.289062 0.000000 m /e glyphshow
62.441406 0.000000 m /s glyphshow
67.651367 0.000000 m /space glyphshow
70.830078 0.000000 m /I glyphshow
73.779297 0.000000 m /P glyphshow
79.809570 0.000000 m /O glyphshow
87.680664 0.000000 m /P glyphshow
grestore
2 setlinecap
0.690 setgray
gsave
558 554.4 90 79.2 clipbox
452.7 79.2 m
452.7 633.6 l
stroke
grestore
0 setlinecap
0.000 setgray
gsave
/o {
gsave
newpath
translate
0.8 setlinewidth
1 setlinejoin
0 setlinecap
0 0 m
0 -3.5 l

gsave
0.000 setgray
fill
grestore
stroke
grestore
} bind def
452.7 79.2 o
grestore
gsave
431.934263 21.840739 translate
45.000000 rotate
0.000000 0.000000 m /C glyphshow
6.982422 0.000000 m /r glyphshow
11.093750 0.000000 m /o glyphshow
17.211914 0.000000 m /p glyphshow
23.559570 0.000000 m /four glyphshow
29.921875 0.000000 m /underscore glyphshow
34.921875 0.000000 m /Q glyphshow
42.792969 0.000000 m /R glyphshow
49.741211 0.000000 m /D glyphshow
57.441406 0.000000 m /S glyphshow
grestore
2 setlinecap
0.690 setgray
gsave
558 554.4 90 79.2 clipbox
508.5 79.2 m
508.5 633.6 l
stroke
grestore
0 setlinecap
0.000 setgray
gsave
/o {
gsave
newpath
translate
0.8 setlinewidth
1 setlinejoin
0 setlinecap
0 0 m
0 -3.5 l

gsave
0.000 setgray
fill
grestore
stroke
grestore
} bind def
508.5 79.2 o
grestore
gsave
489.850059 26.072331 translate
45.000000 rotate
0.000000 0.000000 m /C glyphshow
6.982422 0.000000 m /r glyphshow
11.093750 0.000000 m /o glyphshow
17.211914 0.000000 m /p glyphshow
23.559570 0.000000 m /four glyphshow
29.921875 0.000000 m /underscore glyphshow
34.921875 0.000000 m /I glyphshow
37.871094 0.000000 m /P glyphshow
43.901367 0.000000 m /O glyphshow
51.772461 0.000000 m /P glyphshow
grestore
2 setlinecap
0.690 setgray
gsave
558 554.4 90 79.2 clipbox
564.3 79.2 m
564.3 633.6 l
stroke
grestore
0 setlinecap
0.000 setgray
gsave
/o {
gsave
newpath
translate
0.8 setlinewidth
1 setlinejoin
0 setlinecap
0 0 m
0 -3.5 l

gsave
0.000 setgray
fill
grestore
stroke
grestore
} bind def
564.3 79.2 o
grestore
gsave
543.534263 21.840739 translate
45.000000 rotate
0.000000 0.000000 m /C glyphshow
6.982422 0.000000 m /r glyphshow
11.093750 0.000000 m /o glyphshow
17.211914 0.000000 m /p glyphshow
23.559570 0.000000 m /five glyphshow
29.921875 0.000000 m /underscore glyphshow
34.921875 0.000000 m /Q glyphshow
42.792969 0.000000 m /R glyphshow
49.741211 0.000000 m /D glyphshow
57.441406 0.000000 m /S glyphshow
grestore
2 setlinecap
0.690 setgray
gsave
558 554.4 90 79.2 clipbox
620.1 79.2 m
620.1 633.6 l
stroke
grestore
0 setlinecap
0.000 setgray
gsave
/o {
gsave
newpath
translate
0.8 setlinewidth
1 setlinejoin
0 setlinecap
0 0 m
0 -3.5 l

gsave
0.000 setgray
fill
grestore
stroke
grestore
} bind def
620.1 79.2 o
grestore
gsave
601.450059 26.072331 translate
45.000000 rotate
0.000000 0.000000 m /C glyphshow
6.982422 0.000000 m /r glyphshow
11.093750 0.000000 m /o glyphshow
17.211914 0.000000 m /p glyphshow
23.559570 0.000000 m /five glyphshow
29.921875 0.000000 m /underscore glyphshow
34.921875 0.000000 m /I glyphshow
37.871094 0.000000 m /P glyphshow
43.901367 0.000000 m /O glyphshow
51.772461 0.000000 m /P glyphshow
grestore
2 setlinecap
0.690 setgray
gsave
558 554.4 90 79.2 clipbox
90 129.523365 m
648 129.523365 l
stroke
grestore
0 setlinecap
0.000 setgray
gsave
/o {
gsave
newpath
translate
0.8 setlinewidth
1 setlinejoin
0 setlinecap
0 0 m
-3.5 0 l

gsave
0.000 setgray
fill
grestore
stroke
grestore
} bind def
90 129.523 o
grestore
gsave
60.734375 125.726490 translate
0.000000 rotate
0.000000 0.000000 m /one glyphshow
6.362305 0.000000 m /five glyphshow
12.724609 0.000000 m /period glyphshow
15.903320 0.000000 m /zero glyphshow
grestore
2 setlinecap
0.690 setgray
gsave
558 554.4 90 79.2 clipbox
90 204.376644 m
648 204.376644 l
stroke
grestore
0 setlinecap
0.000 setgray
gsave
/o {
gsave
newpath
translate
0.8 setlinewidth
1 setlinejoin
0 setlinecap
0 0 m
-3.5 0 l

gsave
0.000 setgray
fill
grestore
stroke
grestore
} bind def
90 204.377 o
grestore
gsave
60.734375 200.579769 translate
0.000000 rotate
0.000000 0.000000 m /one glyphshow
6.362305 0.000000 m /seven glyphshow
12.724609 0.000000 m /period glyphshow
15.903320 0.000000 m /five glyphshow
grestore
2 setlinecap
0.690 setgray
gsave
558 554.4 90 79.2 clipbox
90 279.229923 m
648 279.229923 l
stroke
grestore
0 setlinecap
0.000 setgray
gsave
/o {
gsave
newpath
translate
0.8 setlinewidth
1 setlinejoin
0 setlinecap
0 0 m
-3.5 0 l

gsave
0.000 setgray
fill
grestore
stroke
grestore
} bind def
90 279.23 o
grestore
gsave
60.734375 275.433048 translate
0.000000 rotate
0.000000 0.000000 m /two glyphshow
6.362305 0.000000 m /zero glyphshow
12.724609 0.000000 m /period glyphshow
15.903320 0.000000 m /zero glyphshow
grestore
2 setlinecap
0.690 setgray
gsave
558 554.4 90 79.2 clipbox
90 354.083201 m
648 354.083201 l
stroke
grestore
0 setlinecap
0.000 setgray
gsave
/o {
gsave
newpath
translate
0.8 setlinewidth
1 setlinejoin
0 setlinecap
0 0 m
-3.5 0 l

gsave
0.000 setgray
fill
grestore
stroke
grestore
} bind def
90 354.083 o
grestore
gsave
60.734375 350.286326 translate
0.000000 rotate
0.000000 0.000000 m /two glyphshow
6.362305 0.000000 m /two glyphshow
12.724609 0.000000 m /period glyphshow
15.903320 0.000000 m /five glyphshow
grestore
2 setlinecap
0.690 setgray
gsave
558 554.4 90 79.2 clipbox
90 428.93648 m
648 428.93648 l
stroke
grestore
0 setlinecap
0.000 setgray
gsave
/o {
gsave
newpath
translate
0.8 setlinewidth
1 setlinejoin
0 setlinecap
0 0 m
-3.5 0 l

gsave
0.000 setgray
fill
grestore
stroke
grestore
} bind def
90 428.936 o
grestore
gsave
60.734375 425.139605 translate
0.000000 rotate
0.000000 0.000000 m /two glyphshow
6.362305 0.000000 m /five glyphshow
12.724609 0.000000 m /period glyphshow
15.903320 0.000000 m /zero glyphshow
grestore
2 setlinecap
0.690 setgray
gsave
558 554.4 90 79.2 clipbox
90 503.789759 m
648 503.789759 l
stroke
grestore
0 setlinecap
0.000 setgray
gsave
/o {
gsave
newpath
translate
0.8 setlinewidth
1 setlinejoin
0 setlinecap
0 0 m
-3.5 0 l

gsave
0.000 setgray
fill
grestore
stroke
grestore
} bind def
90 503.79 o
grestore
gsave
60.734375 499.992884 translate
0.000000 rotate
0.000000 0.000000 m /two glyphshow
6.362305 0.000000 m /seven glyphshow
12.724609 0.000000 m /period glyphshow
15.903320 0.000000 m /five glyphshow
grestore
2 setlinecap
0.690 setgray
gsave
558 554.4 90 79.2 clipbox
90 578.643037 m
648 578.643037 l
stroke
grestore
0 setlinecap
0.000 setgray
gsave
/o {
gsave
newpath
translate
0.8 setlinewidth
1 setlinejoin
0 setlinecap
0 0 m
-3.5 0 l

gsave
0.000 setgray
fill
grestore
stroke
grestore
} bind def
90 578.643 o
grestore
gsave
60.734375 574.846162 translate
0.000000 rotate
0.000000 0.000000 m /three glyphshow
6.362305 0.000000 m /zero glyphshow
12.724609 0.000000 m /period glyphshow
15.903320 0.000000 m /zero glyphshow
grestore
/DejaVuSerif-Bold findfont
20.000 scalefont
setfont
gsave
52.578125 312.501563 translate
90.000000 rotate
0.000000 0.000000 m /F glyphshow
14.199219 0.000000 m /i glyphshow
21.796875 0.000000 m /t glyphshow
31.035156 0.000000 m /n glyphshow
45.576172 0.000000 m /e glyphshow
58.300781 0.000000 m /s glyphshow
69.560547 0.000000 m /s glyphshow
80.820312 0.000000 m /space glyphshow
grestore
1.000 setlinewidth
2 setlinecap
gsave
558 554.4 90 79.2 clipbox
110.925 163.03904 m
124.875 163.03904 l
124.875 166.707573 l
121.3875 168.574111 l
124.875 170.440649 l
124.875 174.748129 l
110.925 174.748129 l
110.925 170.440649 l
114.4125 168.574111 l
110.925 166.707573 l
110.925 163.03904 l
stroke
grestore
gsave
558 554.4 90 79.2 clipbox
117.9 163.03904 m
117.9 154.324143 l
stroke
grestore
gsave
558 554.4 90 79.2 clipbox
117.9 174.748129 m
117.9 182.958726 l
stroke
grestore
gsave
558 554.4 90 79.2 clipbox
114.4125 154.324143 m
121.3875 154.324143 l
stroke
grestore
gsave
558 554.4 90 79.2 clipbox
114.4125 182.958726 m
121.3875 182.958726 l
stroke
grestore
0 setlinejoin
0 setlinecap
1.000 0.000 0.000 setrgbcolor
gsave
558 554.4 90 79.2 clipbox
/o {
gsave
newpath
translate
1.0 setlinewidth
0 setlinejoin
0 setlinecap
-3 -3 m
3 -3 l
3 3 l
-3 3 l
cl

gsave
1.000 0.000 0.000 setrgbcolor
fill
grestore
stroke
grestore
} bind def
117.9 153.341 o
117.9 154.09 o
117.9 186.192 o
117.9 183.747 o
117.9 190.657 o
117.9 183.929 o
117.9 183.746 o
117.9 189.939 o
117.9 191.501 o
117.9 188.174 o
117.9 185.106 o
grestore
1 setlinejoin
2 setlinecap
0.000 setgray
gsave
558 554.4 90 79.2 clipbox
166.725 214.008674 m
180.675 214.008674 l
180.675 222.475223 l
177.1875 228.14771 l
180.675 233.820196 l
180.675 251.031405 l
166.725 251.031405 l
166.725 233.820196 l
170.2125 228.14771 l
166.725 222.475223 l
166.725 214.008674 l
stroke
grestore
gsave
558 554.4 90 79.2 clipbox
173.7 214.008674 m
173.7 186.709623 l
stroke
grestore
gsave
558 554.4 90 79.2 clipbox
173.7 251.031405 m
173.7 276.845816 l
stroke
grestore
gsave
558 554.4 90 79.2 clipbox
170.2125 186.709623 m
177.1875 186.709623 l
stroke
grestore
gsave
558 554.4 90 79.2 clipbox
170.2125 276.845816 m
177.1875 276.845816 l
stroke
grestore
0 setlinejoin
0 setlinecap
1.000 0.000 0.000 setrgbcolor
gsave
558 554.4 90 79.2 clipbox
/o {
gsave
newpath
translate
1.0 setlinewidth
0 setlinejoin
0 setlinecap
-3 -3 m
3 -3 l
3 3 l
-3 3 l
cl

gsave
1.000 0.000 0.000 setrgbcolor
fill
grestore
stroke
grestore
} bind def
173.7 186.164 o
173.7 176.515 o
173.7 184.05 o
173.7 171.947 o
173.7 179.81 o
173.7 183.43 o
173.7 176.075 o
173.7 182.006 o
173.7 294.978 o
173.7 280.178 o
173.7 306.067 o
173.7 281.637 o
173.7 301.079 o
173.7 285.554 o
173.7 296.897 o
173.7 295.176 o
173.7 291.17 o
173.7 282.316 o
173.7 311.217 o
173.7 372.292 o
173.7 340.242 o
173.7 282.406 o
173.7 287.087 o
173.7 282.021 o
grestore
1 setlinejoin
2 setlinecap
0.000 setgray
gsave
558 554.4 90 79.2 clipbox
222.525 172.913116 m
236.475 172.913116 l
236.475 178.813169 l
232.9875 180.798699 l
236.475 182.784229 l
236.475 185.10914 l
222.525 185.10914 l
222.525 182.784229 l
226.0125 180.798699 l
222.525 178.813169 l
222.525 172.913116 l
stroke
grestore
gsave
558 554.4 90 79.2 clipbox
229.5 172.913116 m
229.5 164.19247 l
stroke
grestore
gsave
558 554.4 90 79.2 clipbox
229.5 185.10914 m
229.5 193.353331 l
stroke
grestore
gsave
558 554.4 90 79.2 clipbox
226.0125 164.19247 m
232.9875 164.19247 l
stroke
grestore
gsave
558 554.4 90 79.2 clipbox
226.0125 193.353331 m
232.9875 193.353331 l
stroke
grestore
0 setlinejoin
0 setlinecap
1.000 0.000 0.000 setrgbcolor
gsave
558 554.4 90 79.2 clipbox
/o {
gsave
newpath
translate
1.0 setlinewidth
0 setlinejoin
0 setlinecap
-3 -3 m
3 -3 l
3 3 l
-3 3 l
cl

gsave
1.000 0.000 0.000 setrgbcolor
fill
grestore
stroke
grestore
} bind def
229.5 163.095 o
229.5 159.52 o
229.5 160.352 o
grestore
1 setlinejoin
2 setlinecap
0.000 setgray
gsave
558 554.4 90 79.2 clipbox
278.325 238.931605 m
292.275 238.931605 l
292.275 246.092365 l
288.7875 249.06194 l
292.275 252.031516 l
292.275 257.8461 l
278.325 257.8461 l
278.325 252.031516 l
281.8125 249.06194 l
278.325 246.092365 l
278.325 238.931605 l
stroke
grestore
gsave
558 554.4 90 79.2 clipbox
285.3 238.931605 m
285.3 224.916593 l
stroke
grestore
gsave
558 554.4 90 79.2 clipbox
285.3 257.8461 m
285.3 270.855008 l
stroke
grestore
gsave
558 554.4 90 79.2 clipbox
281.8125 224.916593 m
288.7875 224.916593 l
stroke
grestore
gsave
558 554.4 90 79.2 clipbox
281.8125 270.855008 m
288.7875 270.855008 l
stroke
grestore
0 setlinejoin
0 setlinecap
1.000 0.000 0.000 setrgbcolor
gsave
558 554.4 90 79.2 clipbox
/o {
gsave
newpath
translate
1.0 setlinewidth
0 setlinejoin
0 setlinecap
-3 -3 m
3 -3 l
3 3 l
-3 3 l
cl

gsave
1.000 0.000 0.000 setrgbcolor
fill
grestore
stroke
grestore
} bind def
285.3 223.496 o
285.3 213.9 o
285.3 219.432 o
285.3 222.958 o
285.3 189.222 o
285.3 189.906 o
285.3 220.466 o
285.3 222.214 o
285.3 221.056 o
285.3 285.312 o
285.3 277.785 o
285.3 294.719 o
285.3 309.791 o
285.3 272.717 o
285.3 319.276 o
285.3 376.598 o
285.3 276.867 o
285.3 289.941 o
grestore
1 setlinejoin
2 setlinecap
0.000 setgray
gsave
558 554.4 90 79.2 clipbox
334.125 211.702467 m
348.075 211.702467 l
348.075 213.964166 l
344.5875 215.210548 l
348.075 216.45693 l
348.075 219.317036 l
334.125 219.317036 l
334.125 216.45693 l
337.6125 215.210548 l
334.125 213.964166 l
334.125 211.702467 l
stroke
grestore
gsave
558 554.4 90 79.2 clipbox
341.1 211.702467 m
341.1 206.591073 l
stroke
grestore
gsave
558 554.4 90 79.2 clipbox
341.1 219.317036 m
341.1 224.961625 l
stroke
grestore
gsave
558 554.4 90 79.2 clipbox
337.6125 206.591073 m
344.5875 206.591073 l
stroke
grestore
gsave
558 554.4 90 79.2 clipbox
337.6125 224.961625 m
344.5875 224.961625 l
stroke
grestore
0 setlinejoin
0 setlinecap
1.000 0.000 0.000 setrgbcolor
gsave
558 554.4 90 79.2 clipbox
/o {
gsave
newpath
translate
1.0 setlinewidth
0 setlinejoin
0 setlinecap
-3 -3 m
3 -3 l
3 3 l
-3 3 l
cl

gsave
1.000 0.000 0.000 setrgbcolor
fill
grestore
stroke
grestore
} bind def
341.1 205.283 o
341.1 205.855 o
341.1 228.627 o
341.1 226.082 o
341.1 231.038 o
341.1 227.171 o
341.1 227.386 o
341.1 264.04 o
341.1 225.812 o
341.1 247.358 o
341.1 225.06 o
grestore
1 setlinejoin
2 setlinecap
0.000 setgray
gsave
558 554.4 90 79.2 clipbox
389.925 302.268437 m
403.875 302.268437 l
403.875 322.280019 l
400.3875 328.998565 l
403.875 335.717111 l
403.875 344.631627 l
389.925 344.631627 l
389.925 335.717111 l
393.4125 328.998565 l
389.925 322.280019 l
389.925 302.268437 l
stroke
grestore
gsave
558 554.4 90 79.2 clipbox
396.9 302.268437 m
396.9 270.552571 l
stroke
grestore
gsave
558 554.4 90 79.2 clipbox
396.9 344.631627 m
396.9 371.735041 l
stroke
grestore
gsave
558 554.4 90 79.2 clipbox
393.4125 270.552571 m
400.3875 270.552571 l
stroke
grestore
gsave
558 554.4 90 79.2 clipbox
393.4125 371.735041 m
400.3875 371.735041 l
stroke
grestore
0 setlinejoin
0 setlinecap
1.000 0.000 0.000 setrgbcolor
gsave
558 554.4 90 79.2 clipbox
/o {
gsave
newpath
translate
1.0 setlinewidth
0 setlinejoin
0 setlinecap
-3 -3 m
3 -3 l
3 3 l
-3 3 l
cl

gsave
1.000 0.000 0.000 setrgbcolor
fill
grestore
stroke
grestore
} bind def
396.9 268.358 o
396.9 256.568 o
396.9 270.007 o
396.9 264.085 o
396.9 254.708 o
396.9 265.683 o
396.9 269.343 o
396.9 247.629 o
396.9 268.833 o
396.9 383.912 o
396.9 402.7 o
396.9 388.41 o
396.9 464.003 o
396.9 376.549 o
grestore
1 setlinejoin
2 setlinecap
0.000 setgray
gsave
558 554.4 90 79.2 clipbox
445.725 141.991788 m
459.675 141.991788 l
459.675 156.566416 l
456.1875 160.760207 l
459.675 164.953999 l
459.675 167.890079 l
445.725 167.890079 l
445.725 164.953999 l
449.2125 160.760207 l
445.725 156.566416 l
445.725 141.991788 l
stroke
grestore
gsave
558 554.4 90 79.2 clipbox
452.7 141.991788 m
452.7 123.964791 l
stroke
grestore
gsave
558 554.4 90 79.2 clipbox
452.7 167.890079 m
452.7 182.801773 l
stroke
grestore
gsave
558 554.4 90 79.2 clipbox
449.2125 123.964791 m
456.1875 123.964791 l
stroke
grestore
gsave
558 554.4 90 79.2 clipbox
449.2125 182.801773 m
456.1875 182.801773 l
stroke
grestore
0 setlinejoin
0 setlinecap
1.000 0.000 0.000 setrgbcolor
gsave
558 554.4 90 79.2 clipbox
/o {
gsave
newpath
translate
1.0 setlinewidth
0 setlinejoin
0 setlinecap
-3 -3 m
3 -3 l
3 3 l
-3 3 l
cl

gsave
1.000 0.000 0.000 setrgbcolor
fill
grestore
stroke
grestore
} bind def
452.7 115.034 o
452.7 113.391 o
452.7 119.251 o
452.7 119.936 o
452.7 104.4 o
grestore
1 setlinejoin
2 setlinecap
0.000 setgray
gsave
558 554.4 90 79.2 clipbox
501.525 233.312114 m
515.475 233.312114 l
515.475 251.37302 l
511.9875 261.465862 l
515.475 271.558705 l
515.475 297.597734 l
501.525 297.597734 l
501.525 271.558705 l
505.0125 261.465862 l
501.525 251.37302 l
501.525 233.312114 l
stroke
grestore
gsave
558 554.4 90 79.2 clipbox
508.5 233.312114 m
508.5 186.279756 l
stroke
grestore
gsave
558 554.4 90 79.2 clipbox
508.5 297.597734 m
508.5 344.651658 l
stroke
grestore
gsave
558 554.4 90 79.2 clipbox
505.0125 186.279756 m
511.9875 186.279756 l
stroke
grestore
gsave
558 554.4 90 79.2 clipbox
505.0125 344.651658 m
511.9875 344.651658 l
stroke
grestore
0 setlinejoin
0 setlinecap
1.000 0.000 0.000 setrgbcolor
gsave
558 554.4 90 79.2 clipbox
/o {
gsave
newpath
translate
1.0 setlinewidth
0 setlinejoin
0 setlinecap
-3 -3 m
3 -3 l
3 3 l
-3 3 l
cl

gsave
1.000 0.000 0.000 setrgbcolor
fill
grestore
stroke
grestore
} bind def
508.5 181.645 o
508.5 178.292 o
508.5 608.4 o
508.5 499.805 o
508.5 376.012 o
508.5 400.874 o
508.5 403.527 o
508.5 350.767 o
508.5 495.439 o
508.5 414.25 o
508.5 347.337 o
508.5 490.12 o
508.5 393.999 o
508.5 513.149 o
grestore
1 setlinejoin
2 setlinecap
0.000 setgray
gsave
558 554.4 90 79.2 clipbox
557.325 134.947114 m
571.275 134.947114 l
571.275 135.616546 l
567.7875 136.272556 l
571.275 136.928566 l
571.275 139.062368 l
557.325 139.062368 l
557.325 136.928566 l
560.8125 136.272556 l
557.325 135.616546 l
557.325 134.947114 l
stroke
grestore
gsave
558 554.4 90 79.2 clipbox
564.3 134.947114 m
564.3 132.399498 l
stroke
grestore
gsave
558 554.4 90 79.2 clipbox
564.3 139.062368 m
564.3 141.829544 l
stroke
grestore
gsave
558 554.4 90 79.2 clipbox
560.8125 132.399498 m
567.7875 132.399498 l
stroke
grestore
gsave
558 554.4 90 79.2 clipbox
560.8125 141.829544 m
567.7875 141.829544 l
stroke
grestore
0 setlinejoin
0 setlinecap
1.000 0.000 0.000 setrgbcolor
gsave
558 554.4 90 79.2 clipbox
/o {
gsave
newpath
translate
1.0 setlinewidth
0 setlinejoin
0 setlinecap
-3 -3 m
3 -3 l
3 3 l
-3 3 l
cl

gsave
1.000 0.000 0.000 setrgbcolor
fill
grestore
stroke
grestore
} bind def
564.3 131.844 o
564.3 131.189 o
564.3 142.76 o
564.3 147.109 o
564.3 143.887 o
564.3 142.725 o
564.3 143.512 o
564.3 142.79 o
564.3 156.636 o
564.3 148.024 o
564.3 150.894 o
564.3 158.48 o
564.3 148.49 o
564.3 142.526 o
564.3 148.413 o
564.3 142.385 o
grestore
1 setlinejoin
2 setlinecap
0.000 setgray
gsave
558 554.4 90 79.2 clipbox
613.125 166.64869 m
627.075 166.64869 l
627.075 171.362237 l
623.5875 173.682997 l
627.075 176.003757 l
627.075 181.356506 l
613.125 181.356506 l
613.125 176.003757 l
616.6125 173.682997 l
613.125 171.362237 l
613.125 166.64869 l
stroke
grestore
gsave
558 554.4 90 79.2 clipbox
620.1 166.64869 m
620.1 158.58054 l
stroke
grestore
gsave
558 554.4 90 79.2 clipbox
620.1 181.356506 m
620.1 191.961299 l
stroke
grestore
gsave
558 554.4 90 79.2 clipbox
616.6125 158.58054 m
623.5875 158.58054 l
stroke
grestore
gsave
558 554.4 90 79.2 clipbox
616.6125 191.961299 m
623.5875 191.961299 l
stroke
grestore
0 setlinejoin
0 setlinecap
1.000 0.000 0.000 setrgbcolor
gsave
558 554.4 90 79.2 clipbox
/o {
gsave
newpath
translate
1.0 setlinewidth
0 setlinejoin
0 setlinecap
-3 -3 m
3 -3 l
3 3 l
-3 3 l
cl

gsave
1.000 0.000 0.000 setrgbcolor
fill
grestore
stroke
grestore
} bind def
620.1 149.59 o
620.1 137.309 o
620.1 203.205 o
620.1 210.306 o
620.1 201.442 o
620.1 313.545 o
620.1 228.379 o
620.1 220.685 o
620.1 203.82 o
620.1 225.025 o
620.1 246.04 o
grestore
1 setlinejoin
2 setlinecap
1.000 0.498 0.055 setrgbcolor
gsave
558 554.4 90 79.2 clipbox
114.4125 168.574111 m
121.3875 168.574111 l
stroke
grestore
gsave
558 554.4 90 79.2 clipbox
170.2125 228.14771 m
177.1875 228.14771 l
stroke
grestore
gsave
558 554.4 90 79.2 clipbox
226.0125 180.798699 m
232.9875 180.798699 l
stroke
grestore
gsave
558 554.4 90 79.2 clipbox
281.8125 249.06194 m
288.7875 249.06194 l
stroke
grestore
gsave
558 554.4 90 79.2 clipbox
337.6125 215.210548 m
344.5875 215.210548 l
stroke
grestore
gsave
558 554.4 90 79.2 clipbox
393.4125 328.998565 m
400.3875 328.998565 l
stroke
grestore
gsave
558 554.4 90 79.2 clipbox
449.2125 160.760207 m
456.1875 160.760207 l
stroke
grestore
gsave
558 554.4 90 79.2 clipbox
505.0125 261.465862 m
511.9875 261.465862 l
stroke
grestore
gsave
558 554.4 90 79.2 clipbox
560.8125 136.272556 m
567.7875 136.272556 l
stroke
grestore
gsave
558 554.4 90 79.2 clipbox
616.6125 173.682997 m
623.5875 173.682997 l
stroke
grestore
0.800 setlinewidth
0 setlinejoin
[] 0 setdash
0.000 setgray
gsave
90 79.2 m
90 633.6 l
stroke
grestore
gsave
648 79.2 m
648 633.6 l
stroke
grestore
gsave
90 79.2 m
648 79.2 l
stroke
grestore
gsave
90 633.6 m
648 633.6 l
stroke
grestore

end
showpage
