%!PS-Adobe-3.0 EPSF-3.0
%%Title: ./Ligne_problem=sinKd_dimension=2D.eps
%%Creator: matplotlib version 2.2.2, http://matplotlib.org/
%%CreationDate: Thu Jul  5 16:51:36 2018
%%Orientation: portrait
%%BoundingBox: 75 223 536 568
%%EndComments
%%BeginProlog
/mpldict 8 dict def
mpldict begin
/m { moveto } bind def
/l { lineto } bind def
/r { rlineto } bind def
/c { curveto } bind def
/cl { closepath } bind def
/box {
m
1 index 0 r
0 exch r
neg 0 r
cl
} bind def
/clipbox {
box
clip
newpath
} bind def
%!PS-Adobe-3.0 Resource-Font
%%Title: DejaVu Sans
%%Copyright: Copyright (c) 2003 by Bitstream, Inc. All Rights Reserved. Copyright (c) 2006 by Tavmjong Bah. All Rights Reserved. DejaVu changes are in public domain 
%%Creator: Converted from TrueType to type 3 by PPR
25 dict begin
/_d{bind def}bind def
/_m{moveto}_d
/_l{lineto}_d
/_cl{closepath eofill}_d
/_c{curveto}_d
/_sc{7 -1 roll{setcachedevice}{pop pop pop pop pop pop}ifelse}_d
/_e{exec}_d
/FontName /DejaVuSans def
/PaintType 0 def
/FontMatrix[.001 0 0 .001 0 0]def
/FontBBox[-1021 -463 1793 1232]def
/FontType 3 def
/Encoding [ /numbersign /zero /one /two /three /four /five /six /equal /E /M /R /a /l /s /v /multiply /minus ] def
/FontInfo 10 dict dup begin
/FamilyName (DejaVu Sans) def
/FullName (DejaVu Sans) def
/Notice (Copyright (c) 2003 by Bitstream, Inc. All Rights Reserved. Copyright (c) 2006 by Tavmjong Bah. All Rights Reserved. DejaVu changes are in public domain ) def
/Weight (Book) def
/Version (Version 2.35) def
/ItalicAngle 0.0 def
/isFixedPitch false def
/UnderlinePosition -130 def
/UnderlineThickness 90 def
end readonly def
/CharStrings 19 dict dup begin
/.notdef 0 def
/numbersign{{838 0 77 0 761 718 _sc
511 440 _m
369 440 _l
328 277 _l
471 277 _l
511 440 _l
438 718 _m
387 515 _l
530 515 _l
581 718 _l
659 718 _l
609 515 _l
761 515 _l
761 440 _l
590 440 _l
550 277 _l
705 277 _l
705 202 _l
531 202 _l
480 0 _l
402 0 _l
452 202 _l
309 202 _l
259 0 _l
180 0 _l
231 202 _l
77 202 _l
77 277 _l
249 277 _l
290 440 _l
133 440 _l
}_e{133 515 _l
309 515 _l
359 718 _l
438 718 _l
_cl}_e}_d
/zero{636 0 66 -13 570 742 _sc
318 664 _m
267 664 229 639 203 589 _c
177 539 165 464 165 364 _c
165 264 177 189 203 139 _c
229 89 267 64 318 64 _c
369 64 407 89 433 139 _c
458 189 471 264 471 364 _c
471 464 458 539 433 589 _c
407 639 369 664 318 664 _c
318 742 _m
399 742 461 709 505 645 _c
548 580 570 486 570 364 _c
570 241 548 147 505 83 _c
461 19 399 -13 318 -13 _c
236 -13 173 19 130 83 _c
87 147 66 241 66 364 _c
66 486 87 580 130 645 _c
173 709 236 742 318 742 _c
_cl}_d
/one{636 0 110 0 544 729 _sc
124 83 _m
285 83 _l
285 639 _l
110 604 _l
110 694 _l
284 729 _l
383 729 _l
383 83 _l
544 83 _l
544 0 _l
124 0 _l
124 83 _l
_cl}_d
/two{{636 0 73 0 536 742 _sc
192 83 _m
536 83 _l
536 0 _l
73 0 _l
73 83 _l
110 121 161 173 226 239 _c
290 304 331 346 348 365 _c
380 400 402 430 414 455 _c
426 479 433 504 433 528 _c
433 566 419 598 392 622 _c
365 646 330 659 286 659 _c
255 659 222 653 188 643 _c
154 632 117 616 78 594 _c
78 694 _l
118 710 155 722 189 730 _c
223 738 255 742 284 742 _c
}_e{359 742 419 723 464 685 _c
509 647 532 597 532 534 _c
532 504 526 475 515 449 _c
504 422 484 390 454 354 _c
446 344 420 317 376 272 _c
332 227 271 164 192 83 _c
_cl}_e}_d
/three{{636 0 76 -13 556 742 _sc
406 393 _m
453 383 490 362 516 330 _c
542 298 556 258 556 212 _c
556 140 531 84 482 45 _c
432 6 362 -13 271 -13 _c
240 -13 208 -10 176 -4 _c
144 1 110 10 76 22 _c
76 117 _l
103 101 133 89 166 81 _c
198 73 232 69 268 69 _c
330 69 377 81 409 105 _c
441 129 458 165 458 212 _c
458 254 443 288 413 312 _c
383 336 341 349 287 349 _c
}_e{202 349 _l
202 430 _l
291 430 _l
339 430 376 439 402 459 _c
428 478 441 506 441 543 _c
441 580 427 609 401 629 _c
374 649 336 659 287 659 _c
260 659 231 656 200 650 _c
169 644 135 635 98 623 _c
98 711 _l
135 721 170 729 203 734 _c
235 739 266 742 296 742 _c
370 742 429 725 473 691 _c
517 657 539 611 539 553 _c
539 513 527 479 504 451 _c
481 423 448 403 406 393 _c
_cl}_e}_d
/four{636 0 49 0 580 729 _sc
378 643 _m
129 254 _l
378 254 _l
378 643 _l
352 729 _m
476 729 _l
476 254 _l
580 254 _l
580 172 _l
476 172 _l
476 0 _l
378 0 _l
378 172 _l
49 172 _l
49 267 _l
352 729 _l
_cl}_d
/five{{636 0 77 -13 549 729 _sc
108 729 _m
495 729 _l
495 646 _l
198 646 _l
198 467 _l
212 472 227 476 241 478 _c
255 480 270 482 284 482 _c
365 482 429 459 477 415 _c
525 370 549 310 549 234 _c
549 155 524 94 475 51 _c
426 8 357 -13 269 -13 _c
238 -13 207 -10 175 -6 _c
143 -1 111 6 77 17 _c
77 116 _l
106 100 136 88 168 80 _c
199 72 232 69 267 69 _c
}_e{323 69 368 83 401 113 _c
433 143 450 183 450 234 _c
450 284 433 324 401 354 _c
368 384 323 399 267 399 _c
241 399 214 396 188 390 _c
162 384 135 375 108 363 _c
108 729 _l
_cl}_e}_d
/six{{636 0 70 -13 573 742 _sc
330 404 _m
286 404 251 388 225 358 _c
199 328 186 286 186 234 _c
186 181 199 139 225 109 _c
251 79 286 64 330 64 _c
374 64 409 79 435 109 _c
461 139 474 181 474 234 _c
474 286 461 328 435 358 _c
409 388 374 404 330 404 _c
526 713 _m
526 623 _l
501 635 476 644 451 650 _c
425 656 400 659 376 659 _c
310 659 260 637 226 593 _c
}_e{192 549 172 482 168 394 _c
187 422 211 444 240 459 _c
269 474 301 482 336 482 _c
409 482 467 459 509 415 _c
551 371 573 310 573 234 _c
573 159 550 99 506 54 _c
462 9 403 -13 330 -13 _c
246 -13 181 19 137 83 _c
92 147 70 241 70 364 _c
70 479 97 571 152 639 _c
206 707 280 742 372 742 _c
396 742 421 739 447 735 _c
472 730 498 723 526 713 _c
_cl}_e}_d
/equal{838 0 106 172 732 454 _sc
106 454 _m
732 454 _l
732 372 _l
106 372 _l
106 454 _l
106 255 _m
732 255 _l
732 172 _l
106 172 _l
106 255 _l
_cl}_d
/E{632 0 98 0 568 729 _sc
98 729 _m
559 729 _l
559 646 _l
197 646 _l
197 430 _l
544 430 _l
544 347 _l
197 347 _l
197 83 _l
568 83 _l
568 0 _l
98 0 _l
98 729 _l
_cl}_d
/M{863 0 98 0 765 729 _sc
98 729 _m
245 729 _l
431 233 _l
618 729 _l
765 729 _l
765 0 _l
669 0 _l
669 640 _l
481 140 _l
382 140 _l
194 640 _l
194 0 _l
98 0 _l
98 729 _l
_cl}_d
/R{{695 0 98 0 666 729 _sc
444 342 _m
465 334 486 319 506 296 _c
526 272 546 240 566 199 _c
666 0 _l
560 0 _l
467 187 _l
443 235 419 268 397 284 _c
374 300 343 308 304 308 _c
197 308 _l
197 0 _l
98 0 _l
98 729 _l
321 729 _l
404 729 466 711 507 677 _c
548 642 569 589 569 519 _c
569 473 558 434 537 404 _c
515 374 484 353 444 342 _c
197 648 _m
197 389 _l
321 389 _l
}_e{368 389 404 400 428 422 _c
452 444 465 476 465 519 _c
465 561 452 593 428 615 _c
404 637 368 648 321 648 _c
197 648 _l
_cl}_e}_d
/a{{613 0 60 -13 522 560 _sc
343 275 _m
270 275 220 266 192 250 _c
164 233 150 205 150 165 _c
150 133 160 107 181 89 _c
202 70 231 61 267 61 _c
317 61 357 78 387 114 _c
417 149 432 196 432 255 _c
432 275 _l
343 275 _l
522 312 _m
522 0 _l
432 0 _l
432 83 _l
411 49 385 25 355 10 _c
325 -5 287 -13 243 -13 _c
187 -13 142 2 109 33 _c
76 64 60 106 60 159 _c
}_e{60 220 80 266 122 298 _c
163 329 224 345 306 345 _c
432 345 _l
432 354 _l
432 395 418 427 391 450 _c
364 472 326 484 277 484 _c
245 484 215 480 185 472 _c
155 464 127 453 100 439 _c
100 522 _l
132 534 164 544 195 550 _c
226 556 256 560 286 560 _c
365 560 424 539 463 498 _c
502 457 522 395 522 312 _c
_cl}_e}_d
/l{278 0 94 0 184 760 _sc
94 760 _m
184 760 _l
184 0 _l
94 0 _l
94 760 _l
_cl}_d
/s{{521 0 54 -13 472 560 _sc
443 531 _m
443 446 _l
417 458 391 468 364 475 _c
336 481 308 485 279 485 _c
234 485 200 478 178 464 _c
156 450 145 430 145 403 _c
145 382 153 366 169 354 _c
185 342 217 330 265 320 _c
296 313 _l
360 299 405 279 432 255 _c
458 230 472 195 472 151 _c
472 100 452 60 412 31 _c
372 1 316 -13 246 -13 _c
216 -13 186 -10 154 -5 _c
}_e{122 0 89 8 54 20 _c
54 113 _l
87 95 120 82 152 74 _c
184 65 216 61 248 61 _c
290 61 323 68 346 82 _c
368 96 380 117 380 144 _c
380 168 371 187 355 200 _c
339 213 303 226 247 238 _c
216 245 _l
160 257 119 275 95 299 _c
70 323 58 356 58 399 _c
58 450 76 490 112 518 _c
148 546 200 560 268 560 _c
301 560 332 557 362 552 _c
391 547 418 540 443 531 _c
}_e{_cl}_e}_d
/v{592 0 30 0 562 547 _sc
30 547 _m
125 547 _l
296 88 _l
467 547 _l
562 547 _l
357 0 _l
235 0 _l
30 547 _l
_cl}_d
/multiply{838 0 137 31 701 596 _sc
701 537 _m
478 313 _l
701 90 _l
643 31 _l
419 255 _l
195 31 _l
137 90 _l
360 313 _l
137 537 _l
195 596 _l
419 372 _l
643 596 _l
701 537 _l
_cl}_d
/minus{838 0 106 272 732 355 _sc
106 355 _m
732 355 _l
732 272 _l
106 272 _l
106 355 _l
_cl}_d
end readonly def

/BuildGlyph
 {exch begin
 CharStrings exch
 2 copy known not{pop /.notdef}if
 true 3 1 roll get exec
 end}_d

/BuildChar {
 1 index /Encoding get exch get
 1 index /BuildGlyph get exec
}_d

FontName currentdict end definefont pop
end
%%EndProlog
mpldict begin
75.6 223.2 translate
460.8 345.6 0 0 clipbox
gsave
0 0 m
460.8 0 l
460.8 345.6 l
0 345.6 l
cl
1.000 setgray
fill
grestore
gsave
67.052601 45.272 m
447.48 45.272 l
447.48 332.28 l
67.052601 332.28 l
cl
1.000 setgray
fill
grestore
0.800 setlinewidth
1 setlinejoin
2 setlinecap
[] 0 setdash
0.690 setgray
gsave
380.4 287 67.05 45.27 clipbox
84.344755 45.272 m
84.344755 332.28 l
stroke
grestore
0 setlinecap
0.000 setgray
gsave
/o {
gsave
newpath
translate
0.8 setlinewidth
1 setlinejoin
0 setlinecap
0 0 m
0 -3.5 l

gsave
0.000 setgray
fill
grestore
stroke
grestore
} bind def
84.3448 45.272 o
grestore
gsave
72.344755 30.350125 translate
0.000000 rotate
/DejaVuSans findfont
10.0 scalefont
setfont
0.000000 0.064063 moveto
/one glyphshow

6.362305 0.064063 moveto
/zero glyphshow

/DejaVuSans findfont
7.0 scalefont
setfont
12.820312 3.892188 moveto
/minus glyphshow

18.685547 3.892188 moveto
/one glyphshow


grestore
2 setlinecap
0.690 setgray
gsave
380.4 287 67.05 45.27 clipbox
199.625785 45.272 m
199.625785 332.28 l
stroke
grestore
0 setlinecap
0.000 setgray
gsave
/o {
gsave
newpath
translate
0.8 setlinewidth
1 setlinejoin
0 setlinecap
0 0 m
0 -3.5 l

gsave
0.000 setgray
fill
grestore
stroke
grestore
} bind def
199.626 45.272 o
grestore
gsave
190.625785 29.350125 translate
0.000000 rotate
/DejaVuSans findfont
10.0 scalefont
setfont
0.000000 0.976562 moveto
/one glyphshow

6.362305 0.976562 moveto
/zero glyphshow

/DejaVuSans findfont
7.0 scalefont
setfont
12.820312 4.804688 moveto
/zero glyphshow


grestore
2 setlinecap
0.690 setgray
gsave
380.4 287 67.05 45.27 clipbox
314.906815 45.272 m
314.906815 332.28 l
stroke
grestore
0 setlinecap
0.000 setgray
gsave
/o {
gsave
newpath
translate
0.8 setlinewidth
1 setlinejoin
0 setlinecap
0 0 m
0 -3.5 l

gsave
0.000 setgray
fill
grestore
stroke
grestore
} bind def
314.907 45.272 o
grestore
gsave
305.906815 30.350125 translate
0.000000 rotate
/DejaVuSans findfont
10.0 scalefont
setfont
0.000000 0.064063 moveto
/one glyphshow

6.362305 0.064063 moveto
/zero glyphshow

/DejaVuSans findfont
7.0 scalefont
setfont
12.820312 3.892188 moveto
/one glyphshow


grestore
2 setlinecap
0.690 setgray
gsave
380.4 287 67.05 45.27 clipbox
430.187845 45.272 m
430.187845 332.28 l
stroke
grestore
0 setlinecap
0.000 setgray
gsave
/o {
gsave
newpath
translate
0.8 setlinewidth
1 setlinejoin
0 setlinecap
0 0 m
0 -3.5 l

gsave
0.000 setgray
fill
grestore
stroke
grestore
} bind def
430.188 45.272 o
grestore
gsave
421.187845 29.350125 translate
0.000000 rotate
/DejaVuSans findfont
10.0 scalefont
setfont
0.000000 0.976562 moveto
/one glyphshow

6.362305 0.976562 moveto
/zero glyphshow

/DejaVuSans findfont
7.0 scalefont
setfont
12.820312 4.804688 moveto
/two glyphshow


grestore
2 setlinecap
0.690 setgray
gsave
380.4 287 67.05 45.27 clipbox
73.172869 45.272 m
73.172869 332.28 l
stroke
grestore
0.600 setlinewidth
0 setlinecap
0.000 setgray
gsave
/o {
gsave
newpath
translate
0.6 setlinewidth
1 setlinejoin
0 setlinecap
0 0 m
0 -2 l

gsave
0.000 setgray
fill
grestore
stroke
grestore
} bind def
73.1729 45.272 o
grestore
0.800 setlinewidth
2 setlinecap
0.690 setgray
gsave
380.4 287 67.05 45.27 clipbox
79.069785 45.272 m
79.069785 332.28 l
stroke
grestore
0.600 setlinewidth
0 setlinecap
0.000 setgray
gsave
/o {
gsave
newpath
translate
0.6 setlinewidth
1 setlinejoin
0 setlinecap
0 0 m
0 -2 l

gsave
0.000 setgray
fill
grestore
stroke
grestore
} bind def
79.0698 45.272 o
grestore
0.800 setlinewidth
2 setlinecap
0.690 setgray
gsave
380.4 287 67.05 45.27 clipbox
119.047803 45.272 m
119.047803 332.28 l
stroke
grestore
0.600 setlinewidth
0 setlinecap
0.000 setgray
gsave
/o {
gsave
newpath
translate
0.6 setlinewidth
1 setlinejoin
0 setlinecap
0 0 m
0 -2 l

gsave
0.000 setgray
fill
grestore
stroke
grestore
} bind def
119.048 45.272 o
grestore
0.800 setlinewidth
2 setlinecap
0.690 setgray
gsave
380.4 287 67.05 45.27 clipbox
139.347785 45.272 m
139.347785 332.28 l
stroke
grestore
0.600 setlinewidth
0 setlinecap
0.000 setgray
gsave
/o {
gsave
newpath
translate
0.6 setlinewidth
1 setlinejoin
0 setlinecap
0 0 m
0 -2 l

gsave
0.000 setgray
fill
grestore
stroke
grestore
} bind def
139.348 45.272 o
grestore
0.800 setlinewidth
2 setlinecap
0.690 setgray
gsave
380.4 287 67.05 45.27 clipbox
153.750851 45.272 m
153.750851 332.28 l
stroke
grestore
0.600 setlinewidth
0 setlinecap
0.000 setgray
gsave
/o {
gsave
newpath
translate
0.6 setlinewidth
1 setlinejoin
0 setlinecap
0 0 m
0 -2 l

gsave
0.000 setgray
fill
grestore
stroke
grestore
} bind def
153.751 45.272 o
grestore
0.800 setlinewidth
2 setlinecap
0.690 setgray
gsave
380.4 287 67.05 45.27 clipbox
164.922737 45.272 m
164.922737 332.28 l
stroke
grestore
0.600 setlinewidth
0 setlinecap
0.000 setgray
gsave
/o {
gsave
newpath
translate
0.6 setlinewidth
1 setlinejoin
0 setlinecap
0 0 m
0 -2 l

gsave
0.000 setgray
fill
grestore
stroke
grestore
} bind def
164.923 45.272 o
grestore
0.800 setlinewidth
2 setlinecap
0.690 setgray
gsave
380.4 287 67.05 45.27 clipbox
174.050833 45.272 m
174.050833 332.28 l
stroke
grestore
0.600 setlinewidth
0 setlinecap
0.000 setgray
gsave
/o {
gsave
newpath
translate
0.6 setlinewidth
1 setlinejoin
0 setlinecap
0 0 m
0 -2 l

gsave
0.000 setgray
fill
grestore
stroke
grestore
} bind def
174.051 45.272 o
grestore
0.800 setlinewidth
2 setlinecap
0.690 setgray
gsave
380.4 287 67.05 45.27 clipbox
181.768528 45.272 m
181.768528 332.28 l
stroke
grestore
0.600 setlinewidth
0 setlinecap
0.000 setgray
gsave
/o {
gsave
newpath
translate
0.6 setlinewidth
1 setlinejoin
0 setlinecap
0 0 m
0 -2 l

gsave
0.000 setgray
fill
grestore
stroke
grestore
} bind def
181.769 45.272 o
grestore
0.800 setlinewidth
2 setlinecap
0.690 setgray
gsave
380.4 287 67.05 45.27 clipbox
188.453899 45.272 m
188.453899 332.28 l
stroke
grestore
0.600 setlinewidth
0 setlinecap
0.000 setgray
gsave
/o {
gsave
newpath
translate
0.6 setlinewidth
1 setlinejoin
0 setlinecap
0 0 m
0 -2 l

gsave
0.000 setgray
fill
grestore
stroke
grestore
} bind def
188.454 45.272 o
grestore
0.800 setlinewidth
2 setlinecap
0.690 setgray
gsave
380.4 287 67.05 45.27 clipbox
194.350815 45.272 m
194.350815 332.28 l
stroke
grestore
0.600 setlinewidth
0 setlinecap
0.000 setgray
gsave
/o {
gsave
newpath
translate
0.6 setlinewidth
1 setlinejoin
0 setlinecap
0 0 m
0 -2 l

gsave
0.000 setgray
fill
grestore
stroke
grestore
} bind def
194.351 45.272 o
grestore
0.800 setlinewidth
2 setlinecap
0.690 setgray
gsave
380.4 287 67.05 45.27 clipbox
234.328833 45.272 m
234.328833 332.28 l
stroke
grestore
0.600 setlinewidth
0 setlinecap
0.000 setgray
gsave
/o {
gsave
newpath
translate
0.6 setlinewidth
1 setlinejoin
0 setlinecap
0 0 m
0 -2 l

gsave
0.000 setgray
fill
grestore
stroke
grestore
} bind def
234.329 45.272 o
grestore
0.800 setlinewidth
2 setlinecap
0.690 setgray
gsave
380.4 287 67.05 45.27 clipbox
254.628815 45.272 m
254.628815 332.28 l
stroke
grestore
0.600 setlinewidth
0 setlinecap
0.000 setgray
gsave
/o {
gsave
newpath
translate
0.6 setlinewidth
1 setlinejoin
0 setlinecap
0 0 m
0 -2 l

gsave
0.000 setgray
fill
grestore
stroke
grestore
} bind def
254.629 45.272 o
grestore
0.800 setlinewidth
2 setlinecap
0.690 setgray
gsave
380.4 287 67.05 45.27 clipbox
269.031881 45.272 m
269.031881 332.28 l
stroke
grestore
0.600 setlinewidth
0 setlinecap
0.000 setgray
gsave
/o {
gsave
newpath
translate
0.6 setlinewidth
1 setlinejoin
0 setlinecap
0 0 m
0 -2 l

gsave
0.000 setgray
fill
grestore
stroke
grestore
} bind def
269.032 45.272 o
grestore
0.800 setlinewidth
2 setlinecap
0.690 setgray
gsave
380.4 287 67.05 45.27 clipbox
280.203767 45.272 m
280.203767 332.28 l
stroke
grestore
0.600 setlinewidth
0 setlinecap
0.000 setgray
gsave
/o {
gsave
newpath
translate
0.6 setlinewidth
1 setlinejoin
0 setlinecap
0 0 m
0 -2 l

gsave
0.000 setgray
fill
grestore
stroke
grestore
} bind def
280.204 45.272 o
grestore
0.800 setlinewidth
2 setlinecap
0.690 setgray
gsave
380.4 287 67.05 45.27 clipbox
289.331863 45.272 m
289.331863 332.28 l
stroke
grestore
0.600 setlinewidth
0 setlinecap
0.000 setgray
gsave
/o {
gsave
newpath
translate
0.6 setlinewidth
1 setlinejoin
0 setlinecap
0 0 m
0 -2 l

gsave
0.000 setgray
fill
grestore
stroke
grestore
} bind def
289.332 45.272 o
grestore
0.800 setlinewidth
2 setlinecap
0.690 setgray
gsave
380.4 287 67.05 45.27 clipbox
297.049558 45.272 m
297.049558 332.28 l
stroke
grestore
0.600 setlinewidth
0 setlinecap
0.000 setgray
gsave
/o {
gsave
newpath
translate
0.6 setlinewidth
1 setlinejoin
0 setlinecap
0 0 m
0 -2 l

gsave
0.000 setgray
fill
grestore
stroke
grestore
} bind def
297.05 45.272 o
grestore
0.800 setlinewidth
2 setlinecap
0.690 setgray
gsave
380.4 287 67.05 45.27 clipbox
303.734929 45.272 m
303.734929 332.28 l
stroke
grestore
0.600 setlinewidth
0 setlinecap
0.000 setgray
gsave
/o {
gsave
newpath
translate
0.6 setlinewidth
1 setlinejoin
0 setlinecap
0 0 m
0 -2 l

gsave
0.000 setgray
fill
grestore
stroke
grestore
} bind def
303.735 45.272 o
grestore
0.800 setlinewidth
2 setlinecap
0.690 setgray
gsave
380.4 287 67.05 45.27 clipbox
309.631845 45.272 m
309.631845 332.28 l
stroke
grestore
0.600 setlinewidth
0 setlinecap
0.000 setgray
gsave
/o {
gsave
newpath
translate
0.6 setlinewidth
1 setlinejoin
0 setlinecap
0 0 m
0 -2 l

gsave
0.000 setgray
fill
grestore
stroke
grestore
} bind def
309.632 45.272 o
grestore
0.800 setlinewidth
2 setlinecap
0.690 setgray
gsave
380.4 287 67.05 45.27 clipbox
349.609863 45.272 m
349.609863 332.28 l
stroke
grestore
0.600 setlinewidth
0 setlinecap
0.000 setgray
gsave
/o {
gsave
newpath
translate
0.6 setlinewidth
1 setlinejoin
0 setlinecap
0 0 m
0 -2 l

gsave
0.000 setgray
fill
grestore
stroke
grestore
} bind def
349.61 45.272 o
grestore
0.800 setlinewidth
2 setlinecap
0.690 setgray
gsave
380.4 287 67.05 45.27 clipbox
369.909845 45.272 m
369.909845 332.28 l
stroke
grestore
0.600 setlinewidth
0 setlinecap
0.000 setgray
gsave
/o {
gsave
newpath
translate
0.6 setlinewidth
1 setlinejoin
0 setlinecap
0 0 m
0 -2 l

gsave
0.000 setgray
fill
grestore
stroke
grestore
} bind def
369.91 45.272 o
grestore
0.800 setlinewidth
2 setlinecap
0.690 setgray
gsave
380.4 287 67.05 45.27 clipbox
384.312911 45.272 m
384.312911 332.28 l
stroke
grestore
0.600 setlinewidth
0 setlinecap
0.000 setgray
gsave
/o {
gsave
newpath
translate
0.6 setlinewidth
1 setlinejoin
0 setlinecap
0 0 m
0 -2 l

gsave
0.000 setgray
fill
grestore
stroke
grestore
} bind def
384.313 45.272 o
grestore
0.800 setlinewidth
2 setlinecap
0.690 setgray
gsave
380.4 287 67.05 45.27 clipbox
395.484798 45.272 m
395.484798 332.28 l
stroke
grestore
0.600 setlinewidth
0 setlinecap
0.000 setgray
gsave
/o {
gsave
newpath
translate
0.6 setlinewidth
1 setlinejoin
0 setlinecap
0 0 m
0 -2 l

gsave
0.000 setgray
fill
grestore
stroke
grestore
} bind def
395.485 45.272 o
grestore
0.800 setlinewidth
2 setlinecap
0.690 setgray
gsave
380.4 287 67.05 45.27 clipbox
404.612893 45.272 m
404.612893 332.28 l
stroke
grestore
0.600 setlinewidth
0 setlinecap
0.000 setgray
gsave
/o {
gsave
newpath
translate
0.6 setlinewidth
1 setlinejoin
0 setlinecap
0 0 m
0 -2 l

gsave
0.000 setgray
fill
grestore
stroke
grestore
} bind def
404.613 45.272 o
grestore
0.800 setlinewidth
2 setlinecap
0.690 setgray
gsave
380.4 287 67.05 45.27 clipbox
412.330588 45.272 m
412.330588 332.28 l
stroke
grestore
0.600 setlinewidth
0 setlinecap
0.000 setgray
gsave
/o {
gsave
newpath
translate
0.6 setlinewidth
1 setlinejoin
0 setlinecap
0 0 m
0 -2 l

gsave
0.000 setgray
fill
grestore
stroke
grestore
} bind def
412.331 45.272 o
grestore
0.800 setlinewidth
2 setlinecap
0.690 setgray
gsave
380.4 287 67.05 45.27 clipbox
419.015959 45.272 m
419.015959 332.28 l
stroke
grestore
0.600 setlinewidth
0 setlinecap
0.000 setgray
gsave
/o {
gsave
newpath
translate
0.6 setlinewidth
1 setlinejoin
0 setlinecap
0 0 m
0 -2 l

gsave
0.000 setgray
fill
grestore
stroke
grestore
} bind def
419.016 45.272 o
grestore
0.800 setlinewidth
2 setlinecap
0.690 setgray
gsave
380.4 287 67.05 45.27 clipbox
424.912875 45.272 m
424.912875 332.28 l
stroke
grestore
0.600 setlinewidth
0 setlinecap
0.000 setgray
gsave
/o {
gsave
newpath
translate
0.6 setlinewidth
1 setlinejoin
0 setlinecap
0 0 m
0 -2 l

gsave
0.000 setgray
fill
grestore
stroke
grestore
} bind def
424.913 45.272 o
grestore
/DejaVuSans findfont
10.000 scalefont
setfont
gsave
253.789738 15.678250 translate
0.000000 rotate
0.000000 0.000000 m /R glyphshow
grestore
0.800 setlinewidth
2 setlinecap
0.690 setgray
gsave
380.4 287 67.05 45.27 clipbox
67.052601 251.728656 m
447.48 251.728656 l
stroke
grestore
0 setlinecap
0.000 setgray
gsave
/o {
gsave
newpath
translate
0.8 setlinewidth
1 setlinejoin
0 setlinecap
0 0 m
-3.5 0 l

gsave
0.000 setgray
fill
grestore
stroke
grestore
} bind def
67.0526 251.729 o
grestore
gsave
42.052601 247.767718 translate
0.000000 rotate
/DejaVuSans findfont
10.0 scalefont
setfont
0.000000 0.064063 moveto
/one glyphshow

6.362305 0.064063 moveto
/zero glyphshow

/DejaVuSans findfont
7.0 scalefont
setfont
12.820312 3.892188 moveto
/four glyphshow


grestore
2 setlinecap
0.690 setgray
gsave
380.4 287 67.05 45.27 clipbox
67.052601 46.502381 m
447.48 46.502381 l
stroke
grestore
0.600 setlinewidth
0 setlinecap
0.000 setgray
gsave
/o {
gsave
newpath
translate
0.6 setlinewidth
1 setlinejoin
0 setlinecap
0 0 m
-2 0 l

gsave
0.000 setgray
fill
grestore
stroke
grestore
} bind def
67.0526 46.5024 o
grestore
0.800 setlinewidth
2 setlinecap
0.690 setgray
gsave
380.4 287 67.05 45.27 clipbox
67.052601 100.483952 m
447.48 100.483952 l
stroke
grestore
0.600 setlinewidth
0 setlinecap
0.000 setgray
gsave
/o {
gsave
newpath
translate
0.6 setlinewidth
1 setlinejoin
0 setlinecap
0 0 m
-2 0 l

gsave
0.000 setgray
fill
grestore
stroke
grestore
} bind def
67.0526 100.484 o
grestore
gsave
24.652601 96.023015 translate
0.000000 rotate
/DejaVuSans findfont
10.0 scalefont
setfont
0.000000 0.976562 moveto
/six glyphshow

8.310547 0.976562 moveto
/multiply glyphshow

18.637695 0.976562 moveto
/one glyphshow

25.000000 0.976562 moveto
/zero glyphshow

/DejaVuSans findfont
7.0 scalefont
setfont
31.458008 4.804688 moveto
/three glyphshow


grestore
0.800 setlinewidth
2 setlinecap
0.690 setgray
gsave
380.4 287 67.05 45.27 clipbox
67.052601 146.124721 m
447.48 146.124721 l
stroke
grestore
0.600 setlinewidth
0 setlinecap
0.000 setgray
gsave
/o {
gsave
newpath
translate
0.6 setlinewidth
1 setlinejoin
0 setlinecap
0 0 m
-2 0 l

gsave
0.000 setgray
fill
grestore
stroke
grestore
} bind def
67.0526 146.125 o
grestore
0.800 setlinewidth
2 setlinecap
0.690 setgray
gsave
380.4 287 67.05 45.27 clipbox
67.052601 185.660552 m
447.48 185.660552 l
stroke
grestore
0.600 setlinewidth
0 setlinecap
0.000 setgray
gsave
/o {
gsave
newpath
translate
0.6 setlinewidth
1 setlinejoin
0 setlinecap
0 0 m
-2 0 l

gsave
0.000 setgray
fill
grestore
stroke
grestore
} bind def
67.0526 185.661 o
grestore
0.800 setlinewidth
2 setlinecap
0.690 setgray
gsave
380.4 287 67.05 45.27 clipbox
67.052601 220.533627 m
447.48 220.533627 l
stroke
grestore
0.600 setlinewidth
0 setlinecap
0.000 setgray
gsave
/o {
gsave
newpath
translate
0.6 setlinewidth
1 setlinejoin
0 setlinecap
0 0 m
-2 0 l

gsave
0.000 setgray
fill
grestore
stroke
grestore
} bind def
67.0526 220.534 o
grestore
gsave
18.574476 171.408812 translate
90.000000 rotate
0.000000 0.000000 m /numbersign glyphshow
8.378906 0.000000 m /E glyphshow
14.697266 0.000000 m /v glyphshow
20.615234 0.000000 m /a glyphshow
26.743164 0.000000 m /l glyphshow
29.521484 0.000000 m /s glyphshow
grestore
2.000 setlinewidth
2 setlinecap
0.122 0.467 0.706 setrgbcolor
gsave
380.4 287 67.05 45.27 clipbox
84.344755 258.107067 m
164.922737 277.273934 l
199.625785 303.325437 l
234.328833 254.443062 l
280.203767 251.987118 l
314.906815 257.486312 l
430.187845 209.246752 l
stroke
grestore
0 setlinecap
[7.4 3.2] 0 setdash
1.000 0.498 0.055 setrgbcolor
gsave
380.4 287 67.05 45.27 clipbox
84.344755 319.234182 m
164.922737 293.936229 l
199.625785 299.994546 l
234.328833 269.689475 l
280.203767 245.651373 l
314.906815 238.355294 l
430.187845 210.747822 l
stroke
grestore
[12.8 3.2 2 3.2] 0 setdash
0.173 0.627 0.173 setrgbcolor
gsave
380.4 287 67.05 45.27 clipbox
84.344755 267.161557 m
164.922737 123.737699 l
199.625785 195.545567 l
234.328833 138.169898 l
280.203767 126.364322 l
314.906815 91.182296 l
430.187845 58.317818 l
stroke
grestore
0.800 setlinewidth
0 setlinejoin
2 setlinecap
[] 0 setdash
0.000 setgray
gsave
67.052601 45.272 m
67.052601 332.28 l
stroke
grestore
gsave
447.48 45.272 m
447.48 332.28 l
stroke
grestore
gsave
67.052601 45.272 m
447.48 45.272 l
stroke
grestore
gsave
67.052601 332.28 m
447.48 332.28 l
stroke
grestore
1.000 setlinewidth
0 setlinecap
0.800 setgray
gsave
380.120625 275.264375 m
435.48 275.264375 l
436.813333 275.264375 437.48 275.931042 437.48 277.264375 c
437.48 320.28 l
437.48 321.613333 436.813333 322.28 435.48 322.28 c
380.120625 322.28 l
378.787292 322.28 378.120625 321.613333 378.120625 320.28 c
378.120625 277.264375 l
378.120625 275.931042 378.787292 275.264375 380.120625 275.264375 c
cl
gsave
1.000 setgray
fill
grestore
stroke
grestore
2.000 setlinewidth
1 setlinejoin
2 setlinecap
[] 0 setdash
0.122 0.467 0.706 setrgbcolor
gsave
382.120625 314.18625 m
402.120625 314.18625 l
stroke
grestore
0.000 setgray
gsave
410.120625 310.686250 translate
0.000000 rotate
0.000000 0.000000 m /M glyphshow
8.627930 0.000000 m /equal glyphshow
17.006836 0.000000 m /two glyphshow
grestore
0 setlinecap
[7.4 3.2] 0 setdash
1.000 0.498 0.055 setrgbcolor
gsave
382.120625 299.514375 m
402.120625 299.514375 l
stroke
grestore
0.000 setgray
gsave
410.120625 296.014375 translate
0.000000 rotate
0.000000 0.000000 m /M glyphshow
8.627930 0.000000 m /equal glyphshow
17.006836 0.000000 m /three glyphshow
grestore
[12.8 3.2 2 3.2] 0 setdash
0.173 0.627 0.173 setrgbcolor
gsave
382.120625 284.8425 m
402.120625 284.8425 l
stroke
grestore
0.000 setgray
gsave
410.120625 281.342500 translate
0.000000 rotate
0.000000 0.000000 m /M glyphshow
8.627930 0.000000 m /equal glyphshow
17.006836 0.000000 m /five glyphshow
grestore

end
showpage
