%!PS-Adobe-3.0 EPSF-3.0 
%%BoundingBox: 0 0 340 340
%%Pages: 0
%%Creator: LibreOffice 6.1
%%Title: none
%%CreationDate: none
%%LanguageLevel: 2
%%EndComments
%%BeginProlog
%%BeginResource: procset SDRes-Prolog 1.0 0
/b4_inc_state save def
/dict_count countdictstack def
/op_count count 1 sub def
userdict begin
0 setgray 0 setlinecap 1 setlinewidth 0 setlinejoin 10 setmiterlimit[] 0 setdash newpath
/languagelevel where {pop languagelevel 1 ne {false setstrokeadjust false setoverprint} if} if
/bdef {bind def} bind def
/c {setgray} bdef
/l {neg lineto} bdef
/rl {neg rlineto} bdef
/lc {setlinecap} bdef
/lj {setlinejoin} bdef
/lw {setlinewidth} bdef
/ml {setmiterlimit} bdef
/ld {setdash} bdef
/m {neg moveto} bdef
/ct {6 2 roll neg 6 2 roll neg 6 2 roll neg curveto} bdef
/r {rotate} bdef
/t {neg translate} bdef
/s {scale} bdef
/sw {show} bdef
/gs {gsave} bdef
/gr {grestore} bdef
/f {findfont dup length dict begin
{1 index /FID ne {def} {pop pop} ifelse} forall /Encoding ISOLatin1Encoding def
currentdict end /NFont exch definefont pop /NFont findfont} bdef
/p {closepath} bdef
/sf {scalefont setfont} bdef
/ef {eofill}bdef
/pc {closepath stroke}bdef
/ps {stroke}bdef
/pum {matrix currentmatrix}bdef
/pom {setmatrix}bdef
/bs {/aString exch def /nXOfs exch def /nWidth exch def currentpoint nXOfs 0 rmoveto pum nWidth aString stringwidth pop div 1 scale aString show pom moveto} bdef
%%EndResource
%%EndProlog
%%BeginSetup
%%EndSetup
%%Page: 1 1
%%BeginPageSetup
%%EndPageSetup
pum
0.02833 0.02833 s 
0 -12000 t
/tm matrix currentmatrix def
gs
0 0 m 11999 0 l 11999 11999 l 0 11999 l 0 0 l eoclip newpath
gs
0 0 m 11999 0 l 11999 11999 l 0 11999 l 0 0 l eoclip newpath
gs
53 lw 1 lj 0.000 c 6100 11700 m  500 11700 l  500 400 l  11700 400 l  11700 11700 l 
6100 11700 l  pc
gr
pum
4532 898 t
0.000 c 21 0 m  21 -26 l  28 -42 37 -57 47 -69 ct 57 -81 68 -93 79 -103 ct 90 -113 101 -122 112 -130 ct 
123 -139 133 -148 142 -156 ct 151 -165 158 -174 163 -183 ct 169 -192 171 -203 171 -215 ct 
171 -231 167 -243 157 -252 ct 148 -261 135 -265 118 -265 ct 102 -265 89 -261 79 -252 ct 
69 -244 63 -232 61 -216 ct 23 -220 l  26 -243 36 -262 53 -275 ct 70 -289 91 -296 118 -296 ct 
147 -296 170 -289 186 -275 ct 202 -261 209 -242 209 -216 ct 209 -205 207 -194 202 -182 ct 
197 -171 189 -160 179 -149 ct 168 -138 149 -120 120 -97 ct 104 -84 92 -72 82 -62 ct 
73 -51 66 -41 62 -32 ct 214 -32 l  214 0 l  21 0 l  p ef
pom
pum
713 8498 t
32 0 m  32 -32 l  106 -32 l  106 -256 l  41 -209 l  41 -244 l  109 -292 l 
144 -292 l  144 -32 l  215 -32 l  215 0 l  32 0 l  p ef
454 -80 m  454 -54 445 -33 428 -18 ct 411 -3 387 4 355 4 ct 325 4 302 -3 284 -16 ct 
267 -29 256 -49 253 -75 ct 292 -78 l  296 -44 318 -27 355 -27 ct 374 -27 388 -31 399 -41 ct 
410 -50 415 -64 415 -82 ct 415 -98 409 -110 397 -119 ct 385 -128 367 -132 344 -132 ct 
323 -132 l  323 -164 l  343 -164 l  364 -164 379 -169 391 -178 ct 402 -187 407 -199 407 -215 ct 
407 -230 403 -243 394 -252 ct 385 -261 371 -265 353 -265 ct 336 -265 323 -261 313 -253 ct 
303 -244 297 -232 295 -217 ct 258 -220 l  261 -244 271 -262 288 -276 ct 305 -289 327 -296 353 -296 ct 
382 -296 405 -289 421 -276 ct 438 -262 446 -243 446 -219 ct 446 -200 440 -185 430 -173 ct 
420 -161 405 -154 385 -149 ct 385 -149 l  406 -146 423 -139 435 -127 ct 448 -114 454 -99 454 -80 ct 
p ef
pom
pum
730 898 t
32 0 m  32 -32 l  106 -32 l  106 -256 l  41 -209 l  41 -244 l  109 -292 l 
144 -292 l  144 -32 l  215 -32 l  215 0 l  32 0 l  p ef
235 0 m  235 -32 l  309 -32 l  309 -256 l  244 -209 l  244 -244 l  312 -292 l 
347 -292 l  347 -32 l  418 -32 l  418 0 l  235 0 l  p ef
pom
pum
595 4698 t
32 0 m  32 -32 l  106 -32 l  106 -256 l  41 -209 l  41 -244 l  109 -292 l 
144 -292 l  144 -32 l  215 -32 l  215 0 l  32 0 l  p ef
258 0 m  258 -26 l  265 -42 274 -57 284 -69 ct 294 -81 305 -93 316 -103 ct 327 -113 338 -122 349 -130 ct 
360 -139 370 -148 379 -156 ct 388 -165 395 -174 400 -183 ct 406 -192 408 -203 408 -215 ct 
408 -231 404 -243 394 -252 ct 385 -261 372 -265 355 -265 ct 339 -265 326 -261 316 -252 ct 
306 -244 300 -232 298 -216 ct 260 -220 l  263 -243 273 -262 290 -275 ct 307 -289 328 -296 355 -296 ct 
384 -296 407 -289 423 -275 ct 439 -261 446 -242 446 -216 ct 446 -205 444 -194 439 -182 ct 
434 -171 426 -160 416 -149 ct 405 -138 386 -120 357 -97 ct 341 -84 329 -72 319 -62 ct 
310 -51 303 -41 299 -32 ct 451 -32 l  451 0 l  258 0 l  p ef
506 0 m  506 -32 l  580 -32 l  580 -256 l  515 -209 l  515 -244 l  583 -292 l 
618 -292 l  618 -32 l  689 -32 l  689 0 l  506 0 l  p ef
pom
pum
1795 4698 t
32 0 m  32 -32 l  106 -32 l  106 -256 l  41 -209 l  41 -244 l  109 -292 l 
144 -292 l  144 -32 l  215 -32 l  215 0 l  32 0 l  p ef
258 0 m  258 -26 l  265 -42 274 -57 284 -69 ct 294 -81 305 -93 316 -103 ct 327 -113 338 -122 349 -130 ct 
360 -139 370 -148 379 -156 ct 388 -165 395 -174 400 -183 ct 406 -192 408 -203 408 -215 ct 
408 -231 404 -243 394 -252 ct 385 -261 372 -265 355 -265 ct 339 -265 326 -261 316 -252 ct 
306 -244 300 -232 298 -216 ct 260 -220 l  263 -243 273 -262 290 -275 ct 307 -289 328 -296 355 -296 ct 
384 -296 407 -289 423 -275 ct 439 -261 446 -242 446 -216 ct 446 -205 444 -194 439 -182 ct 
434 -171 426 -160 416 -149 ct 405 -138 386 -120 357 -97 ct 341 -84 329 -72 319 -62 ct 
310 -51 303 -41 299 -32 ct 451 -32 l  451 0 l  258 0 l  p ef
495 0 m  495 -26 l  502 -42 511 -57 521 -69 ct 531 -81 542 -93 553 -103 ct 564 -113 575 -122 586 -130 ct 
597 -139 607 -148 616 -156 ct 625 -165 632 -174 637 -183 ct 643 -192 645 -203 645 -215 ct 
645 -231 641 -243 631 -252 ct 622 -261 609 -265 592 -265 ct 576 -265 563 -261 553 -252 ct 
543 -244 537 -232 535 -216 ct 497 -220 l  500 -243 510 -262 527 -275 ct 544 -289 565 -296 592 -296 ct 
621 -296 644 -289 660 -275 ct 676 -261 683 -242 683 -216 ct 683 -205 681 -194 676 -182 ct 
671 -171 663 -160 653 -149 ct 642 -138 623 -120 594 -97 ct 578 -84 566 -72 556 -62 ct 
547 -51 540 -41 536 -32 ct 688 -32 l  688 0 l  495 0 l  p ef
pom
pum
3095 4698 t
32 0 m  32 -32 l  106 -32 l  106 -256 l  41 -209 l  41 -244 l  109 -292 l 
144 -292 l  144 -32 l  215 -32 l  215 0 l  32 0 l  p ef
258 0 m  258 -26 l  265 -42 274 -57 284 -69 ct 294 -81 305 -93 316 -103 ct 327 -113 338 -122 349 -130 ct 
360 -139 370 -148 379 -156 ct 388 -165 395 -174 400 -183 ct 406 -192 408 -203 408 -215 ct 
408 -231 404 -243 394 -252 ct 385 -261 372 -265 355 -265 ct 339 -265 326 -261 316 -252 ct 
306 -244 300 -232 298 -216 ct 260 -220 l  263 -243 273 -262 290 -275 ct 307 -289 328 -296 355 -296 ct 
384 -296 407 -289 423 -275 ct 439 -261 446 -242 446 -216 ct 446 -205 444 -194 439 -182 ct 
434 -171 426 -160 416 -149 ct 405 -138 386 -120 357 -97 ct 341 -84 329 -72 319 -62 ct 
310 -51 303 -41 299 -32 ct 451 -32 l  451 0 l  258 0 l  p ef
691 -80 m  691 -54 682 -33 665 -18 ct 648 -3 624 4 592 4 ct 562 4 539 -3 521 -16 ct 
504 -29 493 -49 490 -75 ct 529 -78 l  533 -44 555 -27 592 -27 ct 611 -27 625 -31 636 -41 ct 
647 -50 652 -64 652 -82 ct 652 -98 646 -110 634 -119 ct 622 -128 604 -132 581 -132 ct 
560 -132 l  560 -164 l  580 -164 l  601 -164 616 -169 628 -178 ct 639 -187 644 -199 644 -215 ct 
644 -230 640 -243 631 -252 ct 622 -261 608 -265 590 -265 ct 573 -265 560 -261 550 -253 ct 
540 -244 534 -232 532 -217 ct 495 -220 l  498 -244 508 -262 525 -276 ct 542 -289 564 -296 590 -296 ct 
619 -296 642 -289 658 -276 ct 675 -262 683 -243 683 -219 ct 683 -200 677 -185 667 -173 ct 
657 -161 642 -154 622 -149 ct 622 -149 l  643 -146 660 -139 672 -127 ct 685 -114 691 -99 691 -80 ct 
p ef
pom
pum
8232 898 t
217 -80 m  217 -54 208 -33 191 -18 ct 174 -3 150 4 118 4 ct 88 4 65 -3 47 -16 ct 
30 -29 19 -49 16 -75 ct 55 -78 l  59 -44 81 -27 118 -27 ct 137 -27 151 -31 162 -41 ct 
173 -50 178 -64 178 -82 ct 178 -98 172 -110 160 -119 ct 148 -128 130 -132 107 -132 ct 
86 -132 l  86 -164 l  106 -164 l  127 -164 142 -169 154 -178 ct 165 -187 170 -199 170 -215 ct 
170 -230 166 -243 157 -252 ct 148 -261 134 -265 116 -265 ct 99 -265 86 -261 76 -253 ct 
66 -244 60 -232 58 -217 ct 21 -220 l  24 -244 34 -262 51 -276 ct 68 -289 90 -296 116 -296 ct 
145 -296 168 -289 184 -276 ct 201 -262 209 -243 209 -219 ct 209 -200 203 -185 193 -173 ct 
183 -161 168 -154 148 -149 ct 148 -149 l  169 -146 186 -139 198 -127 ct 211 -114 217 -99 217 -80 ct 
p ef
pom
gs
53 lw 1 lj 3000 4200 m  3000 8000 l  ps
gr
gs
53 lw 1 lj 7900 400 m  7900 11700 l  ps
gr
gs
53 lw 1 lj 500 4200 m  4200 4200 l  ps
gr
gs
53 lw 1 lj 500 8000 m  4200 8000 l  ps
gr
gs
53 lw 1 lj 4200 400 m  4200 11700 l  ps
gr
gs
53 lw 1 lj 1700 4200 m  1700 8000 l  ps
gr
gr
gs
0 0 m 11999 0 l 11999 11999 l 0 11999 l 0 0 l eoclip newpath
gr
gr
0 12000 t 
pom
count op_count sub {pop} repeat countdictstack dict_count sub {end} repeat b4_inc_state restore
%%PageTrailer
%%Trailer
%%EOF
