# Fdb version 3
["bibtex slides"] 0 "slides.aux" "slides.bbl" "slides" 0
  "/nix/store/km3sxf749m8r0xkcwi5ynhkygyaw1h9g-texlive-combined-full-2018/share/texmf/bibtex/bst/base/abbrv.bst" 1 20329 b5fed53e10044d0f8112183785c759b1 ""
  "slides.aux" 0 -1 0 ""
  "these.bib" 1603198372 88173 88366e24a4d56b2a0f9ad6852701cea8 ""
  (generated)
  "slides.blg"
  "slides.bbl"
["pdflatex"] 1604326798 "/home/amaury/git/amaury_dubois/these/slide_these/slides.tex" "/home/amaury/git/amaury_dubois/these/slide_these/slides.pdf" "slides" 1604326798
  "/home/amaury/git/amaury_dubois/these/slide_these/slides.aux" 1604326798 8 a94a2480d3289e625eea47cd1b285758 ""
  "/home/amaury/git/amaury_dubois/these/slide_these/slides.tex" 1604326795 16771 fb05a77c8f5bee58dbe5972c1a524e28 ""
  "/nix/store/km3sxf749m8r0xkcwi5ynhkygyaw1h9g-texlive-combined-full-2018/share/texmf-var/web2c/pdftex/pdflatex.fmt" 1 4249895 faf25191097beec53f2c1ed7d09ddb8b ""
  "/nix/store/km3sxf749m8r0xkcwi5ynhkygyaw1h9g-texlive-combined-full-2018/share/texmf/fonts/enc/dvips/fira/fir_7gpamp.enc" 1 2976 b279147a65cb94d459e33fcb61bb337f ""
  "/nix/store/km3sxf749m8r0xkcwi5ynhkygyaw1h9g-texlive-combined-full-2018/share/texmf/fonts/enc/dvips/fira/fir_junpg2.enc" 1 3384 41d2f0b52d5e282c9b9c081275970408 ""
  "/nix/store/km3sxf749m8r0xkcwi5ynhkygyaw1h9g-texlive-combined-full-2018/share/texmf/fonts/enc/dvips/lm/lm-ec.enc" 1 2375 baa924870cfb487815765f9094cf3728 ""
  "/nix/store/km3sxf749m8r0xkcwi5ynhkygyaw1h9g-texlive-combined-full-2018/share/texmf/fonts/enc/dvips/lm/lm-mathit.enc" 1 2405 5dcf2c1b967ee25cc46c58cd52244aed ""
  "/nix/store/km3sxf749m8r0xkcwi5ynhkygyaw1h9g-texlive-combined-full-2018/share/texmf/fonts/enc/dvips/lm/lm-mathsy.enc" 1 2840 216e6e45ad352e2456e1149f28885bee ""
  "/nix/store/km3sxf749m8r0xkcwi5ynhkygyaw1h9g-texlive-combined-full-2018/share/texmf/fonts/enc/dvips/lm/lm-rm.enc" 1 2327 9d6df24f9c4f7368395224341a95523a ""
  "/nix/store/km3sxf749m8r0xkcwi5ynhkygyaw1h9g-texlive-combined-full-2018/share/texmf/fonts/map/fontname/texfonts.map" 1 3332 103109f5612ad95229751940c61aada0 ""
  "/nix/store/km3sxf749m8r0xkcwi5ynhkygyaw1h9g-texlive-combined-full-2018/share/texmf/fonts/map/pdftex/updmap/pdftex.map" 1 3236089 282949a7460d16ea7d29ee68469d1f84 ""
  "/nix/store/km3sxf749m8r0xkcwi5ynhkygyaw1h9g-texlive-combined-full-2018/share/texmf/fonts/tfm/jknappen/ec/ecss1000.tfm" 1 3584 ab55608ad377891510479d34d90acc46 ""
  "/nix/store/km3sxf749m8r0xkcwi5ynhkygyaw1h9g-texlive-combined-full-2018/share/texmf/fonts/tfm/public/amsfonts/symbols/msam10.tfm" 1 916 f87d7c45f9c908e672703b83b72241a3 ""
  "/nix/store/km3sxf749m8r0xkcwi5ynhkygyaw1h9g-texlive-combined-full-2018/share/texmf/fonts/tfm/public/amsfonts/symbols/msam5.tfm" 1 924 9904cf1d39e9767e7a3622f2a125a565 ""
  "/nix/store/km3sxf749m8r0xkcwi5ynhkygyaw1h9g-texlive-combined-full-2018/share/texmf/fonts/tfm/public/amsfonts/symbols/msam7.tfm" 1 928 2dc8d444221b7a635bb58038579b861a ""
  "/nix/store/km3sxf749m8r0xkcwi5ynhkygyaw1h9g-texlive-combined-full-2018/share/texmf/fonts/tfm/public/amsfonts/symbols/msbm10.tfm" 1 908 2921f8a10601f252058503cc6570e581 ""
  "/nix/store/km3sxf749m8r0xkcwi5ynhkygyaw1h9g-texlive-combined-full-2018/share/texmf/fonts/tfm/public/amsfonts/symbols/msbm5.tfm" 1 940 75ac932a52f80982a9f8ea75d03a34cf ""
  "/nix/store/km3sxf749m8r0xkcwi5ynhkygyaw1h9g-texlive-combined-full-2018/share/texmf/fonts/tfm/public/amsfonts/symbols/msbm7.tfm" 1 940 228d6584342e91276bf566bcf9716b83 ""
  "/nix/store/km3sxf749m8r0xkcwi5ynhkygyaw1h9g-texlive-combined-full-2018/share/texmf/fonts/tfm/public/cm/cmss10.tfm" 1 1316 b636689f1933f24d1294acdf6041daaa ""
  "/nix/store/km3sxf749m8r0xkcwi5ynhkygyaw1h9g-texlive-combined-full-2018/share/texmf/fonts/tfm/public/fira/FiraSans-Bold-osf-t1--base.tfm" 1 1788 f7d6506e99428b9ece62fb614674f17c ""
  "/nix/store/km3sxf749m8r0xkcwi5ynhkygyaw1h9g-texlive-combined-full-2018/share/texmf/fonts/tfm/public/fira/FiraSans-Bold-osf-t1.tfm" 1 59516 31501c8990cc0b25fe96570241c709e0 ""
  "/nix/store/km3sxf749m8r0xkcwi5ynhkygyaw1h9g-texlive-combined-full-2018/share/texmf/fonts/tfm/public/fira/FiraSans-Italic-osf-t1--base.tfm" 1 1884 5383a1e180318e8214814dfa4eb0a33e ""
  "/nix/store/km3sxf749m8r0xkcwi5ynhkygyaw1h9g-texlive-combined-full-2018/share/texmf/fonts/tfm/public/fira/FiraSans-Italic-osf-t1.tfm" 1 57416 69427132cb3d98fddb04a5ae9d2d4221 ""
  "/nix/store/km3sxf749m8r0xkcwi5ynhkygyaw1h9g-texlive-combined-full-2018/share/texmf/fonts/tfm/public/fira/FiraSans-Regular-osf-sc-t1.tfm" 1 50972 621168722a5e444a0255d8ac7ca55883 ""
  "/nix/store/km3sxf749m8r0xkcwi5ynhkygyaw1h9g-texlive-combined-full-2018/share/texmf/fonts/tfm/public/fira/FiraSans-Regular-osf-t1--base.tfm" 1 1748 cf0fef15345bfbaa84419508eb7eb7fc ""
  "/nix/store/km3sxf749m8r0xkcwi5ynhkygyaw1h9g-texlive-combined-full-2018/share/texmf/fonts/tfm/public/fira/FiraSans-Regular-osf-t1.tfm" 1 59468 de99ee219669f1ad3c3ce2025ddfb086 ""
  "/nix/store/km3sxf749m8r0xkcwi5ynhkygyaw1h9g-texlive-combined-full-2018/share/texmf/fonts/tfm/public/fira/FiraSans-Regular-osf-ts1--base.tfm" 1 1440 c09b09cf3dec0513ce48c4a3939f9026 ""
  "/nix/store/km3sxf749m8r0xkcwi5ynhkygyaw1h9g-texlive-combined-full-2018/share/texmf/fonts/tfm/public/fira/FiraSans-Regular-osf-ts1.tfm" 1 1480 0cae6498af76740e2ad68085438f092c ""
  "/nix/store/km3sxf749m8r0xkcwi5ynhkygyaw1h9g-texlive-combined-full-2018/share/texmf/fonts/tfm/public/lm/ec-lmr10.tfm" 1 12056 7e13df7fe4cbce21b072ba7c4f4deb6e ""
  "/nix/store/km3sxf749m8r0xkcwi5ynhkygyaw1h9g-texlive-combined-full-2018/share/texmf/fonts/tfm/public/lm/ec-lmr12.tfm" 1 12092 7b1546e2d096cfd5dcbd4049b0b1ec2e ""
  "/nix/store/km3sxf749m8r0xkcwi5ynhkygyaw1h9g-texlive-combined-full-2018/share/texmf/fonts/tfm/public/lm/ec-lmr5.tfm" 1 12020 46464c854bf317de2a7a0bbe4a1160ca ""
  "/nix/store/km3sxf749m8r0xkcwi5ynhkygyaw1h9g-texlive-combined-full-2018/share/texmf/fonts/tfm/public/lm/ec-lmr6.tfm" 1 12048 c1068d0f4772be9b0ec447692e1d6d82 ""
  "/nix/store/km3sxf749m8r0xkcwi5ynhkygyaw1h9g-texlive-combined-full-2018/share/texmf/fonts/tfm/public/lm/ec-lmr7.tfm" 1 12064 09aa3eeac96bf141d673bb1b0385ce55 ""
  "/nix/store/km3sxf749m8r0xkcwi5ynhkygyaw1h9g-texlive-combined-full-2018/share/texmf/fonts/tfm/public/lm/ec-lmr8.tfm" 1 12064 a35db870f0b76c338d749c56dc030ef5 ""
  "/nix/store/km3sxf749m8r0xkcwi5ynhkygyaw1h9g-texlive-combined-full-2018/share/texmf/fonts/tfm/public/lm/ec-lmr9.tfm" 1 12084 b7f5e4c003de6f57f07c7e9fee73a37c ""
  "/nix/store/km3sxf749m8r0xkcwi5ynhkygyaw1h9g-texlive-combined-full-2018/share/texmf/fonts/tfm/public/lm/ec-lmss10.tfm" 1 11176 53ebf7a171df1f9447b387b178768bb5 ""
  "/nix/store/km3sxf749m8r0xkcwi5ynhkygyaw1h9g-texlive-combined-full-2018/share/texmf/fonts/tfm/public/lm/ec-lmss12.tfm" 1 11232 955a7245396175d9219648eadc654ac9 ""
  "/nix/store/km3sxf749m8r0xkcwi5ynhkygyaw1h9g-texlive-combined-full-2018/share/texmf/fonts/tfm/public/lm/ec-lmss8.tfm" 1 11180 705632ac6b4fb69204ad970192cdf4e5 ""
  "/nix/store/km3sxf749m8r0xkcwi5ynhkygyaw1h9g-texlive-combined-full-2018/share/texmf/fonts/tfm/public/lm/ec-lmss9.tfm" 1 11204 6ae1acdb5c7b9e57dc25853230e3cdae ""
  "/nix/store/km3sxf749m8r0xkcwi5ynhkygyaw1h9g-texlive-combined-full-2018/share/texmf/fonts/tfm/public/lm/ec-lmsso10.tfm" 1 11316 701b7748a8cc1abea04b4bcc027674ae ""
  "/nix/store/km3sxf749m8r0xkcwi5ynhkygyaw1h9g-texlive-combined-full-2018/share/texmf/fonts/tfm/public/lm/ec-lmsso12.tfm" 1 11352 d9e290eeb53800a380f9d1e4c40ad6c8 ""
  "/nix/store/km3sxf749m8r0xkcwi5ynhkygyaw1h9g-texlive-combined-full-2018/share/texmf/fonts/tfm/public/lm/ec-lmsso8.tfm" 1 11312 6908420b41cb9ad797e206f7391721ea ""
  "/nix/store/km3sxf749m8r0xkcwi5ynhkygyaw1h9g-texlive-combined-full-2018/share/texmf/fonts/tfm/public/lm/ec-lmsso9.tfm" 1 11340 e41cf3cafd4865c26a5ddb8787023b13 ""
  "/nix/store/km3sxf749m8r0xkcwi5ynhkygyaw1h9g-texlive-combined-full-2018/share/texmf/fonts/tfm/public/lm/lmex10.tfm" 1 992 ce925c9346c7613270a79afbee98c070 ""
  "/nix/store/km3sxf749m8r0xkcwi5ynhkygyaw1h9g-texlive-combined-full-2018/share/texmf/fonts/tfm/public/lm/lmmi10.tfm" 1 1528 6d36b2385e0ca062a654de6ac59cb34f ""
  "/nix/store/km3sxf749m8r0xkcwi5ynhkygyaw1h9g-texlive-combined-full-2018/share/texmf/fonts/tfm/public/lm/lmmi12.tfm" 1 1524 753b192b18f2991794f9d41a8228510b ""
  "/nix/store/km3sxf749m8r0xkcwi5ynhkygyaw1h9g-texlive-combined-full-2018/share/texmf/fonts/tfm/public/lm/lmmi5.tfm" 1 1508 198f5b7b99b5769126de3a533f6fc334 ""
  "/nix/store/km3sxf749m8r0xkcwi5ynhkygyaw1h9g-texlive-combined-full-2018/share/texmf/fonts/tfm/public/lm/lmmi6.tfm" 1 1512 94a3fd88c6f27dbd9ecb46987e297a4e ""
  "/nix/store/km3sxf749m8r0xkcwi5ynhkygyaw1h9g-texlive-combined-full-2018/share/texmf/fonts/tfm/public/lm/lmmi7.tfm" 1 1528 d5b028dd23da623848ef0645c96a1ed7 ""
  "/nix/store/km3sxf749m8r0xkcwi5ynhkygyaw1h9g-texlive-combined-full-2018/share/texmf/fonts/tfm/public/lm/lmmi8.tfm" 1 1520 a3fe5596932db2db2cbda300920dd4e9 ""
  "/nix/store/km3sxf749m8r0xkcwi5ynhkygyaw1h9g-texlive-combined-full-2018/share/texmf/fonts/tfm/public/lm/lmmi9.tfm" 1 1524 cdf05765c2a8bdb569ea0aa208fb0947 ""
  "/nix/store/km3sxf749m8r0xkcwi5ynhkygyaw1h9g-texlive-combined-full-2018/share/texmf/fonts/tfm/public/lm/lmsy10.tfm" 1 1308 02cc510f9dd6012e5815d0c0ffbf6869 ""
  "/nix/store/km3sxf749m8r0xkcwi5ynhkygyaw1h9g-texlive-combined-full-2018/share/texmf/fonts/tfm/public/lm/lmsy5.tfm" 1 1296 54ed1a711e2303d5282575278e3620b0 ""
  "/nix/store/km3sxf749m8r0xkcwi5ynhkygyaw1h9g-texlive-combined-full-2018/share/texmf/fonts/tfm/public/lm/lmsy6.tfm" 1 1300 b0605d44c16c22d99dc001808e4f24ea ""
  "/nix/store/km3sxf749m8r0xkcwi5ynhkygyaw1h9g-texlive-combined-full-2018/share/texmf/fonts/tfm/public/lm/lmsy7.tfm" 1 1304 32f22a15acc296b2a4e15698403dcb88 ""
  "/nix/store/km3sxf749m8r0xkcwi5ynhkygyaw1h9g-texlive-combined-full-2018/share/texmf/fonts/tfm/public/lm/lmsy8.tfm" 1 1304 cdc9a17df9ef0d2dc320eff37bbab1c4 ""
  "/nix/store/km3sxf749m8r0xkcwi5ynhkygyaw1h9g-texlive-combined-full-2018/share/texmf/fonts/tfm/public/lm/lmsy9.tfm" 1 1300 ca37bc0213808d24f74bf4d32f81f80d ""
  "/nix/store/km3sxf749m8r0xkcwi5ynhkygyaw1h9g-texlive-combined-full-2018/share/texmf/fonts/tfm/public/lm/rm-lmss10.tfm" 1 10976 59d4d2acacc56ba9abc92645023932ec ""
  "/nix/store/km3sxf749m8r0xkcwi5ynhkygyaw1h9g-texlive-combined-full-2018/share/texmf/fonts/tfm/public/lm/rm-lmss12.tfm" 1 11024 7a83ae8920360cd8bd5d0289069119dc ""
  "/nix/store/km3sxf749m8r0xkcwi5ynhkygyaw1h9g-texlive-combined-full-2018/share/texmf/fonts/tfm/public/lm/rm-lmss8.tfm" 1 10976 d5243dcaf5ba5ee7825c8438c6b7a7ea ""
  "/nix/store/km3sxf749m8r0xkcwi5ynhkygyaw1h9g-texlive-combined-full-2018/share/texmf/fonts/tfm/public/lm/rm-lmss9.tfm" 1 11004 a6c4e1a908f2608664e4229dbcec5884 ""
  "/nix/store/km3sxf749m8r0xkcwi5ynhkygyaw1h9g-texlive-combined-full-2018/share/texmf/fonts/type1/public/fira/FiraSans-Bold.pfb" 1 419500 0cf3165fd52da54c013c0d6bc4ff7f99 ""
  "/nix/store/km3sxf749m8r0xkcwi5ynhkygyaw1h9g-texlive-combined-full-2018/share/texmf/fonts/type1/public/fira/FiraSans-Italic.pfb" 1 403490 dcd9a23cc37e0fc1847d0e9b1bef52c3 ""
  "/nix/store/km3sxf749m8r0xkcwi5ynhkygyaw1h9g-texlive-combined-full-2018/share/texmf/fonts/type1/public/fira/FiraSans-Regular.pfb" 1 394170 4aabd3d144d7a7c7260b1c1d44ef95a2 ""
  "/nix/store/km3sxf749m8r0xkcwi5ynhkygyaw1h9g-texlive-combined-full-2018/share/texmf/fonts/type1/public/lm/lmmi10.pfb" 1 30388 702fae6a5f0e6e9c48a1d872b442ffcf ""
  "/nix/store/km3sxf749m8r0xkcwi5ynhkygyaw1h9g-texlive-combined-full-2018/share/texmf/fonts/type1/public/lm/lmmi6.pfb" 1 31113 04b711c9a4c7f8cb4ed784c6fc4cc1c5 ""
  "/nix/store/km3sxf749m8r0xkcwi5ynhkygyaw1h9g-texlive-combined-full-2018/share/texmf/fonts/type1/public/lm/lmmi9.pfb" 1 30698 e53a423459271d6c5cdd91f7559396af ""
  "/nix/store/km3sxf749m8r0xkcwi5ynhkygyaw1h9g-texlive-combined-full-2018/share/texmf/fonts/type1/public/lm/lmr10.pfb" 1 119235 f35b44530a1d90eb90fe15d9cba67ea0 ""
  "/nix/store/km3sxf749m8r0xkcwi5ynhkygyaw1h9g-texlive-combined-full-2018/share/texmf/fonts/type1/public/lm/lmss10.pfb" 1 97408 f595704ec2a07246c2d6f7b602587452 ""
  "/nix/store/km3sxf749m8r0xkcwi5ynhkygyaw1h9g-texlive-combined-full-2018/share/texmf/fonts/type1/public/lm/lmss8.pfb" 1 94400 e33ecfb646a9f148e2e53da01a9168fe ""
  "/nix/store/km3sxf749m8r0xkcwi5ynhkygyaw1h9g-texlive-combined-full-2018/share/texmf/fonts/type1/public/lm/lmss9.pfb" 1 95954 039cb8d6009e8fc5ea194e3e167ecc5f ""
  "/nix/store/km3sxf749m8r0xkcwi5ynhkygyaw1h9g-texlive-combined-full-2018/share/texmf/fonts/type1/public/lm/lmsso10.pfb" 1 108953 1f7b36ba493bc956ac3c5eab8852ab76 ""
  "/nix/store/km3sxf749m8r0xkcwi5ynhkygyaw1h9g-texlive-combined-full-2018/share/texmf/fonts/type1/public/lm/lmsso8.pfb" 1 106860 a773e4958b589eadcc5b01a914624508 ""
  "/nix/store/km3sxf749m8r0xkcwi5ynhkygyaw1h9g-texlive-combined-full-2018/share/texmf/fonts/type1/public/lm/lmsso9.pfb" 1 106652 ff05a0e8c2fd1774314bcad2c26aa3e8 ""
  "/nix/store/km3sxf749m8r0xkcwi5ynhkygyaw1h9g-texlive-combined-full-2018/share/texmf/fonts/type1/public/lm/lmsy10.pfb" 1 27863 09ce3735688ffde955e72da27c95b61a ""
  "/nix/store/km3sxf749m8r0xkcwi5ynhkygyaw1h9g-texlive-combined-full-2018/share/texmf/fonts/type1/public/lm/lmsy6.pfb" 1 28109 6d61305ed3d0eb794ebe36f15cf44aa0 ""
  "/nix/store/km3sxf749m8r0xkcwi5ynhkygyaw1h9g-texlive-combined-full-2018/share/texmf/fonts/type1/public/lm/lmsy7.pfb" 1 27941 d1f5d03f61a46c3fcc3a2ba904ddda52 ""
  "/nix/store/km3sxf749m8r0xkcwi5ynhkygyaw1h9g-texlive-combined-full-2018/share/texmf/fonts/type1/public/lm/lmsy9.pfb" 1 27835 16c2fa83351d4ef8cf5aebfab8a44bc1 ""
  "/nix/store/km3sxf749m8r0xkcwi5ynhkygyaw1h9g-texlive-combined-full-2018/share/texmf/fonts/vf/public/fira/FiraSans-Bold-osf-t1.vf" 1 1760 96eabdaa4134941351571fb07885388d ""
  "/nix/store/km3sxf749m8r0xkcwi5ynhkygyaw1h9g-texlive-combined-full-2018/share/texmf/fonts/vf/public/fira/FiraSans-Italic-osf-t1.vf" 1 1764 70e84910b3cc129b0869391ba34a979c ""
  "/nix/store/km3sxf749m8r0xkcwi5ynhkygyaw1h9g-texlive-combined-full-2018/share/texmf/fonts/vf/public/fira/FiraSans-Regular-osf-t1.vf" 1 1764 d27af20b0e76e34d91342919cd4a9937 ""
  "/nix/store/km3sxf749m8r0xkcwi5ynhkygyaw1h9g-texlive-combined-full-2018/share/texmf/fonts/vf/public/fira/FiraSans-Regular-osf-ts1.vf" 1 612 e72c8fe42b3ea708a8fd15c7f625f624 ""
  "/nix/store/km3sxf749m8r0xkcwi5ynhkygyaw1h9g-texlive-combined-full-2018/share/texmf/tex/context/base/mkii/supp-pdf.mkii" 1 71627 94eb9990bed73c364d7f53f960cc8c5b ""
  "/nix/store/km3sxf749m8r0xkcwi5ynhkygyaw1h9g-texlive-combined-full-2018/share/texmf/tex/generic/babel-french/french.ldf" 1 67191 9e6e0be5e07f3612bd366551a79d98d8 ""
  "/nix/store/km3sxf749m8r0xkcwi5ynhkygyaw1h9g-texlive-combined-full-2018/share/texmf/tex/generic/babel/babel.def" 1 74097 730193adbb112990f38051a05f35ac11 ""
  "/nix/store/km3sxf749m8r0xkcwi5ynhkygyaw1h9g-texlive-combined-full-2018/share/texmf/tex/generic/babel/babel.sty" 1 16329 4c42e43c85185e6cb0936a628ade375c ""
  "/nix/store/km3sxf749m8r0xkcwi5ynhkygyaw1h9g-texlive-combined-full-2018/share/texmf/tex/generic/babel/switch.def" 1 13310 fcb0ad08386d450f0c718feed9fe2fee ""
  "/nix/store/km3sxf749m8r0xkcwi5ynhkygyaw1h9g-texlive-combined-full-2018/share/texmf/tex/generic/babel/txtbabel.def" 1 7435 6c566fc19b3503b2b2da8bb4550f2b58 ""
  "/nix/store/km3sxf749m8r0xkcwi5ynhkygyaw1h9g-texlive-combined-full-2018/share/texmf/tex/generic/ifxetex/ifxetex.sty" 1 1458 43ab4710dc82f3edeabecd0d099626b2 ""
  "/nix/store/km3sxf749m8r0xkcwi5ynhkygyaw1h9g-texlive-combined-full-2018/share/texmf/tex/generic/oberdiek/atbegshi.sty" 1 24580 144573175d90c8e36676f97ae1d11ec2 ""
  "/nix/store/km3sxf749m8r0xkcwi5ynhkygyaw1h9g-texlive-combined-full-2018/share/texmf/tex/generic/oberdiek/gettitlestring.sty" 1 8237 3b62ef1f7e2c23a328c814b3893bc11f ""
  "/nix/store/km3sxf749m8r0xkcwi5ynhkygyaw1h9g-texlive-combined-full-2018/share/texmf/tex/generic/oberdiek/hobsub-generic.sty" 1 185392 b99a6d53180e04300c35e18725f31231 ""
  "/nix/store/km3sxf749m8r0xkcwi5ynhkygyaw1h9g-texlive-combined-full-2018/share/texmf/tex/generic/oberdiek/hobsub-hyperref.sty" 1 70864 bcd5b216757bd619ae692a151d90085d ""
  "/nix/store/km3sxf749m8r0xkcwi5ynhkygyaw1h9g-texlive-combined-full-2018/share/texmf/tex/generic/oberdiek/ifpdf.sty" 1 1300 96620a7d94bc0ceb261d968770ce8315 ""
  "/nix/store/km3sxf749m8r0xkcwi5ynhkygyaw1h9g-texlive-combined-full-2018/share/texmf/tex/generic/oberdiek/ifvtex.sty" 1 6797 90b7f83b0ad46826bc16058b1e3d48df ""
  "/nix/store/km3sxf749m8r0xkcwi5ynhkygyaw1h9g-texlive-combined-full-2018/share/texmf/tex/generic/oberdiek/infwarerr.sty" 1 8253 473e0e41f9adadb1977e8631b8f72ea6 ""
  "/nix/store/km3sxf749m8r0xkcwi5ynhkygyaw1h9g-texlive-combined-full-2018/share/texmf/tex/generic/oberdiek/ltxcmds.sty" 1 18425 5b3c0c59d76fac78978b5558e83c1f36 ""
  "/nix/store/km3sxf749m8r0xkcwi5ynhkygyaw1h9g-texlive-combined-full-2018/share/texmf/tex/generic/pgf/basiclayer/pgfcore.code.tex" 1 969 03f6c464fd951d8725b3a4959f4c6de0 ""
  "/nix/store/km3sxf749m8r0xkcwi5ynhkygyaw1h9g-texlive-combined-full-2018/share/texmf/tex/generic/pgf/basiclayer/pgfcorearrows.code.tex" 1 43820 bc6cf5aa959817914ace33f5c6232161 ""
  "/nix/store/km3sxf749m8r0xkcwi5ynhkygyaw1h9g-texlive-combined-full-2018/share/texmf/tex/generic/pgf/basiclayer/pgfcoreexternal.code.tex" 1 19327 d5d8b64d8e8902e0467e95a8e7c7696a ""
  "/nix/store/km3sxf749m8r0xkcwi5ynhkygyaw1h9g-texlive-combined-full-2018/share/texmf/tex/generic/pgf/basiclayer/pgfcoregraphicstate.code.tex" 1 6038 d639d02574be9a72f3c602c2a3510e02 ""
  "/nix/store/km3sxf749m8r0xkcwi5ynhkygyaw1h9g-texlive-combined-full-2018/share/texmf/tex/generic/pgf/basiclayer/pgfcoreimage.code.tex" 1 6948 284bbe3c9a7ca0a826c1c03895e69b9f ""
  "/nix/store/km3sxf749m8r0xkcwi5ynhkygyaw1h9g-texlive-combined-full-2018/share/texmf/tex/generic/pgf/basiclayer/pgfcorelayers.code.tex" 1 4883 a6f3eb1f71d8c4affaf43a169828b043 ""
  "/nix/store/km3sxf749m8r0xkcwi5ynhkygyaw1h9g-texlive-combined-full-2018/share/texmf/tex/generic/pgf/basiclayer/pgfcoreobjects.code.tex" 1 2544 3b1b198fd49f01e328adc9162a07b213 ""
  "/nix/store/km3sxf749m8r0xkcwi5ynhkygyaw1h9g-texlive-combined-full-2018/share/texmf/tex/generic/pgf/basiclayer/pgfcorepathconstruct.code.tex" 1 44195 134d5eb267e64d2a6b6dc75008e7c5fd ""
  "/nix/store/km3sxf749m8r0xkcwi5ynhkygyaw1h9g-texlive-combined-full-2018/share/texmf/tex/generic/pgf/basiclayer/pgfcorepathprocessing.code.tex" 1 17311 3092579be20ef0f229c42ad3f09da85c ""
  "/nix/store/km3sxf749m8r0xkcwi5ynhkygyaw1h9g-texlive-combined-full-2018/share/texmf/tex/generic/pgf/basiclayer/pgfcorepathusage.code.tex" 1 21302 d6c4b340248adbe650ebf6ca76bdccca ""
  "/nix/store/km3sxf749m8r0xkcwi5ynhkygyaw1h9g-texlive-combined-full-2018/share/texmf/tex/generic/pgf/basiclayer/pgfcorepatterns.code.tex" 1 9541 9d1ee06aeaf948a30f150e450eb2d944 ""
  "/nix/store/km3sxf749m8r0xkcwi5ynhkygyaw1h9g-texlive-combined-full-2018/share/texmf/tex/generic/pgf/basiclayer/pgfcorepoints.code.tex" 1 35255 97ed2fc851a68f753ba47b7329c64cd6 ""
  "/nix/store/km3sxf749m8r0xkcwi5ynhkygyaw1h9g-texlive-combined-full-2018/share/texmf/tex/generic/pgf/basiclayer/pgfcorequick.code.tex" 1 2965 502761b60f43ab2de5ecb2f4625163ae ""
  "/nix/store/km3sxf749m8r0xkcwi5ynhkygyaw1h9g-texlive-combined-full-2018/share/texmf/tex/generic/pgf/basiclayer/pgfcorerdf.code.tex" 1 5196 f8c5c775d4d6e2cb050392127cabda72 ""
  "/nix/store/km3sxf749m8r0xkcwi5ynhkygyaw1h9g-texlive-combined-full-2018/share/texmf/tex/generic/pgf/basiclayer/pgfcorescopes.code.tex" 1 20769 880132a4052c1f4e99080e076592048d ""
  "/nix/store/km3sxf749m8r0xkcwi5ynhkygyaw1h9g-texlive-combined-full-2018/share/texmf/tex/generic/pgf/basiclayer/pgfcoreshade.code.tex" 1 21441 8406a93495c4d3eb13cc93ff27ed5594 ""
  "/nix/store/km3sxf749m8r0xkcwi5ynhkygyaw1h9g-texlive-combined-full-2018/share/texmf/tex/generic/pgf/basiclayer/pgfcoretransformations.code.tex" 1 21989 266e83c51fe41eb8b8d5e6896dc71cc1 ""
  "/nix/store/km3sxf749m8r0xkcwi5ynhkygyaw1h9g-texlive-combined-full-2018/share/texmf/tex/generic/pgf/basiclayer/pgfcoretransparency.code.tex" 1 8842 5cc856e132fac404805c6da091779283 ""
  "/nix/store/km3sxf749m8r0xkcwi5ynhkygyaw1h9g-texlive-combined-full-2018/share/texmf/tex/generic/pgf/frontendlayer/tikz/libraries/tikzlibrarytopaths.code.tex" 1 11605 3cfbfe82478675de992de878ae30cba4 ""
  "/nix/store/km3sxf749m8r0xkcwi5ynhkygyaw1h9g-texlive-combined-full-2018/share/texmf/tex/generic/pgf/frontendlayer/tikz/tikz.code.tex" 1 183429 981b5b2f94d03d6b4fb30ea9ab9200c8 ""
  "/nix/store/km3sxf749m8r0xkcwi5ynhkygyaw1h9g-texlive-combined-full-2018/share/texmf/tex/generic/pgf/libraries/pgflibraryplothandlers.code.tex" 1 32995 a4d54c043ae5274ceaaddeb36ad43a6f ""
  "/nix/store/km3sxf749m8r0xkcwi5ynhkygyaw1h9g-texlive-combined-full-2018/share/texmf/tex/generic/pgf/math/pgfmath.code.tex" 1 520 910e22995dad318235ba8e2fb536bf3a ""
  "/nix/store/km3sxf749m8r0xkcwi5ynhkygyaw1h9g-texlive-combined-full-2018/share/texmf/tex/generic/pgf/math/pgfmathcalc.code.tex" 1 13416 940ea6971d7a65dc440d3479939c66ae ""
  "/nix/store/km3sxf749m8r0xkcwi5ynhkygyaw1h9g-texlive-combined-full-2018/share/texmf/tex/generic/pgf/math/pgfmathfloat.code.tex" 1 95102 474fa5793f7f3067e17a5df9b98218c1 ""
  "/nix/store/km3sxf749m8r0xkcwi5ynhkygyaw1h9g-texlive-combined-full-2018/share/texmf/tex/generic/pgf/math/pgfmathfunctions.base.code.tex" 1 9375 5adc70f722abd29fc250d59e0694b548 ""
  "/nix/store/km3sxf749m8r0xkcwi5ynhkygyaw1h9g-texlive-combined-full-2018/share/texmf/tex/generic/pgf/math/pgfmathfunctions.basic.code.tex" 1 22069 7c21c42b15718ce922f36235be360490 ""
  "/nix/store/km3sxf749m8r0xkcwi5ynhkygyaw1h9g-texlive-combined-full-2018/share/texmf/tex/generic/pgf/math/pgfmathfunctions.code.tex" 1 8210 a7be5b52ef3d2c087b7dc3d52898b67e ""
  "/nix/store/km3sxf749m8r0xkcwi5ynhkygyaw1h9g-texlive-combined-full-2018/share/texmf/tex/generic/pgf/math/pgfmathfunctions.comparison.code.tex" 1 3534 c7f28fbac13616513e513efe93b8569b ""
  "/nix/store/km3sxf749m8r0xkcwi5ynhkygyaw1h9g-texlive-combined-full-2018/share/texmf/tex/generic/pgf/math/pgfmathfunctions.integerarithmetics.code.tex" 1 3168 6189b7a28d77f4af65d3a14e7f03c083 ""
  "/nix/store/km3sxf749m8r0xkcwi5ynhkygyaw1h9g-texlive-combined-full-2018/share/texmf/tex/generic/pgf/math/pgfmathfunctions.misc.code.tex" 1 9289 261407875b9dbb0194691c3eb893610f ""
  "/nix/store/km3sxf749m8r0xkcwi5ynhkygyaw1h9g-texlive-combined-full-2018/share/texmf/tex/generic/pgf/math/pgfmathfunctions.random.code.tex" 1 7078 946ddf4a7e57219b6afdbad98eb6731b ""
  "/nix/store/km3sxf749m8r0xkcwi5ynhkygyaw1h9g-texlive-combined-full-2018/share/texmf/tex/generic/pgf/math/pgfmathfunctions.round.code.tex" 1 2942 88413c69264c367e851538882cebd4ab ""
  "/nix/store/km3sxf749m8r0xkcwi5ynhkygyaw1h9g-texlive-combined-full-2018/share/texmf/tex/generic/pgf/math/pgfmathfunctions.trigonometric.code.tex" 1 92284 dcf023dbaa84e6c50e11c2f79fe8cfa6 ""
  "/nix/store/km3sxf749m8r0xkcwi5ynhkygyaw1h9g-texlive-combined-full-2018/share/texmf/tex/generic/pgf/math/pgfmathparser.code.tex" 1 36120 4aaaf2a5a988fdb79e316766ce090110 ""
  "/nix/store/km3sxf749m8r0xkcwi5ynhkygyaw1h9g-texlive-combined-full-2018/share/texmf/tex/generic/pgf/math/pgfmathutil.code.tex" 1 7099 f44d505bae6c7c2b933cdd63441db4b9 ""
  "/nix/store/km3sxf749m8r0xkcwi5ynhkygyaw1h9g-texlive-combined-full-2018/share/texmf/tex/generic/pgf/modules/pgfmodulematrix.code.tex" 1 20850 69672e3a68af93b0052e22743ab29325 ""
  "/nix/store/km3sxf749m8r0xkcwi5ynhkygyaw1h9g-texlive-combined-full-2018/share/texmf/tex/generic/pgf/modules/pgfmoduleplot.code.tex" 1 16105 ad277a81d51151a43eada2f59e9c7f63 ""
  "/nix/store/km3sxf749m8r0xkcwi5ynhkygyaw1h9g-texlive-combined-full-2018/share/texmf/tex/generic/pgf/modules/pgfmoduleshapes.code.tex" 1 43225 550a85f34e942cf510108872e6d17824 ""
  "/nix/store/km3sxf749m8r0xkcwi5ynhkygyaw1h9g-texlive-combined-full-2018/share/texmf/tex/generic/pgf/pgf.revision.tex" 1 463 2e8ae5ae7338c3efc0d56a1c648a2938 ""
  "/nix/store/km3sxf749m8r0xkcwi5ynhkygyaw1h9g-texlive-combined-full-2018/share/texmf/tex/generic/pgf/systemlayer/pgf.cfg" 1 929 c7e63c9d336acc04681ebf5d5974ff79 ""
  "/nix/store/km3sxf749m8r0xkcwi5ynhkygyaw1h9g-texlive-combined-full-2018/share/texmf/tex/generic/pgf/systemlayer/pgfsys-common-pdf.def" 1 5554 eaa8269939dc6788f137cf082148c630 ""
  "/nix/store/km3sxf749m8r0xkcwi5ynhkygyaw1h9g-texlive-combined-full-2018/share/texmf/tex/generic/pgf/systemlayer/pgfsys-pdftex.def" 1 13467 81cbde9036aeefde6ced72c35f65a11e ""
  "/nix/store/km3sxf749m8r0xkcwi5ynhkygyaw1h9g-texlive-combined-full-2018/share/texmf/tex/generic/pgf/systemlayer/pgfsys.code.tex" 1 60336 26aaa566685b708e5bbad33b1fea85b6 ""
  "/nix/store/km3sxf749m8r0xkcwi5ynhkygyaw1h9g-texlive-combined-full-2018/share/texmf/tex/generic/pgf/systemlayer/pgfsysprotocol.code.tex" 1 1895 a804dfc15a55439296d72fd96ed29ac7 ""
  "/nix/store/km3sxf749m8r0xkcwi5ynhkygyaw1h9g-texlive-combined-full-2018/share/texmf/tex/generic/pgf/systemlayer/pgfsyssoftpath.code.tex" 1 7793 fb7bd1e1f7162b9073fa1d5356c99d44 ""
  "/nix/store/km3sxf749m8r0xkcwi5ynhkygyaw1h9g-texlive-combined-full-2018/share/texmf/tex/generic/pgf/utilities/pgffor.code.tex" 1 22321 e57de05109d919549a27eaaf05c180fc ""
  "/nix/store/km3sxf749m8r0xkcwi5ynhkygyaw1h9g-texlive-combined-full-2018/share/texmf/tex/generic/pgf/utilities/pgfkeys.code.tex" 1 36455 3b0b1cf51efce44b8791b93c27bbca48 ""
  "/nix/store/km3sxf749m8r0xkcwi5ynhkygyaw1h9g-texlive-combined-full-2018/share/texmf/tex/generic/pgf/utilities/pgfkeysfiltered.code.tex" 1 33347 679274d4aa67c6bc8f5f234caa49367d ""
  "/nix/store/km3sxf749m8r0xkcwi5ynhkygyaw1h9g-texlive-combined-full-2018/share/texmf/tex/generic/pgf/utilities/pgfrcs.code.tex" 1 2311 e273ccf1220640ccce91d49a21bd5eec ""
  "/nix/store/km3sxf749m8r0xkcwi5ynhkygyaw1h9g-texlive-combined-full-2018/share/texmf/tex/generic/pgf/utilities/pgfutil-common-lists.tex" 1 6833 114eda2cf1d348e0e7e477a1a4dc1941 ""
  "/nix/store/km3sxf749m8r0xkcwi5ynhkygyaw1h9g-texlive-combined-full-2018/share/texmf/tex/generic/pgf/utilities/pgfutil-common.tex" 1 26409 498c460a45ec6d31d3794cb500da29ed ""
  "/nix/store/km3sxf749m8r0xkcwi5ynhkygyaw1h9g-texlive-combined-full-2018/share/texmf/tex/generic/pgf/utilities/pgfutil-latex.def" 1 5845 c578abb59cb8ad0a9156fdb1b59cfa38 ""
  "/nix/store/km3sxf749m8r0xkcwi5ynhkygyaw1h9g-texlive-combined-full-2018/share/texmf/tex/generic/xkeyval/xkeyval.tex" 1 19231 26434a5656c684f5ffb1f26f98006baa ""
  "/nix/store/km3sxf749m8r0xkcwi5ynhkygyaw1h9g-texlive-combined-full-2018/share/texmf/tex/generic/xkeyval/xkvutils.tex" 1 7677 6f5ce7c1124cad7ec57d05b2562bd8fe ""
  "/nix/store/km3sxf749m8r0xkcwi5ynhkygyaw1h9g-texlive-combined-full-2018/share/texmf/tex/generic/xstring/xstring.sty" 1 123 a302f2c651a95033260db60e51527ae8 ""
  "/nix/store/km3sxf749m8r0xkcwi5ynhkygyaw1h9g-texlive-combined-full-2018/share/texmf/tex/generic/xstring/xstring.tex" 1 47762 87512aefe2c24c8c3ff58ba167aba4d9 ""
  "/nix/store/km3sxf749m8r0xkcwi5ynhkygyaw1h9g-texlive-combined-full-2018/share/texmf/tex/latex/adjustbox/adjcalc.sty" 1 5608 e823b3adfbc2ea70e453a21ea6e2ee12 ""
  "/nix/store/km3sxf749m8r0xkcwi5ynhkygyaw1h9g-texlive-combined-full-2018/share/texmf/tex/latex/adjustbox/adjustbox.sty" 1 55974 e90ddd9a6114a7008a6915da904f2847 ""
  "/nix/store/km3sxf749m8r0xkcwi5ynhkygyaw1h9g-texlive-combined-full-2018/share/texmf/tex/latex/adjustbox/tc-pdftex.def" 1 4061 aa67e478bd1a58a42e026c354f10b158 ""
  "/nix/store/km3sxf749m8r0xkcwi5ynhkygyaw1h9g-texlive-combined-full-2018/share/texmf/tex/latex/adjustbox/trimclip.sty" 1 7142 42aaa49a4afcdc52e9d95e3b19f439be ""
  "/nix/store/km3sxf749m8r0xkcwi5ynhkygyaw1h9g-texlive-combined-full-2018/share/texmf/tex/latex/algorithm2e/algorithm2e.sty" 1 167160 d91cee26d3ef5727644d2110445741dd ""
  "/nix/store/km3sxf749m8r0xkcwi5ynhkygyaw1h9g-texlive-combined-full-2018/share/texmf/tex/latex/amscls/amsthm.sty" 1 12604 3dec726c041422879dc3268237f09026 ""
  "/nix/store/km3sxf749m8r0xkcwi5ynhkygyaw1h9g-texlive-combined-full-2018/share/texmf/tex/latex/amsfonts/amsfonts.sty" 1 5949 3f3fd50a8cc94c3d4cbf4fc66cd3df1c ""
  "/nix/store/km3sxf749m8r0xkcwi5ynhkygyaw1h9g-texlive-combined-full-2018/share/texmf/tex/latex/amsfonts/amssymb.sty" 1 13829 94730e64147574077f8ecfea9bb69af4 ""
  "/nix/store/km3sxf749m8r0xkcwi5ynhkygyaw1h9g-texlive-combined-full-2018/share/texmf/tex/latex/amsfonts/umsa.fd" 1 961 6518c6525a34feb5e8250ffa91731cff ""
  "/nix/store/km3sxf749m8r0xkcwi5ynhkygyaw1h9g-texlive-combined-full-2018/share/texmf/tex/latex/amsfonts/umsb.fd" 1 961 d02606146ba5601b5645f987c92e6193 ""
  "/nix/store/km3sxf749m8r0xkcwi5ynhkygyaw1h9g-texlive-combined-full-2018/share/texmf/tex/latex/amsmath/amsbsy.sty" 1 2211 ca7ce284ab93c8eecdc6029dc5ccbd73 ""
  "/nix/store/km3sxf749m8r0xkcwi5ynhkygyaw1h9g-texlive-combined-full-2018/share/texmf/tex/latex/amsmath/amsgen.sty" 1 4161 7f6eb9092061a11f87d08ed13515b48d ""
  "/nix/store/km3sxf749m8r0xkcwi5ynhkygyaw1h9g-texlive-combined-full-2018/share/texmf/tex/latex/amsmath/amsmath.sty" 1 85093 77cfa18ddbae4d9b74ade33d843686d3 ""
  "/nix/store/km3sxf749m8r0xkcwi5ynhkygyaw1h9g-texlive-combined-full-2018/share/texmf/tex/latex/amsmath/amsopn.sty" 1 4116 32e6abd27229755a83a8b7f18e583890 ""
  "/nix/store/km3sxf749m8r0xkcwi5ynhkygyaw1h9g-texlive-combined-full-2018/share/texmf/tex/latex/amsmath/amstext.sty" 1 2432 8ff93b1137020e8f21930562a874ae66 ""
  "/nix/store/km3sxf749m8r0xkcwi5ynhkygyaw1h9g-texlive-combined-full-2018/share/texmf/tex/latex/base/fontenc.sty" 1 4573 e9e01f5b11821a77b916dad378cb86b8 ""
  "/nix/store/km3sxf749m8r0xkcwi5ynhkygyaw1h9g-texlive-combined-full-2018/share/texmf/tex/latex/base/ifthen.sty" 1 5161 c004ea5a189d4bdcf42e86754ad75a58 ""
  "/nix/store/km3sxf749m8r0xkcwi5ynhkygyaw1h9g-texlive-combined-full-2018/share/texmf/tex/latex/base/size10.clo" 1 8294 6d6e23d5169c0d89d173f6c7e08a005a ""
  "/nix/store/km3sxf749m8r0xkcwi5ynhkygyaw1h9g-texlive-combined-full-2018/share/texmf/tex/latex/base/t1enc.def" 1 10689 ce0f2353f9a1f42b29f591f3fe8e040a ""
  "/nix/store/km3sxf749m8r0xkcwi5ynhkygyaw1h9g-texlive-combined-full-2018/share/texmf/tex/latex/base/textcomp.sty" 1 16156 a293f9cfd4f8552bb5d1028389f53e72 ""
  "/nix/store/km3sxf749m8r0xkcwi5ynhkygyaw1h9g-texlive-combined-full-2018/share/texmf/tex/latex/base/ts1cmr.fd" 1 2433 cdefd2509a12ba58001f2024f63aae9a ""
  "/nix/store/km3sxf749m8r0xkcwi5ynhkygyaw1h9g-texlive-combined-full-2018/share/texmf/tex/latex/base/ts1enc.def" 1 7769 97b639552068544f7c98d557abb19f41 ""
  "/nix/store/km3sxf749m8r0xkcwi5ynhkygyaw1h9g-texlive-combined-full-2018/share/texmf/tex/latex/base/ts1enc.dfu" 1 4973 923be56c54607ca99f7cc085a8c7e52b ""
  "/nix/store/km3sxf749m8r0xkcwi5ynhkygyaw1h9g-texlive-combined-full-2018/share/texmf/tex/latex/beamer/beamer.cls" 1 11573 5b35b9d654f05067979dbfc280a9673f ""
  "/nix/store/km3sxf749m8r0xkcwi5ynhkygyaw1h9g-texlive-combined-full-2018/share/texmf/tex/latex/beamer/beamerbaseauxtemplates.sty" 1 22666 933c376468a06913d7754fc13742473c ""
  "/nix/store/km3sxf749m8r0xkcwi5ynhkygyaw1h9g-texlive-combined-full-2018/share/texmf/tex/latex/beamer/beamerbaseboxes.sty" 1 8073 df5c1784673e960a504a7c1960c767d3 ""
  "/nix/store/km3sxf749m8r0xkcwi5ynhkygyaw1h9g-texlive-combined-full-2018/share/texmf/tex/latex/beamer/beamerbasecolor.sty" 1 12793 6f2def9b55e6a53b98e7dea4b75100f0 ""
  "/nix/store/km3sxf749m8r0xkcwi5ynhkygyaw1h9g-texlive-combined-full-2018/share/texmf/tex/latex/beamer/beamerbasecompatibility.sty" 1 24482 5f58e11864478c308dcf8c18243dcb94 ""
  "/nix/store/km3sxf749m8r0xkcwi5ynhkygyaw1h9g-texlive-combined-full-2018/share/texmf/tex/latex/beamer/beamerbasedecode.sty" 1 9240 de90db862ae929054f89916919b930f5 ""
  "/nix/store/km3sxf749m8r0xkcwi5ynhkygyaw1h9g-texlive-combined-full-2018/share/texmf/tex/latex/beamer/beamerbasefont.sty" 1 13569 d8a4a4071b0e63f9a4cf8ae3c68b7e7e ""
  "/nix/store/km3sxf749m8r0xkcwi5ynhkygyaw1h9g-texlive-combined-full-2018/share/texmf/tex/latex/beamer/beamerbaseframe.sty" 1 25064 124b5dcb5d6faf6e68fcc1ad440a6d62 ""
  "/nix/store/km3sxf749m8r0xkcwi5ynhkygyaw1h9g-texlive-combined-full-2018/share/texmf/tex/latex/beamer/beamerbaseframecomponents.sty" 1 11898 264f0ae03dbfa791611c1821393bc0b9 ""
  "/nix/store/km3sxf749m8r0xkcwi5ynhkygyaw1h9g-texlive-combined-full-2018/share/texmf/tex/latex/beamer/beamerbaseframesize.sty" 1 8800 544bcf1a583ad768d77d8b1d8f18a993 ""
  "/nix/store/km3sxf749m8r0xkcwi5ynhkygyaw1h9g-texlive-combined-full-2018/share/texmf/tex/latex/beamer/beamerbaselocalstructure.sty" 1 16614 2e69cf5b3d63b11e49e97cee676b8922 ""
  "/nix/store/km3sxf749m8r0xkcwi5ynhkygyaw1h9g-texlive-combined-full-2018/share/texmf/tex/latex/beamer/beamerbasemisc.sty" 1 8313 358d4bb860bd9098eb24099f36b27af1 ""
  "/nix/store/km3sxf749m8r0xkcwi5ynhkygyaw1h9g-texlive-combined-full-2018/share/texmf/tex/latex/beamer/beamerbasemodes.sty" 1 7493 bfb4c812c60867c1a9060a306fdd3434 ""
  "/nix/store/km3sxf749m8r0xkcwi5ynhkygyaw1h9g-texlive-combined-full-2018/share/texmf/tex/latex/beamer/beamerbasenavigation.sty" 1 29020 6cae2187b2d2bc4f39b6bb5bddbcf031 ""
  "/nix/store/km3sxf749m8r0xkcwi5ynhkygyaw1h9g-texlive-combined-full-2018/share/texmf/tex/latex/beamer/beamerbasenotes.sty" 1 5390 d7041ac8a075e278eae1edc415813528 ""
  "/nix/store/km3sxf749m8r0xkcwi5ynhkygyaw1h9g-texlive-combined-full-2018/share/texmf/tex/latex/beamer/beamerbaseoptions.sty" 1 1753 c10ec1df45e4b4c7ee05e306d23f95d7 ""
  "/nix/store/km3sxf749m8r0xkcwi5ynhkygyaw1h9g-texlive-combined-full-2018/share/texmf/tex/latex/beamer/beamerbaseoverlay.sty" 1 27030 515a945e010680cce3b317f59eaaf081 ""
  "/nix/store/km3sxf749m8r0xkcwi5ynhkygyaw1h9g-texlive-combined-full-2018/share/texmf/tex/latex/beamer/beamerbaserequires.sty" 1 1593 48c3729494fa250d34789fd6af677f99 ""
  "/nix/store/km3sxf749m8r0xkcwi5ynhkygyaw1h9g-texlive-combined-full-2018/share/texmf/tex/latex/beamer/beamerbasesection.sty" 1 13463 17ce9c69ca9d65b18f2625010a24b63a ""
  "/nix/store/km3sxf749m8r0xkcwi5ynhkygyaw1h9g-texlive-combined-full-2018/share/texmf/tex/latex/beamer/beamerbasetemplates.sty" 1 5753 fbf8c2f7c7d6d5d1d2b900c353f094e8 ""
  "/nix/store/km3sxf749m8r0xkcwi5ynhkygyaw1h9g-texlive-combined-full-2018/share/texmf/tex/latex/beamer/beamerbasethemes.sty" 1 1140 cdaff8d445bd2a4e7afdec5190a758c0 ""
  "/nix/store/km3sxf749m8r0xkcwi5ynhkygyaw1h9g-texlive-combined-full-2018/share/texmf/tex/latex/beamer/beamerbasetheorems.sty" 1 4548 cdde9ae4b614ce5ea4cf7a232ceeb6a8 ""
  "/nix/store/km3sxf749m8r0xkcwi5ynhkygyaw1h9g-texlive-combined-full-2018/share/texmf/tex/latex/beamer/beamerbasetitle.sty" 1 5376 9cab91909d256f5e4e77783824e9d162 ""
  "/nix/store/km3sxf749m8r0xkcwi5ynhkygyaw1h9g-texlive-combined-full-2018/share/texmf/tex/latex/beamer/beamerbasetoc.sty" 1 7540 49f6c8ecb1955d667d1620733f995fe0 ""
  "/nix/store/km3sxf749m8r0xkcwi5ynhkygyaw1h9g-texlive-combined-full-2018/share/texmf/tex/latex/beamer/beamerbasetranslator.sty" 1 637 685bd3d40aca2fa87965a39bc31aca7f ""
  "/nix/store/km3sxf749m8r0xkcwi5ynhkygyaw1h9g-texlive-combined-full-2018/share/texmf/tex/latex/beamer/beamerbasetwoscreens.sty" 1 1408 93bead6e76a275002dbb9a319dc984d0 ""
  "/nix/store/km3sxf749m8r0xkcwi5ynhkygyaw1h9g-texlive-combined-full-2018/share/texmf/tex/latex/beamer/beamerbaseverbatim.sty" 1 4026 1ba2c6a2acf275d63cb85d60d8597fe8 ""
  "/nix/store/km3sxf749m8r0xkcwi5ynhkygyaw1h9g-texlive-combined-full-2018/share/texmf/tex/latex/beamer/beamercolorthemedefault.sty" 1 7089 c34bc77851d46db7348b94bd5e51168a ""
  "/nix/store/km3sxf749m8r0xkcwi5ynhkygyaw1h9g-texlive-combined-full-2018/share/texmf/tex/latex/beamer/beamerfontthemedefault.sty" 1 4236 21e590075d6781cc58fee783316ee268 ""
  "/nix/store/km3sxf749m8r0xkcwi5ynhkygyaw1h9g-texlive-combined-full-2018/share/texmf/tex/latex/beamer/beamericonarticle.20.pdf" 1 2958 4e0c4a6e994e5c4d9da11c477e927f0f ""
  "/nix/store/km3sxf749m8r0xkcwi5ynhkygyaw1h9g-texlive-combined-full-2018/share/texmf/tex/latex/beamer/beamericonarticle.pdf" 1 2936 6cc3ef0682cbb62be8aa1b19f0a84ed6 ""
  "/nix/store/km3sxf749m8r0xkcwi5ynhkygyaw1h9g-texlive-combined-full-2018/share/texmf/tex/latex/beamer/beamericonbook.20.pdf" 1 2734 0bcf939051dd2a936cdfe5982f7c233b ""
  "/nix/store/km3sxf749m8r0xkcwi5ynhkygyaw1h9g-texlive-combined-full-2018/share/texmf/tex/latex/beamer/beamericonbook.pdf" 1 2667 7624351b441ffe4bd2d14e08fbcf063d ""
  "/nix/store/km3sxf749m8r0xkcwi5ynhkygyaw1h9g-texlive-combined-full-2018/share/texmf/tex/latex/beamer/beamericononline.20.pdf" 1 24451 195d2c060e84f339954bc6d9b52131d7 ""
  "/nix/store/km3sxf749m8r0xkcwi5ynhkygyaw1h9g-texlive-combined-full-2018/share/texmf/tex/latex/beamer/beamericononline.pdf" 1 24611 df07010540266b2b205b492a4d02e7e1 ""
  "/nix/store/km3sxf749m8r0xkcwi5ynhkygyaw1h9g-texlive-combined-full-2018/share/texmf/tex/latex/beamer/beamerinnerthemedefault.sty" 1 13031 a33a15e4b12bfa976c11f59131636ea9 ""
  "/nix/store/km3sxf749m8r0xkcwi5ynhkygyaw1h9g-texlive-combined-full-2018/share/texmf/tex/latex/beamer/beamerouterthemedefault.sty" 1 6618 761972fa9fbe43712c2d449d60a84a2f ""
  "/nix/store/km3sxf749m8r0xkcwi5ynhkygyaw1h9g-texlive-combined-full-2018/share/texmf/tex/latex/beamer/beamerthemedefault.sty" 1 355 75c98e7b8f427eb7c625ed391b140c5b ""
  "/nix/store/km3sxf749m8r0xkcwi5ynhkygyaw1h9g-texlive-combined-full-2018/share/texmf/tex/latex/beamertheme-metropolis/beamercolorthememetropolis.sty" 1 3750 7e7cfc6c71dff25cd33e3fb508cbaa5e ""
  "/nix/store/km3sxf749m8r0xkcwi5ynhkygyaw1h9g-texlive-combined-full-2018/share/texmf/tex/latex/beamertheme-metropolis/beamerfontthememetropolis.sty" 1 10880 88a9a88527547d704813dbcac31381fa ""
  "/nix/store/km3sxf749m8r0xkcwi5ynhkygyaw1h9g-texlive-combined-full-2018/share/texmf/tex/latex/beamertheme-metropolis/beamerinnerthememetropolis.sty" 1 8829 ad323002a55dd42e2458af95a4d5c44b ""
  "/nix/store/km3sxf749m8r0xkcwi5ynhkygyaw1h9g-texlive-combined-full-2018/share/texmf/tex/latex/beamertheme-metropolis/beamerouterthememetropolis.sty" 1 4594 e7f8974bf37cd1714477369f4ea66d82 ""
  "/nix/store/km3sxf749m8r0xkcwi5ynhkygyaw1h9g-texlive-combined-full-2018/share/texmf/tex/latex/beamertheme-metropolis/beamerthememetropolis.sty" 1 3382 2a02717ce131dcdb3ba75ef05689736d ""
  "/nix/store/km3sxf749m8r0xkcwi5ynhkygyaw1h9g-texlive-combined-full-2018/share/texmf/tex/latex/caption/caption.sty" 1 68576 86bbc6bd5a409b3c353fccc1a815fa5b ""
  "/nix/store/km3sxf749m8r0xkcwi5ynhkygyaw1h9g-texlive-combined-full-2018/share/texmf/tex/latex/caption/caption3.sty" 1 68510 943558eecf41da4e76fc614fd7f5deff ""
  "/nix/store/km3sxf749m8r0xkcwi5ynhkygyaw1h9g-texlive-combined-full-2018/share/texmf/tex/latex/caption/subcaption.sty" 1 4851 d029892ba4eeaa22f58796af60cf1631 ""
  "/nix/store/km3sxf749m8r0xkcwi5ynhkygyaw1h9g-texlive-combined-full-2018/share/texmf/tex/latex/carlisle/scalefnt.sty" 1 1360 df2086bf924b14b72d6121fe9502fcdb ""
  "/nix/store/km3sxf749m8r0xkcwi5ynhkygyaw1h9g-texlive-combined-full-2018/share/texmf/tex/latex/collectbox/collectbox.sty" 1 9116 495d44b5a3e7be0c46c5d1f053f457f0 ""
  "/nix/store/km3sxf749m8r0xkcwi5ynhkygyaw1h9g-texlive-combined-full-2018/share/texmf/tex/latex/datetime/datetime-defaults.sty" 1 4105 4c80eaed8cd4f9a80cc6244c0adeb81f ""
  "/nix/store/km3sxf749m8r0xkcwi5ynhkygyaw1h9g-texlive-combined-full-2018/share/texmf/tex/latex/datetime/datetime.sty" 1 27587 b023ffe1328fa89e7f133201d87029de ""
  "/nix/store/km3sxf749m8r0xkcwi5ynhkygyaw1h9g-texlive-combined-full-2018/share/texmf/tex/latex/datetime/dt-french.def" 1 4511 953e8ff26763add5eca37143486f5f1f ""
  "/nix/store/km3sxf749m8r0xkcwi5ynhkygyaw1h9g-texlive-combined-full-2018/share/texmf/tex/latex/etoolbox/etoolbox.sty" 1 43865 f83cc2fa3767abdb988c7d2cd17c02bf ""
  "/nix/store/km3sxf749m8r0xkcwi5ynhkygyaw1h9g-texlive-combined-full-2018/share/texmf/tex/latex/filehook/filehook.sty" 1 12104 88bda8c1ae09e2b6dc29ed32629eafa1 ""
  "/nix/store/km3sxf749m8r0xkcwi5ynhkygyaw1h9g-texlive-combined-full-2018/share/texmf/tex/latex/fira/FiraMono.sty" 1 3968 38f390589cf907b26044ade721215fec ""
  "/nix/store/km3sxf749m8r0xkcwi5ynhkygyaw1h9g-texlive-combined-full-2018/share/texmf/tex/latex/fira/FiraSans.sty" 1 9370 ece54ce722676417c00668b74017d73a ""
  "/nix/store/km3sxf749m8r0xkcwi5ynhkygyaw1h9g-texlive-combined-full-2018/share/texmf/tex/latex/fira/T1FiraSans-OsF.fd" 1 7387 25f5c23f4e39811c785b185b04eae1f9 ""
  "/nix/store/km3sxf749m8r0xkcwi5ynhkygyaw1h9g-texlive-combined-full-2018/share/texmf/tex/latex/fira/TS1FiraSans-OsF.fd" 1 3856 2bed6afac54ed6023213c1b38225cd9a ""
  "/nix/store/km3sxf749m8r0xkcwi5ynhkygyaw1h9g-texlive-combined-full-2018/share/texmf/tex/latex/fmtcount/fc-french.def" 1 40436 53c545678db31c1a81306c330271ab5f ""
  "/nix/store/km3sxf749m8r0xkcwi5ynhkygyaw1h9g-texlive-combined-full-2018/share/texmf/tex/latex/fmtcount/fcnumparser.sty" 1 12338 3f721c3c576d5ed676913eb44445cd68 ""
  "/nix/store/km3sxf749m8r0xkcwi5ynhkygyaw1h9g-texlive-combined-full-2018/share/texmf/tex/latex/fmtcount/fcprefix.sty" 1 12047 8f869eb09b84f8680cbfd88467cd3e7d ""
  "/nix/store/km3sxf749m8r0xkcwi5ynhkygyaw1h9g-texlive-combined-full-2018/share/texmf/tex/latex/fmtcount/fmtcount.sty" 1 30770 0ac75d31ce75ec4ef54f1efe1c0ba7ba ""
  "/nix/store/km3sxf749m8r0xkcwi5ynhkygyaw1h9g-texlive-combined-full-2018/share/texmf/tex/latex/fontaxes/fontaxes.sty" 1 14170 4202cf11062745283a9a5fdc97c16c48 ""
  "/nix/store/km3sxf749m8r0xkcwi5ynhkygyaw1h9g-texlive-combined-full-2018/share/texmf/tex/latex/geometry/geometry.sty" 1 41645 0653033a985e06c69a2a9cea9a95e31a ""
  "/nix/store/km3sxf749m8r0xkcwi5ynhkygyaw1h9g-texlive-combined-full-2018/share/texmf/tex/latex/graphics-cfg/color.cfg" 1 1213 620bba36b25224fa9b7e1ccb4ecb76fd ""
  "/nix/store/km3sxf749m8r0xkcwi5ynhkygyaw1h9g-texlive-combined-full-2018/share/texmf/tex/latex/graphics-cfg/graphics.cfg" 1 1224 978390e9c2234eab29404bc21b268d1e ""
  "/nix/store/km3sxf749m8r0xkcwi5ynhkygyaw1h9g-texlive-combined-full-2018/share/texmf/tex/latex/graphics-def/pdftex.def" 1 17334 520b9b85ad8a2a48eda3f643e27a5179 ""
  "/nix/store/km3sxf749m8r0xkcwi5ynhkygyaw1h9g-texlive-combined-full-2018/share/texmf/tex/latex/graphics/graphics.sty" 1 15272 5a97061616e0c8b2aa79c6615ff769f4 ""
  "/nix/store/km3sxf749m8r0xkcwi5ynhkygyaw1h9g-texlive-combined-full-2018/share/texmf/tex/latex/graphics/graphicx.sty" 1 9063 d0a305975932762117cd1f06a582f896 ""
  "/nix/store/km3sxf749m8r0xkcwi5ynhkygyaw1h9g-texlive-combined-full-2018/share/texmf/tex/latex/graphics/keyval.sty" 1 2591 6404d0c7d28505fb38ce0d86c2e28ae7 ""
  "/nix/store/km3sxf749m8r0xkcwi5ynhkygyaw1h9g-texlive-combined-full-2018/share/texmf/tex/latex/graphics/trig.sty" 1 3977 cb9221976ed8a183afad65b59aa8629a ""
  "/nix/store/km3sxf749m8r0xkcwi5ynhkygyaw1h9g-texlive-combined-full-2018/share/texmf/tex/latex/hyperref/hpdftex.def" 1 51744 477aad43ad6a7ba8c462d20c3e0808e0 ""
  "/nix/store/km3sxf749m8r0xkcwi5ynhkygyaw1h9g-texlive-combined-full-2018/share/texmf/tex/latex/hyperref/hyperref.sty" 1 236074 d994150943d35d6af0d586a60cc78dd1 ""
  "/nix/store/km3sxf749m8r0xkcwi5ynhkygyaw1h9g-texlive-combined-full-2018/share/texmf/tex/latex/hyperref/nameref.sty" 1 12949 81e4e808884a8f0e276b69410e234656 ""
  "/nix/store/km3sxf749m8r0xkcwi5ynhkygyaw1h9g-texlive-combined-full-2018/share/texmf/tex/latex/hyperref/pd1enc.def" 1 14098 b4e1ecab4699a0341b8e1349e4c53fb1 ""
  "/nix/store/km3sxf749m8r0xkcwi5ynhkygyaw1h9g-texlive-combined-full-2018/share/texmf/tex/latex/ifoddpage/ifoddpage.sty" 1 2148 0426cd8bb94163c1e23726d0c15e2c21 ""
  "/nix/store/km3sxf749m8r0xkcwi5ynhkygyaw1h9g-texlive-combined-full-2018/share/texmf/tex/latex/latexconfig/epstopdf-sys.cfg" 1 678 4792914a8f45be57bb98413425e4c7af ""
  "/nix/store/km3sxf749m8r0xkcwi5ynhkygyaw1h9g-texlive-combined-full-2018/share/texmf/tex/latex/latexconfig/hyperref.cfg" 1 235 6031e5765137be07eed51a510b2b8fb7 ""
  "/nix/store/km3sxf749m8r0xkcwi5ynhkygyaw1h9g-texlive-combined-full-2018/share/texmf/tex/latex/lm/lmodern.sty" 1 1606 c17281c7cff2bbd7ff0173e1433487ec ""
  "/nix/store/km3sxf749m8r0xkcwi5ynhkygyaw1h9g-texlive-combined-full-2018/share/texmf/tex/latex/lm/omllmm.fd" 1 888 44447a3a3af84a22454ef89500942d93 ""
  "/nix/store/km3sxf749m8r0xkcwi5ynhkygyaw1h9g-texlive-combined-full-2018/share/texmf/tex/latex/lm/omslmsy.fd" 1 805 af340a8260c447aa315cfc740ff0152f ""
  "/nix/store/km3sxf749m8r0xkcwi5ynhkygyaw1h9g-texlive-combined-full-2018/share/texmf/tex/latex/lm/omxlmex.fd" 1 566 a94661f7b66063f191960bb7935b6ba2 ""
  "/nix/store/km3sxf749m8r0xkcwi5ynhkygyaw1h9g-texlive-combined-full-2018/share/texmf/tex/latex/lm/ot1lmss.fd" 1 1655 27274ffd69942383838a2081fd5be3d1 ""
  "/nix/store/km3sxf749m8r0xkcwi5ynhkygyaw1h9g-texlive-combined-full-2018/share/texmf/tex/latex/lm/t1lmr.fd" 1 1865 afbfccbe7fda9c2dc5078ad7c486bbed ""
  "/nix/store/km3sxf749m8r0xkcwi5ynhkygyaw1h9g-texlive-combined-full-2018/share/texmf/tex/latex/lm/t1lmss.fd" 1 1639 ba1c66ef577aa5cadc2c0fdc691a26ee ""
  "/nix/store/km3sxf749m8r0xkcwi5ynhkygyaw1h9g-texlive-combined-full-2018/share/texmf/tex/latex/ms/everyshi.sty" 1 3878 6aa7c08ff2621006e0603349e40a30a8 ""
  "/nix/store/km3sxf749m8r0xkcwi5ynhkygyaw1h9g-texlive-combined-full-2018/share/texmf/tex/latex/mweights/mweights.sty" 1 4953 67f29a12ea26221103fce6bae3433e60 ""
  "/nix/store/km3sxf749m8r0xkcwi5ynhkygyaw1h9g-texlive-combined-full-2018/share/texmf/tex/latex/oberdiek/auxhook.sty" 1 3834 4363110eb0ef1eb2b71c8fcbcdb6c357 ""
  "/nix/store/km3sxf749m8r0xkcwi5ynhkygyaw1h9g-texlive-combined-full-2018/share/texmf/tex/latex/oberdiek/epstopdf-base.sty" 1 12095 5337833c991d80788a43d3ce26bd1c46 ""
  "/nix/store/km3sxf749m8r0xkcwi5ynhkygyaw1h9g-texlive-combined-full-2018/share/texmf/tex/latex/oberdiek/grfext.sty" 1 7075 2fe3d848bba95f139de11ded085e74aa ""
  "/nix/store/km3sxf749m8r0xkcwi5ynhkygyaw1h9g-texlive-combined-full-2018/share/texmf/tex/latex/oberdiek/kvoptions.sty" 1 22417 1d9df1eb66848aa31b18a593099cf45c ""
  "/nix/store/km3sxf749m8r0xkcwi5ynhkygyaw1h9g-texlive-combined-full-2018/share/texmf/tex/latex/oberdiek/rerunfilecheck.sty" 1 9581 023642318cef9f4677efe364de1e2a27 ""
  "/nix/store/km3sxf749m8r0xkcwi5ynhkygyaw1h9g-texlive-combined-full-2018/share/texmf/tex/latex/pgf/basiclayer/pgf.sty" 1 1090 d20f587ea9464d1841bd0d13d3ff9856 ""
  "/nix/store/km3sxf749m8r0xkcwi5ynhkygyaw1h9g-texlive-combined-full-2018/share/texmf/tex/latex/pgf/basiclayer/pgfcore.sty" 1 410 5bf12ea7330e5f12c445332a4fe9a263 ""
  "/nix/store/km3sxf749m8r0xkcwi5ynhkygyaw1h9g-texlive-combined-full-2018/share/texmf/tex/latex/pgf/compatibility/pgfcomp-version-0-65.sty" 1 21013 e98e1aaaf40d31632787c2bd25d24b57 ""
  "/nix/store/km3sxf749m8r0xkcwi5ynhkygyaw1h9g-texlive-combined-full-2018/share/texmf/tex/latex/pgf/compatibility/pgfcomp-version-1-18.sty" 1 989 2cf3da8e8ec55131c49389428d565e37 ""
  "/nix/store/km3sxf749m8r0xkcwi5ynhkygyaw1h9g-texlive-combined-full-2018/share/texmf/tex/latex/pgf/frontendlayer/tikz.sty" 1 339 592cf35cba3d400082b8a9a5d0199d70 ""
  "/nix/store/km3sxf749m8r0xkcwi5ynhkygyaw1h9g-texlive-combined-full-2018/share/texmf/tex/latex/pgf/math/pgfmath.sty" 1 306 0796eafca5e159e6ec2167a6d22d81b1 ""
  "/nix/store/km3sxf749m8r0xkcwi5ynhkygyaw1h9g-texlive-combined-full-2018/share/texmf/tex/latex/pgf/systemlayer/pgfsys.sty" 1 443 0b2e781830192df35c0fd357cf13e26e ""
  "/nix/store/km3sxf749m8r0xkcwi5ynhkygyaw1h9g-texlive-combined-full-2018/share/texmf/tex/latex/pgf/utilities/pgffor.sty" 1 348 8927fde343487e003b01a4c2ca34073b ""
  "/nix/store/km3sxf749m8r0xkcwi5ynhkygyaw1h9g-texlive-combined-full-2018/share/texmf/tex/latex/pgf/utilities/pgfkeys.sty" 1 274 4cad6e665cc93ac2ac979039a94fa1e1 ""
  "/nix/store/km3sxf749m8r0xkcwi5ynhkygyaw1h9g-texlive-combined-full-2018/share/texmf/tex/latex/pgf/utilities/pgfrcs.sty" 1 325 2bcd023400636339210573e2b3ee298b ""
  "/nix/store/km3sxf749m8r0xkcwi5ynhkygyaw1h9g-texlive-combined-full-2018/share/texmf/tex/latex/pgf/utilities/xxcolor.sty" 1 2232 039fa82ec2c2edd871c3a2d85e9cb2f7 ""
  "/nix/store/km3sxf749m8r0xkcwi5ynhkygyaw1h9g-texlive-combined-full-2018/share/texmf/tex/latex/pgfopts/pgfopts.sty" 1 5540 d5c60cf09c59da351aa4023ed084e4eb ""
  "/nix/store/km3sxf749m8r0xkcwi5ynhkygyaw1h9g-texlive-combined-full-2018/share/texmf/tex/latex/relsize/relsize.sty" 1 15542 c4cc3164fe24f2f2fbb06eb71b1da4c4 ""
  "/nix/store/km3sxf749m8r0xkcwi5ynhkygyaw1h9g-texlive-combined-full-2018/share/texmf/tex/latex/sansmathaccent/sansmathaccent.sty" 1 4280 a62885a2f2d4221d634eb6cd5559e518 ""
  "/nix/store/km3sxf749m8r0xkcwi5ynhkygyaw1h9g-texlive-combined-full-2018/share/texmf/tex/latex/tools/calc.sty" 1 10212 357072c1d20578a30d6387d8a22e72ab ""
  "/nix/store/km3sxf749m8r0xkcwi5ynhkygyaw1h9g-texlive-combined-full-2018/share/texmf/tex/latex/tools/enumerate.sty" 1 3465 3f63ff30365d38132fb55859c9cabd4d ""
  "/nix/store/km3sxf749m8r0xkcwi5ynhkygyaw1h9g-texlive-combined-full-2018/share/texmf/tex/latex/tools/xspace.sty" 1 4542 5251001fb2c96205905dbac86c51c5ab ""
  "/nix/store/km3sxf749m8r0xkcwi5ynhkygyaw1h9g-texlive-combined-full-2018/share/texmf/tex/latex/translator/translator-basic-dictionary-English.dict" 1 3435 0a4d096dde3f8fe682c2aedd33b8137d ""
  "/nix/store/km3sxf749m8r0xkcwi5ynhkygyaw1h9g-texlive-combined-full-2018/share/texmf/tex/latex/translator/translator-bibliography-dictionary-English.dict" 1 903 c6d17f0656e9e1abb172b4faebabd617 ""
  "/nix/store/km3sxf749m8r0xkcwi5ynhkygyaw1h9g-texlive-combined-full-2018/share/texmf/tex/latex/translator/translator-environment-dictionary-English.dict" 1 433 bfb8d1c2c020defd2de8e5c276710094 ""
  "/nix/store/km3sxf749m8r0xkcwi5ynhkygyaw1h9g-texlive-combined-full-2018/share/texmf/tex/latex/translator/translator-months-dictionary-English.dict" 1 1337 9a6c05e8f0c8b3c5f27cbd0e455cf475 ""
  "/nix/store/km3sxf749m8r0xkcwi5ynhkygyaw1h9g-texlive-combined-full-2018/share/texmf/tex/latex/translator/translator-numbers-dictionary-English.dict" 1 1638 2bf1a1dea98f8a4d28033fce76e9cc67 ""
  "/nix/store/km3sxf749m8r0xkcwi5ynhkygyaw1h9g-texlive-combined-full-2018/share/texmf/tex/latex/translator/translator-theorem-dictionary-English.dict" 1 3523 1f9d9b91f7d78b73e74c7e97bca30fb0 ""
  "/nix/store/km3sxf749m8r0xkcwi5ynhkygyaw1h9g-texlive-combined-full-2018/share/texmf/tex/latex/translator/translator.sty" 1 8690 269ca424c32d015df5d558ef9752619d ""
  "/nix/store/km3sxf749m8r0xkcwi5ynhkygyaw1h9g-texlive-combined-full-2018/share/texmf/tex/latex/url/url.sty" 1 12796 8edb7d69a20b857904dd0ea757c14ec9 ""
  "/nix/store/km3sxf749m8r0xkcwi5ynhkygyaw1h9g-texlive-combined-full-2018/share/texmf/tex/latex/varwidth/varwidth.sty" 1 10894 d359a13923460b2a73d4312d613554c8 ""
  "/nix/store/km3sxf749m8r0xkcwi5ynhkygyaw1h9g-texlive-combined-full-2018/share/texmf/tex/latex/xcolor/xcolor.sty" 1 55589 34128738f682d033422ca125f82e5d62 ""
  "/nix/store/km3sxf749m8r0xkcwi5ynhkygyaw1h9g-texlive-combined-full-2018/share/texmf/tex/latex/xkeyval/xkeyval.sty" 1 4962 9c1069474ff71dbc47d5006555e352d3 ""
  "/nix/store/km3sxf749m8r0xkcwi5ynhkygyaw1h9g-texlive-combined-full-2018/share/texmf/web2c/texmf.cnf" 1 36880 8785be3d8aaa077b135ec0b9a1352cdc ""
  "figures/1200px-Universite_du_Littoral_(logo).png" 1603114107 57083 deca9a6c83452cab230e64cc62438164 ""
  "figures/cmaes_algo.png" 1603112562 212294 cfd209c8a446dd2e5b16da4926162562 ""
  "figures/lisic.jpg" 1603112562 28847 93cecccd5b46cd10925ca44cc4d0e73b ""
  "figures/logo-WEENAT_long.pdf" 1603112562 6611 dc660e27e52c3219e33e479e2fe7ec18 ""
  "figures/modeleArtis.png" 1603112562 93241 0452e88b7771d11f3aa624b7e2449dbb ""
  "figures/multimodal.png" 1603112562 29616 f98adf6af41a6873a59e8196bbb33a2a ""
  "figures/ulco.pdf" 1603112562 47613 c52ddd0c3fb6e85f7cd2be1181178478 ""
  "images/QRDS_1" 0 -1 0 ""
  "images/QRDS_2" 0 -1 0 ""
  "images/QRDS_3" 0 -1 0 ""
  "images/QRDS_4" 0 -1 0 ""
  "slides.aux" 0 -1 0 ""
  "slides.bbl" 0 -1 0 "bibtex slides"
  "slides.nav" 0 -1 0 ""
  "slides.out" 0 -1 0 ""
  "slides.tex" 1604326795 16771 fb05a77c8f5bee58dbe5972c1a524e28 ""
  "slides.toc" 0 -1 0 ""
  (generated)
  "/home/amaury/git/amaury_dubois/these/slide_these/slides.log"
  "/home/amaury/git/amaury_dubois/these/slide_these/slides.pdf"
  "slides.aux"
  "slides.log"
  "slides.nav"
  "slides.snm"
  "slides.out"
  "slides.pdf"
  "slides.toc"
