\headcommand {\slideentry {0}{0}{1}{1/1}{}{0}}
\headcommand {\beamer@framepages {1}{1}}
\headcommand {\slideentry {0}{0}{2}{2/2}{}{0}}
\headcommand {\beamer@framepages {2}{2}}
\headcommand {\beamer@sectionpages {1}{2}}
\headcommand {\beamer@subsectionpages {1}{2}}
\headcommand {\sectionentry {1}{Contexte}{3}{Contexte}{0}}
\headcommand {\slideentry {1}{0}{1}{3/3}{}{0}}
\headcommand {\beamer@framepages {3}{3}}
\headcommand {\slideentry {1}{0}{2}{4/4}{}{0}}
\headcommand {\beamer@framepages {4}{4}}
\headcommand {\slideentry {1}{0}{3}{5/5}{}{0}}
\headcommand {\beamer@framepages {5}{5}}
\headcommand {\slideentry {1}{0}{4}{6/7}{}{0}}
\headcommand {\beamer@framepages {6}{7}}
\headcommand {\slideentry {1}{0}{5}{8/8}{}{0}}
\headcommand {\beamer@framepages {8}{8}}
\headcommand {\slideentry {1}{0}{6}{9/9}{}{0}}
\headcommand {\beamer@framepages {9}{9}}
\headcommand {\slideentry {1}{0}{7}{10/12}{}{0}}
\headcommand {\beamer@framepages {10}{12}}
\headcommand {\beamer@sectionpages {3}{12}}
\headcommand {\beamer@subsectionpages {3}{12}}
\headcommand {\sectionentry {2}{Optimisation \IeC {\'e}volutionnaire}{13}{Optimisation \IeC {\'e}volutionnaire}{0}}
\headcommand {\slideentry {2}{0}{1}{13/13}{}{0}}
\headcommand {\beamer@framepages {13}{13}}
\headcommand {\slideentry {2}{0}{2}{14/14}{}{0}}
\headcommand {\beamer@framepages {14}{14}}
\headcommand {\beamer@subsectionpages {13}{14}}
\headcommand {\beamer@subsectionentry {0}{2}{1}{15}{Probl\IeC {\`e}me}}
\headcommand {\slideentry {2}{1}{1}{15/15}{Probl\IeC {\`e}me}{0}}
\headcommand {\beamer@framepages {15}{15}}
\headcommand {\slideentry {2}{1}{2}{16/17}{Probl\IeC {\`e}me}{0}}
\headcommand {\beamer@framepages {16}{17}}
\headcommand {\slideentry {2}{1}{3}{18/20}{Probl\IeC {\`e}me}{0}}
\headcommand {\beamer@framepages {18}{20}}
\headcommand {\slideentry {2}{1}{4}{21/21}{Probl\IeC {\`e}me}{0}}
\headcommand {\beamer@framepages {21}{21}}
\headcommand {\slideentry {2}{1}{5}{22/22}{Probl\IeC {\`e}me}{0}}
\headcommand {\beamer@framepages {22}{22}}
\headcommand {\beamer@subsectionpages {15}{22}}
\headcommand {\beamer@subsectionentry {0}{2}{2}{23}{\IeC {\'E}tat de l'art}}
\headcommand {\slideentry {2}{2}{1}{23/23}{\IeC {\'E}tat de l'art}{0}}
\headcommand {\beamer@framepages {23}{23}}
\headcommand {\slideentry {2}{2}{2}{24/24}{\IeC {\'E}tat de l'art}{0}}
\headcommand {\beamer@framepages {24}{24}}
\headcommand {\slideentry {2}{2}{3}{25/25}{\IeC {\'E}tat de l'art}{0}}
\headcommand {\beamer@framepages {25}{25}}
\headcommand {\slideentry {2}{2}{4}{26/26}{\IeC {\'E}tat de l'art}{0}}
\headcommand {\beamer@framepages {26}{26}}
\headcommand {\slideentry {2}{2}{5}{27/27}{\IeC {\'E}tat de l'art}{0}}
\headcommand {\beamer@framepages {27}{27}}
\headcommand {\slideentry {2}{2}{6}{28/28}{\IeC {\'E}tat de l'art}{0}}
\headcommand {\beamer@framepages {28}{28}}
\headcommand {\slideentry {2}{2}{7}{29/32}{\IeC {\'E}tat de l'art}{0}}
\headcommand {\beamer@framepages {29}{32}}
\headcommand {\slideentry {2}{2}{8}{33/33}{\IeC {\'E}tat de l'art}{0}}
\headcommand {\beamer@framepages {33}{33}}
\headcommand {\beamer@subsectionpages {23}{33}}
\headcommand {\beamer@subsectionentry {0}{2}{3}{34}{Contribution}}
\headcommand {\slideentry {2}{3}{1}{34/34}{Contribution}{0}}
\headcommand {\beamer@framepages {34}{34}}
\headcommand {\slideentry {2}{3}{2}{35/35}{Contribution}{0}}
\headcommand {\beamer@framepages {35}{35}}
\headcommand {\slideentry {2}{3}{3}{36/36}{Contribution}{0}}
\headcommand {\beamer@framepages {36}{36}}
\headcommand {\beamer@sectionpages {13}{36}}
\headcommand {\beamer@subsectionpages {34}{36}}
\headcommand {\sectionentry {3}{Apprentissage par renforcement}{37}{Apprentissage par renforcement}{0}}
\headcommand {\slideentry {3}{0}{1}{37/37}{}{0}}
\headcommand {\beamer@framepages {37}{37}}
\headcommand {\slideentry {3}{0}{2}{38/38}{}{0}}
\headcommand {\beamer@framepages {38}{38}}
\headcommand {\beamer@subsectionpages {37}{38}}
\headcommand {\beamer@subsectionentry {0}{3}{1}{39}{Probl\IeC {\`e}me}}
\headcommand {\slideentry {3}{1}{1}{39/39}{Probl\IeC {\`e}me}{0}}
\headcommand {\beamer@framepages {39}{39}}
\headcommand {\slideentry {3}{1}{2}{40/40}{Probl\IeC {\`e}me}{0}}
\headcommand {\beamer@framepages {40}{40}}
\headcommand {\beamer@subsectionpages {39}{40}}
\headcommand {\beamer@subsectionentry {0}{3}{2}{41}{\IeC {\'E}tat de l'art}}
\headcommand {\slideentry {3}{2}{1}{41/41}{\IeC {\'E}tat de l'art}{0}}
\headcommand {\beamer@framepages {41}{41}}
\headcommand {\slideentry {3}{2}{2}{42/42}{\IeC {\'E}tat de l'art}{0}}
\headcommand {\beamer@framepages {42}{42}}
\headcommand {\slideentry {3}{2}{3}{43/43}{\IeC {\'E}tat de l'art}{0}}
\headcommand {\beamer@framepages {43}{43}}
\headcommand {\beamer@subsectionpages {41}{43}}
\headcommand {\beamer@subsectionentry {0}{3}{3}{44}{Contribution}}
\headcommand {\slideentry {3}{3}{1}{44/44}{Contribution}{0}}
\headcommand {\beamer@framepages {44}{44}}
\headcommand {\slideentry {3}{3}{2}{45/45}{Contribution}{0}}
\headcommand {\beamer@framepages {45}{45}}
\headcommand {\beamer@sectionpages {37}{45}}
\headcommand {\beamer@subsectionpages {44}{45}}
\headcommand {\sectionentry {4}{Apprentissage supervis\IeC {\'e}}{46}{Apprentissage supervis\IeC {\'e}}{0}}
\headcommand {\slideentry {4}{0}{1}{46/46}{}{0}}
\headcommand {\beamer@framepages {46}{46}}
\headcommand {\slideentry {4}{0}{2}{47/47}{}{0}}
\headcommand {\beamer@framepages {47}{47}}
\headcommand {\beamer@subsectionpages {46}{47}}
\headcommand {\beamer@subsectionentry {0}{4}{1}{48}{Probl\IeC {\`e}me}}
\headcommand {\slideentry {4}{1}{1}{48/48}{Probl\IeC {\`e}me}{0}}
\headcommand {\beamer@framepages {48}{48}}
\headcommand {\slideentry {4}{1}{2}{49/49}{Probl\IeC {\`e}me}{0}}
\headcommand {\beamer@framepages {49}{49}}
\headcommand {\beamer@subsectionpages {48}{49}}
\headcommand {\beamer@subsectionentry {0}{4}{2}{50}{\IeC {\'E}tat de l'art}}
\headcommand {\slideentry {4}{2}{1}{50/50}{\IeC {\'E}tat de l'art}{0}}
\headcommand {\beamer@framepages {50}{50}}
\headcommand {\slideentry {4}{2}{2}{51/51}{\IeC {\'E}tat de l'art}{0}}
\headcommand {\beamer@framepages {51}{51}}
\headcommand {\beamer@subsectionpages {50}{51}}
\headcommand {\beamer@subsectionentry {0}{4}{3}{52}{Contribution}}
\headcommand {\slideentry {4}{3}{1}{52/52}{Contribution}{0}}
\headcommand {\beamer@framepages {52}{52}}
\headcommand {\slideentry {4}{3}{2}{53/53}{Contribution}{0}}
\headcommand {\beamer@framepages {53}{53}}
\headcommand {\slideentry {4}{3}{3}{54/54}{Contribution}{0}}
\headcommand {\beamer@framepages {54}{54}}
\headcommand {\slideentry {4}{3}{4}{55/55}{Contribution}{0}}
\headcommand {\beamer@framepages {55}{55}}
\headcommand {\slideentry {4}{3}{5}{56/56}{Contribution}{0}}
\headcommand {\beamer@framepages {56}{56}}
\headcommand {\beamer@sectionpages {46}{56}}
\headcommand {\beamer@subsectionpages {52}{56}}
\headcommand {\sectionentry {5}{Conclusion g\IeC {\'e}n\IeC {\'e}rale}{57}{Conclusion g\IeC {\'e}n\IeC {\'e}rale}{0}}
\headcommand {\slideentry {5}{0}{1}{57/57}{}{0}}
\headcommand {\beamer@framepages {57}{57}}
\headcommand {\slideentry {5}{0}{2}{58/58}{}{0}}
\headcommand {\beamer@framepages {58}{58}}
\headcommand {\slideentry {5}{0}{3}{59/59}{}{0}}
\headcommand {\beamer@framepages {59}{59}}
\headcommand {\slideentry {5}{0}{4}{60/60}{}{0}}
\headcommand {\beamer@framepages {60}{60}}
\headcommand {\gdef \insertmainframenumber {30}}
\headcommand {\partentry {Annexe}{1}}
\headcommand {\beamer@partpages {1}{60}}
\headcommand {\beamer@sectionpages {57}{60}}
\headcommand {\beamer@subsectionpages {57}{60}}
\headcommand {\beamer@appendixpages {61}}
\headcommand {\slideentry {5}{0}{5}{61/61}{}{1}}
\headcommand {\beamer@framepages {61}{61}}
\headcommand {\beamer@partpages {61}{61}}
\headcommand {\beamer@subsectionpages {61}{61}}
\headcommand {\beamer@sectionpages {61}{61}}
\headcommand {\beamer@documentpages {61}}
\headcommand {\gdef \inserttotalframenumber {31}}
